-0.57446731215166402;44.8438837199486;TOILETTES MIXTES PMR                                                                                ;toilets.png                                                                                                                                                                                                                                                    
-0.58457718330056596;44.861167459214201;Urinoir Pierre Trébod                                                                              ;toilets.png                                                                                                                                                                                                                                                    
-0.57213874016928901;44.842371692267797;TOILETTES MIXTES PMR                                                                                ;toilets.png                                                                                                                                                                                                                                                    
-0.61288066516282502;44.8246288668863;Urinoir Alfred Smith                                                                                ;toilets.png                                                                                                                                                                                                                                                    
-0.54677071004675704;44.8415949968253;Urinoir Benauge                                                                                     ;toilets.png                                                                                                                                                                                                                                                    
-0.54966881758028496;44.870597726800597;Urinoir Buscaillet                                                                                  ;toilets.png                                                                                                                                                                                                                                                    
-0.57857966786102599;44.834935491640699;Urinoir République                                                                                 ;toilets.png                                                                                                                                                                                                                                                    
-0.572441821689467;44.847136163724002;CHALET DE NECESSITE AVEC DOUCHES                                                                    ;toilets.png                                                                                                                                                                                                                                                    
-0.54821129970586602;44.876991090380002;Urinoir Philippe Lebon                                                                              ;toilets.png                                                                                                                                                                                                                                                    
-0.58608783462006897;44.839194331074097;Urinoir Lateulade                                                                                   ;toilets.png                                                                                                                                                                                                                                                    
-0.54574753189917302;44.849346248441002;Urinoir Avenue Thiers                                                                               ;toilets.png                                                                                                                                                                                                                                                    
-0.54438084445224;44.875069564970097;Urinoir Albert Brandenburg                                                                          ;toilets.png                                                                                                                                                                                                                                                    
-0.56348442807362598;44.813389192577702;Urinoir Boulevard Albert 1er                                                                        ;toilets.png                                                                                                                                                                                                                                                    
-0.57189456974463104;44.831430107281598;Urinoir Paul Broca                                                                                  ;toilets.png                                                                                                                                                                                                                                                    
-0.56432147067006599;44.826712901155403;Urinoir Dormoy                                                                                      ;toilets.png                                                                                                                                                                                                                                                    
-0.57738397208009196;44.822989697855199;Urinoir Simiot                                                                                      ;toilets.png                                                                                                                                                                                                                                                    
-0.55025996516131703;44.8430567057489;Urinoir Calixte Camelle                                                                             ;toilets.png                                                                                                                                                                                                                                                    
-0.60144846033873101;44.831556377109997;Urinoir Edouard Laroque                                                                             ;toilets.png                                                                                                                                                                                                                                                    
-0.56291732247959703;44.829530512184;Urinoir André Meunier                                                                              ;toilets.png                                                                                                                                                                                                                                                    
-0.58836359818939798;44.830789557383;Urinoir Arlac                                                                                       ;toilets.png                                                                                                                                                                                                                                                    
-0.60780628475028697;44.835185610133003;Urinoir Frantz Schrader                                                                             ;toilets.png                                                                                                                                                                                                                                                    
-0.54519073408854501;44.842922003791401;Urinoir Ferdinand Palau                                                                             ;toilets.png                                                                                                                                                                                                                                                    
-0.58256823788387802;44.838692825083399;TOILETTES MIXTES PMR                                                                                ;toilets.png                                                                                                                                                                                                                                                    
-0.56727848446676998;44.838791051714502;TOILETTES MIXTES PMR                                                                                ;toilets.png                                                                                                                                                                                                                                                    
-0.62146035661779997;44.857087102510903;Sanitaire automatique                                                                               ;toilets.png                                                                                                                                                                                                                                                    
-0.59928729802279201;44.8535319679415;TOILETTES MIXTES PMR                                                                                ;toilets.png                                                                                                                                                                                                                                                    
-0.56594780098854003;44.904904108173;TOILETTES MIXTES PMR                                                                                ;toilets.png                                                                                                                                                                                                                                                    
-0.58229085748665699;44.860591714797799;TOILETTES MIXTES PMR                                                                                ;toilets.png                                                                                                                                                                                                                                                    
-0.616170914392001;44.851606181913802;SANITAIRE AUTOMATIQUE                                                                               ;toilets.png                                                                                                                                                                                                                                                    
-0.61095142406631597;44.833140801569499;TOILETTES MIXTES PMR                                                                                ;toilets.png                                                                                                                                                                                                                                                    
-0.60333974270816004;44.829511797433803;TOILETTES MIXTES PMR                                                                                ;toilets.png                                                                                                                                                                                                                                                    
-0.59432815102575798;44.8330130187272;TOILETTES MIXTES PMR                                                                                ;toilets.png                                                                                                                                                                                                                                                    
-0.57331478976635297;44.844646322150702;TOILETTES MIXTES PMR                                                                                ;toilets.png                                                                                                                                                                                                                                                    
-0.572454186136095;44.835249494812402;TOILETTES MIXTES PMR                                                                                ;toilets.png                                                                                                                                                                                                                                                    
-0.57562356883446997;44.841142009567399;TOILETTES MIXTES PMR                                                                                ;toilets.png                                                                                                                                                                                                                                                    
-0.56701740658882205;44.852661830367602;TOILETTES MIXTES PMR                                                                                ;toilets.png                                                                                                                                                                                                                                                    
-0.56985394627798502;44.849049777370702;TOILETTES MIXTES PMR                                                                                ;toilets.png                                                                                                                                                                                                                                                    
-0.57404525869356804;44.851974299623201;TOILETTES MIXTES PMR                                                                                ;toilets.png                                                                                                                                                                                                                                                    
-0.57033289016277999;44.846846166257002;TOILETTES MIXTES PMR                                                                                ;toilets.png                                                                                                                                                                                                                                                    
-0.57496162573893195;44.846901020131199;TOILETTES MIXTES PMR                                                                                ;toilets.png                                                                                                                                                                                                                                                    
-0.55118585241093998;44.827701903259701;TOILETTES MIXTES PMR                                                                                ;toilets.png                                                                                                                                                                                                                                                    
-0.57710610267672902;44.8332744380251;TOILETTES MIXTES PMR                                                                                ;toilets.png                                                                                                                                                                                                                                                    
-0.580138546512449;44.8348205141139;TOILETTES MIXTES PMR                                                                                ;toilets.png                                                                                                                                                                                                                                                    
-0.57313161684366298;44.8312773849294;TOILETTES MIXTES PMR                                                                                ;toilets.png                                                                                                                                                                                                                                                    
-0.56681018677234296;44.8305549317135;TOILETTES MIXTES PMR                                                                                ;toilets.png                                                                                                                                                                                                                                                    
-0.56232965394905898;44.829687580905599;TOILETTES MIXTES PMR                                                                                ;toilets.png                                                                                                                                                                                                                                                    
-0.55056556966404302;44.827411659821301;TOILETTES MIXTES PMR                                                                                ;toilets.png                                                                                                                                                                                                                                                    
-0.55461510259123203;44.824339785015503;TOILETTES MIXTES PMR                                                                                ;toilets.png                                                                                                                                                                                                                                                    
-0.56316053249679299;44.8223735462417;TOILETTES MIXTES PMR                                                                                ;toilets.png                                                                                                                                                                                                                                                    
-0.572011114618454;44.820301760424201;TOILETTES MIXTES PMR                                                                                ;toilets.png                                                                                                                                                                                                                                                    
-0.57670720912651896;44.826504623969598;TOILETTES MIXTES PMR                                                                                ;toilets.png                                                                                                                                                                                                                                                    
-0.57536414897958199;44.832182913835602;TOILETTES MIXTES PMR                                                                                ;toilets.png                                                                                                                                                                                                                                                    
-0.56293034048621304;44.834891698211599;TOILETTES MIXTES PMR                                                                                ;toilets.png                                                                                                                                                                                                                                                    
-0.56500988641864103;44.834399583060097;TOILETTES MIXTES PMR                                                                                ;toilets.png                                                                                                                                                                                                                                                    
-0.56116664142018802;44.8336657953068;TOILETTES MIXTES PMR                                                                                ;toilets.png                                                                                                                                                                                                                                                    
-0.55853350930440304;44.832026662682303;TOILETTES MIXTES PMR                                                                                ;toilets.png                                                                                                                                                                                                                                                    
-0.55131530546696506;44.824164765561498;TOILETTES MIXTES PMR                                                                                ;toilets.png                                                                                                                                                                                                                                                    
-0.55766046302360395;44.826141760617801;TOILETTES MIXTES PMR                                                                                ;toilets.png                                                                                                                                                                                                                                                    
-0.55962940867625699;44.841048100570902;TOILETTES MIXTES PMR                                                                                ;toilets.png                                                                                                                                                                                                                                                    
-0.56000105892610896;44.839825802910603;TOILETTES MIXTES PMR                                                                                ;toilets.png                                                                                                                                                                                                                                                    
-0.54989805093163902;44.842811458471701;TOILETTES MIXTES PMR                                                                                ;toilets.png                                                                                                                                                                                                                                                    
-0.56507286926866496;44.845339445957002;TOILETTES MIXTES PMR                                                                                ;toilets.png                                                                                                                                                                                                                                                    
-0.56130163984137005;44.850048163492502;TOILETTES MIXTES PMR                                                                                ;toilets.png                                                                                                                                                                                                                                                    
-0.57825847768536298;44.847784423555098;TOILETTES MIXTES PMR                                                                                ;toilets.png                                                                                                                                                                                                                                                    
-0.58099881063037595;44.850002406000598;TOILETTES MIXTES PMR                                                                                ;toilets.png                                                                                                                                                                                                                                                    
-0.58532696735243095;44.843246818511801;TOILETTES MIXTES PMR                                                                                ;toilets.png                                                                                                                                                                                                                                                    
-0.59923833480837396;44.824272102141599;TOILETTES MIXTES PMR                                                                                ;toilets.png                                                                                                                                                                                                                                                    
