-0.58457718330056596;44.861167459214201;Urinoir Pierre Trébod                                                                              ;toilets.png                                                                                                                                                                                                                                                    
-0.58229085748665699;44.860591714797799;TOILETTES MIXTES PMR                                                                                ;toilets.png                                                                                                                                                                                                                                                    
-0.56701740658882205;44.852661830367602;TOILETTES MIXTES PMR                                                                                ;toilets.png                                                                                                                                                                                                                                                    
-0.56985394627798502;44.849049777370702;TOILETTES MIXTES PMR                                                                                ;toilets.png                                                                                                                                                                                                                                                    
-0.57404525869356804;44.851974299623201;TOILETTES MIXTES PMR                                                                                ;toilets.png                                                                                                                                                                                                                                                    
-0.57496162573893195;44.846901020131199;TOILETTES MIXTES PMR                                                                                ;toilets.png                                                                                                                                                                                                                                                    
-0.57825847768536298;44.847784423555098;TOILETTES MIXTES PMR                                                                                ;toilets.png                                                                                                                                                                                                                                                    
-0.58099881063037595;44.850002406000598;TOILETTES MIXTES PMR                                                                                ;toilets.png                                                                                                                                                                                                                                                    
