-0.59476819777643797;44.848283959544503;Jardin de la Visitation                                                                             ;themepark.png                                                                                                                                                                                                                                                  
-0.58046763537233703;44.838105357481602;Jardin de la Mairie                                                                                 ;themepark.png                                                                                                                                                                                                                                                  
-0.59363959917084796;44.842067691332304;Square Georges Mandel                                                                               ;themepark.png                                                                                                                                                                                                                                                  
-0.569550040671983;44.836608009857102;Square Jean Bureau                                                                                  ;themepark.png                                                                                                                                                                                                                                                  
-0.58394827512605096;44.837204462934103;Esplanade Charles de Gaulle                                                                         ;themepark.png                                                                                                                                                                                                                                                  
-0.57143649796960805;44.8394516858381;Square Vinet                                                                                        ;themepark.png                                                                                                                                                                                                                                                  
-0.58522002187560096;44.843000874943698;Place des Martyrs de la Résistance                                                                 ;themepark.png                                                                                                                                                                                                                                                  
