-0.594659546931392;44.846387301735199;Marc Nouaux                                                                                         ;parking.png                                                                                                                                                                                                                                                    
-0.57757524036358099;44.843112526532202;Grands Hommes                                                                                       ;parking.png                                                                                                                                                                                                                                                    
-0.57990141293834796;44.842323683112198;Auditorium                                                                                          ;parking.png                                                                                                                                                                                                                                                    
-0.57237252701738295;44.835261697199101;Victor Hugo                                                                                         ;parking.png                                                                                                                                                                                                                                                    
-0.568466956070667;44.8376611155064;Alsace-Lorraine                                                                                     ;parking.png                                                                                                                                                                                                                                                    
-0.57210050380241495;44.847047338459099;Allées de Chartres                                                                                 ;parking.png                                                                                                                                                                                                                                                    
