-0.63152403604874496;44.8538518191816;Parc Monséjour                                                                                     ;themepark.png                                                                                                                                                                                                                                                  
-0.60615352635813302;44.840218115423198;Jardin de Lussy                                                                                     ;themepark.png                                                                                                                                                                                                                                                  
-0.62045544130150698;44.844380632783498;Square Raymond Poincaré                                                                            ;themepark.png                                                                                                                                                                                                                                                  
-0.60416937758460298;44.855008324296499;Parc Bordelais_Petits                                                                               ;themepark.png                                                                                                                                                                                                                                                  
-0.60391346009454405;44.8552821579487;Parc Bordelais_Grands                                                                               ;themepark.png                                                                                                                                                                                                                                                  
-0.601930413206061;44.852085248004997;Parc Bordelais_Déversoir                                                                           ;themepark.png                                                                                                                                                                                                                                                  
-0.63703471503661302;44.860157989521902;Square Les Jasmins                                                                                  ;themepark.png                                                                                                                                                                                                                                                  
-0.61480510506707697;44.850915509691397;Square de l'église Saint Amand                                                                     ;themepark.png                                                                                                                                                                                                                                                  
-0.60324213558359496;44.850457727835597;Parc Céré_Grands                                                                                  ;themepark.png                                                                                                                                                                                                                                                  
-0.60380809231381805;44.850226875937302;Parc Céré_PMR                                                                                     ;themepark.png                                                                                                                                                                                                                                                  
-0.60374235963345602;44.850506784106699;Parc Céré_Petits                                                                                  ;themepark.png                                                                                                                                                                                                                                                  
