{"type":"FeatureCollection","features":[
{"type":"Feature",
 "properties":
 {"icon":"images/icones/school.png",
  "description":"Ecole Elémentaire Montaud"},
 "geometry":
 {"type":"Point",
  "coordinates":[-0.55447793065199003,44.841330545259403,0]}}
,
{"type":"Feature",
 "properties":
 {"icon":"images/icones/school.png",
  "description":"Ecole Elémentaire Cazemajor"},
 "geometry":
 {"type":"Point",
  "coordinates":[-0.56933528590912097,44.8242278061674,0]}}
,
{"type":"Feature",
 "properties":
 {"icon":"images/icones/school.png",
  "description":"Ecole Maternelle Beck"},
 "geometry":
 {"type":"Point",
  "coordinates":[-0.55096568003577695,44.823751597736099,0]}}
,
{"type":"Feature",
 "properties":
 {"icon":"images/icones/school.png",
  "description":"Conservatoire Jacques Thibaud"},
 "geometry":
 {"type":"Point",
  "coordinates":[-0.55976144955643503,44.831473533663399,0]}}
,
{"type":"Feature",
 "properties":
 {"icon":"images/icones/school.png",
  "description":"Ecole Elémentaire Henri IV"},
 "geometry":
 {"type":"Point",
  "coordinates":[-0.57611475848872495,44.832575504847298,0]}}
,
{"type":"Feature",
 "properties":
 {"icon":"images/icones/school.png",
  "description":"Ecole maternelle et élémentaire Bon Pasteur"},
 "geometry":
 {"type":"Point",
  "coordinates":[-0.59904056751897705,44.8470694184455,0]}}
,
{"type":"Feature",
 "properties":
 {"icon":"images/icones/school.png",
  "description":"Ecole Elémentaire Menuts"},
 "geometry":
 {"type":"Point",
  "coordinates":[-0.56749018059241896,44.832945511125402,0]}}
,
{"type":"Feature",
 "properties":
 {"icon":"images/icones/school.png",
  "description":"Ecole Maternelle Paix"},
 "geometry":
 {"type":"Point",
  "coordinates":[-0.58859129832756496,44.843705341367297,0]}}
,
{"type":"Feature",
 "properties":
 {"icon":"images/icones/school.png",
  "description":"Ecole Maternelle Stéhélin"},
 "geometry":
 {"type":"Point",
  "coordinates":[-0.62437349690453903,44.856986092059302,0]}}
,
{"type":"Feature",
 "properties":
 {"icon":"images/icones/school.png",
  "description":"Ecole Maternelle Saint André"},
 "geometry":
 {"type":"Point",
  "coordinates":[-0.61563396871586695,44.854895281436796,0]}}
,
{"type":"Feature",
 "properties":
 {"icon":"images/icones/school.png",
  "description":"Ecole Elémentaire Lac II"},
 "geometry":
 {"type":"Point",
  "coordinates":[-0.56984532268628696,44.872739953491902,0]}}
,
{"type":"Feature",
 "properties":
 {"icon":"images/icones/school.png",
  "description":"Ecole Elémentaire Benauge"},
 "geometry":
 {"type":"Point",
  "coordinates":[-0.54546700361919398,44.846219720129596,0]}}
,
{"type":"Feature",
 "properties":
 {"icon":"images/icones/school.png",
  "description":"Ecole Maternelle Menuts"},
 "geometry":
 {"type":"Point",
  "coordinates":[-0.56733197375148103,44.8333276731152,0]}}
,
{"type":"Feature",
 "properties":
 {"icon":"images/icones/school.png",
  "description":"Ecole Elémentaire Stendhal"},
 "geometry":
 {"type":"Point",
  "coordinates":[-0.56840027439997798,44.856388262896303,0]}}
,
{"type":"Feature",
 "properties":
 {"icon":"images/icones/school.png",
  "description":"Ecole Maternelle Lac III"},
 "geometry":
 {"type":"Point",
  "coordinates":[-0.57489723123187098,44.875017117233199,0]}}
,
{"type":"Feature",
 "properties":
 {"icon":"images/icones/school.png",
  "description":"Ecole Maternelle Condorcet"},
 "geometry":
 {"type":"Point",
  "coordinates":[-0.58007292957442302,44.858939948830802,0]}}
,
{"type":"Feature",
 "properties":
 {"icon":"images/icones/school.png",
  "description":"Ecole Elémentaire Francin"},
 "geometry":
 {"type":"Point",
  "coordinates":[-0.56137363861504297,44.824418642029798,0]}}
,
{"type":"Feature",
 "properties":
 {"icon":"images/icones/school.png",
  "description":"Ecole Elémentaire Saint Bruno"},
 "geometry":
 {"type":"Point",
  "coordinates":[-0.58952149818635402,44.838513198018099,0]}}
,
{"type":"Feature",
 "properties":
 {"icon":"images/icones/school.png",
  "description":"Ecole Elémentaire Jean Monnet"},
 "geometry":
 {"type":"Point",
  "coordinates":[-0.57450162215354095,44.872920047126001,0]}}
,
{"type":"Feature",
 "properties":
 {"icon":"images/icones/school.png",
  "description":"Ecole Maternelle Stendhal"},
 "geometry":
 {"type":"Point",
  "coordinates":[-0.56800623302867004,44.856101012043602,0]}}
,
{"type":"Feature",
 "properties":
 {"icon":"images/icones/school.png",
  "description":"Ecole Elémentaire Sousa Mendes"},
 "geometry":
 {"type":"Point",
  "coordinates":[-0.57097380659530905,44.863851292730303,0]}}
,
{"type":"Feature",
 "properties":
 {"icon":"images/icones/school.png",
  "description":"Ecole Maternelle Argonne"},
 "geometry":
 {"type":"Point",
  "coordinates":[-0.57610210640227399,44.827488259414999,0]}}
,
{"type":"Feature",
 "properties":
 {"icon":"images/icones/school.png",
  "description":"Ecole Maternelle Anatole France"},
 "geometry":
 {"type":"Point",
  "coordinates":[-0.58231986840643701,44.839010356812899,0]}}
,
{"type":"Feature",
 "properties":
 {"icon":"images/icones/school.png",
  "description":"Ecole Elémentaire Balguerie"},
 "geometry":
 {"type":"Point",
  "coordinates":[-0.569773835604797,44.856515840458997,0]}}
,
{"type":"Feature",
 "properties":
 {"icon":"images/icones/school.png",
  "description":"Ecole Maternelle Lagrange"},
 "geometry":
 {"type":"Point",
  "coordinates":[-0.58333545213071702,44.850744612375799,0]}}
,
{"type":"Feature",
 "properties":
 {"icon":"images/icones/school.png",
  "description":"Ecole Maternelle Naujac"},
 "geometry":
 {"type":"Point",
  "coordinates":[-0.58497213881114096,44.8477768199648,0]}}
,
{"type":"Feature",
 "properties":
 {"icon":"images/icones/school.png",
  "description":"Ecole Maternelle Paul Lapie"},
 "geometry":
 {"type":"Point",
  "coordinates":[-0.61525698886527802,44.851185998904,0]}}
,
{"type":"Feature",
 "properties":
 {"icon":"images/icones/school.png",
  "description":"Ecole maternelle et élémentaire Saint Michel"},
 "geometry":
 {"type":"Point",
  "coordinates":[-0.56685491786664099,44.833899641914797,0]}}
,
{"type":"Feature",
 "properties":
 {"icon":"images/icones/school.png",
  "description":"Ecole Elémentaire Nuyens"},
 "geometry":
 {"type":"Point",
  "coordinates":[-0.56160252578109604,44.844636935730698,0]}}
,
{"type":"Feature",
 "properties":
 {"icon":"images/icones/school.png",
  "description":"Ecole maternelle et élémentaire Saint Seurin"},
 "geometry":
 {"type":"Point",
  "coordinates":[-0.58997320034671996,44.843751421612403,0]}}
,
{"type":"Feature",
 "properties":
 {"icon":"images/icones/school.png",
  "description":"Ecole Maternelle Nuyens"},
 "geometry":
 {"type":"Point",
  "coordinates":[-0.561247855964491,44.844375689992198,0]}}
,
{"type":"Feature",
 "properties":
 {"icon":"images/icones/school.png",
  "description":"Ecole Maternelle Saint Bruno"},
 "geometry":
 {"type":"Point",
  "coordinates":[-0.58927060991370395,44.838051308931398,0]}}
,
{"type":"Feature",
 "properties":
 {"icon":"images/icones/school.png",
  "description":"Ecole Maternelle Jean Monnet"},
 "geometry":
 {"type":"Point",
  "coordinates":[-0.57429300173220299,44.872799234185301,0]}}
,
{"type":"Feature",
 "properties":
 {"icon":"images/icones/school.png",
  "description":"Ecole Maternelle Flornoy"},
 "geometry":
 {"type":"Point",
  "coordinates":[-0.60964681266656895,44.833283767554697,0]}}
,
{"type":"Feature",
 "properties":
 {"icon":"images/icones/school.png",
  "description":"Ecole Elémentaire Flornoy"},
 "geometry":
 {"type":"Point",
  "coordinates":[-0.61056489721283103,44.83317032475,0]}}
,
{"type":"Feature",
 "properties":
 {"icon":"images/icones/school.png",
  "description":"Ecole Maternelle Nuits"},
 "geometry":
 {"type":"Point",
  "coordinates":[-0.55371618126089095,44.8415386782168,0]}}
,
{"type":"Feature",
 "properties":
 {"icon":"images/icones/school.png",
  "description":"Rock School Barbey"},
 "geometry":
 {"type":"Point",
  "coordinates":[-0.56256303289266996,44.827486370890803,0]}}
,
{"type":"Feature",
 "properties":
 {"icon":"images/icones/school.png",
  "description":"Ecole du Cirque"},
 "geometry":
 {"type":"Point",
  "coordinates":[-0.56136493242499297,44.871538973035797,0]}}
,
{"type":"Feature",
 "properties":
 {"icon":"images/icones/school.png",
  "description":"Ecole Elémentaire Pins Francs"},
 "geometry":
 {"type":"Point",
  "coordinates":[-0.62513736041858503,44.858821490874,0]}}
,
{"type":"Feature",
 "properties":
 {"icon":"images/icones/school.png",
  "description":"Ecole maternelle et élémentaire Saint Gabriel"},
 "geometry":
 {"type":"Point",
  "coordinates":[-0.58931309742349203,44.846262379965303,0]}}
,
{"type":"Feature",
 "properties":
 {"icon":"images/icones/school.png",
  "description":"Ecole Maternelle Vaclav Havel"},
 "geometry":
 {"type":"Point",
  "coordinates":[-0.57195130331533095,44.8802056716655,0]}}
,
{"type":"Feature",
 "properties":
 {"icon":"images/icones/school.png",
  "description":"Ecole Elémentaire Jacques Prévert"},
 "geometry":
 {"type":"Point",
  "coordinates":[-0.58609006016788801,44.824282704255602,0]}}
,
{"type":"Feature",
 "properties":
 {"icon":"images/icones/school.png",
  "description":"Ecole Maternelle Alphonse Dupeux"},
 "geometry":
 {"type":"Point",
  "coordinates":[-0.58871689956436601,44.831275870945703,0]}}
,
{"type":"Feature",
 "properties":
 {"icon":"images/icones/school.png",
  "description":"Ecole Elémentaire David Johnston"},
 "geometry":
 {"type":"Point",
  "coordinates":[-0.58462677479783198,44.850748024520897,0]}}
,
{"type":"Feature",
 "properties":
 {"icon":"images/icones/school.png",
  "description":"Ecole Elémentaire Deyries Sablières"},
 "geometry":
 {"type":"Point",
  "coordinates":[-0.57412589575704498,44.826169336837502,0]}}
,
{"type":"Feature",
 "properties":
 {"icon":"images/icones/school.png",
  "description":"Ecole Elémentaire Albert Barraud"},
 "geometry":
 {"type":"Point",
  "coordinates":[-0.58661007294243706,44.844583851993796,0]}}
,
{"type":"Feature",
 "properties":
 {"icon":"images/icones/school.png",
  "description":"Ecole Elémentaire Albert Schweitzer"},
 "geometry":
 {"type":"Point",
  "coordinates":[-0.58078484448479495,44.862046540420003,0]}}
,
{"type":"Feature",
 "properties":
 {"icon":"images/icones/school.png",
  "description":"Ecole Elémentaire Raymond Poincaré"},
 "geometry":
 {"type":"Point",
  "coordinates":[-0.61951911898971301,44.844593805890803,0]}}
,
{"type":"Feature",
 "properties":
 {"icon":"images/icones/school.png",
  "description":"Ecole Maternelle Francis de Pressensé"},
 "geometry":
 {"type":"Point",
  "coordinates":[-0.57559534921126798,44.832309447179902,0]}}
,
{"type":"Feature",
 "properties":
 {"icon":"images/icones/school.png",
  "description":"Ecole Maternelle Paul Berthelot"},
 "geometry":
 {"type":"Point",
  "coordinates":[-0.57211203319445703,44.856439061866197,0]}}
,
{"type":"Feature",
 "properties":
 {"icon":"images/icones/school.png",
  "description":"Ecole Elémentaire Ferdinand Buisson"},
 "geometry":
 {"type":"Point",
  "coordinates":[-0.55087943989357102,44.8237987739627,0]}}
,
{"type":"Feature",
 "properties":
 {"icon":"images/icones/school.png",
  "description":"Ecole maternelle et élémentaire L'Assomption"},
 "geometry":
 {"type":"Point",
  "coordinates":[-0.59436325305039595,44.852136306766901,0]}}
,
{"type":"Feature",
 "properties":
 {"icon":"images/icones/school.png",
  "description":"Ecole Elémentaire Alphonse Dupeux"},
 "geometry":
 {"type":"Point",
  "coordinates":[-0.58859327085082402,44.831080897808597,0]}}
,
{"type":"Feature",
 "properties":
 {"icon":"images/icones/school.png",
  "description":"Ecole maternelle et élémentaire Saint Ferdinand"},
 "geometry":
 {"type":"Point",
  "coordinates":[-0.62289991114681298,44.864146448470102,0]}}
,
{"type":"Feature",
 "properties":
 {"icon":"images/icones/school.png",
  "description":"Ecole maternelle et élémentaire Saint Julien Victoire"},
 "geometry":
 {"type":"Point",
  "coordinates":[-0.57254368673651401,44.828128745590199,0]}}
,
{"type":"Feature",
 "properties":
 {"icon":"images/icones/school.png",
  "description":"Ecole maternelle et élémentaire Saint Louis - Sainte Thérèse"},
 "geometry":
 {"type":"Point",
  "coordinates":[-0.57468248987284198,44.852124301372598,0]}}
,
{"type":"Feature",
 "properties":
 {"icon":"images/icones/school.png",
  "description":"Ecole Maternelle Charles Martin"},
 "geometry":
 {"type":"Point",
  "coordinates":[-0.55254668408762497,44.874514804221803,0]}}
,
{"type":"Feature",
 "properties":
 {"icon":"images/icones/school.png",
  "description":"Ecole Maternelle Carle Vernet"},
 "geometry":
 {"type":"Point",
  "coordinates":[-0.55567005987692297,44.8157640751242,0]}}
,
{"type":"Feature",
 "properties":
 {"icon":"images/icones/school.png",
  "description":"Ecole Maternelle Sousa Mendes"},
 "geometry":
 {"type":"Point",
  "coordinates":[-0.57042201543792703,44.863703079743097,0]}}
,
{"type":"Feature",
 "properties":
 {"icon":"images/icones/school.png",
  "description":"Ecole Elémentaire Paul Lapie"},
 "geometry":
 {"type":"Point",
  "coordinates":[-0.61522512969462395,44.8520602594335,0]}}
,
{"type":"Feature",
 "properties":
 {"icon":"images/icones/school.png",
  "description":"Ecole d'enseignement supérieur d'art de Bordeaux - EBABX"},
 "geometry":
 {"type":"Point",
  "coordinates":[-0.560561050805088,44.830499027458302,0]}}
,
{"type":"Feature",
 "properties":
 {"icon":"images/icones/school.png",
  "description":"Ecole Maternelle Albert Schweitzer"},
 "geometry":
 {"type":"Point",
  "coordinates":[-0.58046657323607198,44.861757419404299,0]}}
,
{"type":"Feature",
 "properties":
 {"icon":"images/icones/school.png",
  "description":"Ecole Maternelle Clos Montesquieu"},
 "geometry":
 {"type":"Point",
  "coordinates":[-0.63134357360782301,44.844894280780998,0]}}
,
{"type":"Feature",
 "properties":
 {"icon":"images/icones/school.png",
  "description":"Ecole maternelle et élémentaire Sainte Monique"},
 "geometry":
 {"type":"Point",
  "coordinates":[-0.60778414996931496,44.8349970723336,0]}}
,
{"type":"Feature",
 "properties":
 {"icon":"images/icones/school.png",
  "description":"Ecole maternelle et élémentaire Saint Genès"},
 "geometry":
 {"type":"Point",
  "coordinates":[-0.58090838514396004,44.824904059241597,0]}}
,
{"type":"Feature",
 "properties":
 {"icon":"images/icones/school.png",
  "description":"Ecole maternelle et élémentaire Saint Joseph de Tivoli"},
 "geometry":
 {"type":"Point",
  "coordinates":[-0.59690607278933305,44.853678165199099,0]}}
,
{"type":"Feature",
 "properties":
 {"icon":"images/icones/school.png",
  "description":"Ecole maternelle et élémentaire Sainte Marie Grand Lebrun"},
 "geometry":
 {"type":"Point",
  "coordinates":[-0.60606865945057598,44.850293018858999,0]}}
,
{"type":"Feature",
 "properties":
 {"icon":"images/icones/school.png",
  "description":"Ecole Elémentaire André Meunier"},
 "geometry":
 {"type":"Point",
  "coordinates":[-0.56426091441419401,44.830343232214901,0]}}
,
{"type":"Feature",
 "properties":
 {"icon":"images/icones/school.png",
  "description":"Ecole Elémentaire Loucheur"},
 "geometry":
 {"type":"Point",
  "coordinates":[-0.60003734113878804,44.822344456249297,0]}}
,
{"type":"Feature",
 "properties":
 {"icon":"images/icones/school.png",
  "description":"Ecole Elémentaire Condorcet"},
 "geometry":
 {"type":"Point",
  "coordinates":[-0.57925947124306199,44.859383664244,0]}}
,
{"type":"Feature",
 "properties":
 {"icon":"images/icones/school.png",
  "description":"Ecole Maternelle Fieffé"},
 "geometry":
 {"type":"Point",
  "coordinates":[-0.56090135577921296,44.824079303742799,0]}}
,
{"type":"Feature",
 "properties":
 {"icon":"images/icones/school.png",
  "description":"Ecole Maternelle Pierre Trébot"},
 "geometry":
 {"type":"Point",
  "coordinates":[-0.58509507725978804,44.859875745713701,0]}}
,
{"type":"Feature",
 "properties":
 {"icon":"images/icones/school.png",
  "description":"Ecole Elémentaire Achard"},
 "geometry":
 {"type":"Point",
  "coordinates":[-0.54786026461753601,44.871669312042201,0]}}
,
{"type":"Feature",
 "properties":
 {"icon":"images/icones/school.png",
  "description":"Ecole Elémentaire Thiers"},
 "geometry":
 {"type":"Point",
  "coordinates":[-0.54328063197744603,44.850146050129801,0]}}
,
{"type":"Feature",
 "properties":
 {"icon":"images/icones/school.png",
  "description":"Ecole Elémentaire Somme"},
 "geometry":
 {"type":"Point",
  "coordinates":[-0.572096310579154,44.8181703464995,0]}}
,
{"type":"Feature",
 "properties":
 {"icon":"images/icones/school.png",
  "description":"Ecole Maternelle Paul Bert"},
 "geometry":
 {"type":"Point",
  "coordinates":[-0.57435857298383697,44.8361945224202,0]}}
,
{"type":"Feature",
 "properties":
 {"icon":"images/icones/school.png",
  "description":"Ecole Maternelle Achard"},
 "geometry":
 {"type":"Point",
  "coordinates":[-0.54771559242260404,44.8718169868364,0]}}
,
{"type":"Feature",
 "properties":
 {"icon":"images/icones/school.png",
  "description":"Ecole Elémentaire Bel Air"},
 "geometry":
 {"type":"Point",
  "coordinates":[-0.60777643623080901,44.839121392274599,0]}}
,
{"type":"Feature",
 "properties":
 {"icon":"images/icones/school.png",
  "description":"Ecole Maternelle Benauge"},
 "geometry":
 {"type":"Point",
  "coordinates":[-0.54514013765189895,44.8457506335697,0]}}
,
{"type":"Feature",
 "properties":
 {"icon":"images/icones/school.png",
  "description":"Ecole Elémentaire Labarde"},
 "geometry":
 {"type":"Point",
  "coordinates":[-0.55167126469319605,44.881920158729599,0]}}
,
{"type":"Feature",
 "properties":
 {"icon":"images/icones/school.png",
  "description":"Ecole maternelle et élémentaire Sainte Thérèse"},
 "geometry":
 {"type":"Point",
  "coordinates":[-0.61216439597610595,44.823769716890403,0]}}
,
{"type":"Feature",
 "properties":
 {"icon":"images/icones/school.png",
  "description":"Ecole Maternelle Bernard Adour"},
 "geometry":
 {"type":"Point",
  "coordinates":[-0.60528320263513002,44.838617554352702,0]}}
,
{"type":"Feature",
 "properties":
 {"icon":"images/icones/school.png",
  "description":"Ecole Elémentaire Jules Ferry"},
 "geometry":
 {"type":"Point",
  "coordinates":[-0.60621525470459003,44.843060129544298,0]}}
,
{"type":"Feature",
 "properties":
 {"icon":"images/icones/school.png",
  "description":"Ecole Elémentaire Charles Martin"},
 "geometry":
 {"type":"Point",
  "coordinates":[-0.552906150475585,44.8746138800864,0]}}
,
{"type":"Feature",
 "properties":
 {"icon":"images/icones/school.png",
  "description":"Ecole Elémentaire Vieux Bordeaux"},
 "geometry":
 {"type":"Point",
  "coordinates":[-0.57108442438380302,44.841616557233202,0]}}
,
{"type":"Feature",
 "properties":
 {"icon":"images/icones/school.png",
  "description":"Ecole Elémentaire Albert Thomas"},
 "geometry":
 {"type":"Point",
  "coordinates":[-0.59723384550840497,44.828763903714197,0]}}
,
{"type":"Feature",
 "properties":
 {"icon":"images/icones/school.png",
  "description":"Ecole Maternelle Béchade"},
 "geometry":
 {"type":"Point",
  "coordinates":[-0.59690192289527999,44.8256747331573,0]}}
,
{"type":"Feature",
 "properties":
 {"icon":"images/icones/school.png",
  "description":"Ecole Elémentaire Dupaty"},
 "geometry":
 {"type":"Point",
  "coordinates":[-0.56141545103934298,44.860543394682999,0]}}
,
{"type":"Feature",
 "properties":
 {"icon":"images/icones/school.png",
  "description":"Ecole Maternelle Jules Ferry"},
 "geometry":
 {"type":"Point",
  "coordinates":[-0.60557461824418402,44.842653212667898,0]}}
,
{"type":"Feature",
 "properties":
 {"icon":"images/icones/school.png",
  "description":"Ecole Maternelle Le Point du Jour"},
 "geometry":
 {"type":"Point",
  "coordinates":[-0.54941860193400205,44.880157497595299,0]}}
,
{"type":"Feature",
 "properties":
 {"icon":"images/icones/school.png",
  "description":"Ecole maternelle et élémentaire Notre Dame"},
 "geometry":
 {"type":"Point",
  "coordinates":[-0.58012345624371298,44.840183956239599,0]}}
,
{"type":"Feature",
 "properties":
 {"icon":"images/icones/school.png",
  "description":"Ecole Maternelle Pins Francs"},
 "geometry":
 {"type":"Point",
  "coordinates":[-0.625245894819354,44.8592149156134,0]}}
,
{"type":"Feature",
 "properties":
 {"icon":"images/icones/school.png",
  "description":"Ecole Maternelle Montgolfier"},
 "geometry":
 {"type":"Point",
  "coordinates":[-0.57730670540347195,44.852202294347499,0]}}
,
{"type":"Feature",
 "properties":
 {"icon":"images/icones/school.png",
  "description":"Ecole Elémentaire Franc Sanson"},
 "geometry":
 {"type":"Point",
  "coordinates":[-0.54405792508992101,44.830704251491497,0]}}
,
{"type":"Feature",
 "properties":
 {"icon":"images/icones/school.png",
  "description":"Ecole Maternelle Raymond Poincaré"},
 "geometry":
 {"type":"Point",
  "coordinates":[-0.62022064967946,44.844449807333703,0]}}
,
{"type":"Feature",
 "properties":
 {"icon":"images/icones/school.png",
  "description":"Ecole Maternelle Lac II"},
 "geometry":
 {"type":"Point",
  "coordinates":[-0.56918216442715497,44.872900678502198,0]}}
,
{"type":"Feature",
 "properties":
 {"icon":"images/icones/school.png",
  "description":"Ecole Maternelle Joséphine"},
 "geometry":
 {"type":"Point",
  "coordinates":[-0.56226164848082805,44.859990935787799,0]}}
,
{"type":"Feature",
 "properties":
 {"icon":"images/icones/school.png",
  "description":"Ecole Maternelle Jean Cocteau"},
 "geometry":
 {"type":"Point",
  "coordinates":[-0.60060628787509895,44.848317317877097,0]}}
,
{"type":"Feature",
 "properties":
 {"icon":"images/icones/school.png",
  "description":"Ecole Maternelle Yser"},
 "geometry":
 {"type":"Point",
  "coordinates":[-0.57004651700091902,44.824281963552899,0]}}
,
{"type":"Feature",
 "properties":
 {"icon":"images/icones/school.png",
  "description":"Ecole Maternelle Noviciat"},
 "geometry":
 {"type":"Point",
  "coordinates":[-0.56425423085625803,44.830208332518403,0]}}
,
{"type":"Feature",
 "properties":
 {"icon":"images/icones/school.png",
  "description":"Ecole Elémentaire Carle Vernet"},
 "geometry":
 {"type":"Point",
  "coordinates":[-0.55562242942442297,44.816080424670297,0]}}
,
{"type":"Feature",
 "properties":
 {"icon":"images/icones/school.png",
  "description":"Ecole maternelle et élémentaire Albert Legrand"},
 "geometry":
 {"type":"Point",
  "coordinates":[-0.58223589517083296,44.824015297031501,0]}}
,
{"type":"Feature",
 "properties":
 {"icon":"images/icones/school.png",
  "description":"Ecole Elémentaire Anatole France"},
 "geometry":
 {"type":"Point",
  "coordinates":[-0.58224232014393995,44.838724169188097,0]}}
,
{"type":"Feature",
 "properties":
 {"icon":"images/icones/school.png",
  "description":"Ecole Maternelle Paul Antin"},
 "geometry":
 {"type":"Point",
  "coordinates":[-0.57147780373330503,44.818708171930098,0]}}
,
{"type":"Feature",
 "properties":
 {"icon":"images/icones/school.png",
  "description":"Ecole Maternelle Solferino"},
 "geometry":
 {"type":"Point",
  "coordinates":[-0.58501615802683904,44.823553461424702,0]}}
,
{"type":"Feature",
 "properties":
 {"icon":"images/icones/school.png",
  "description":"Ecole Elémentaire Paul Doumer"},
 "geometry":
 {"type":"Point",
  "coordinates":[-0.616941267864067,44.856968986674602,0]}}
,
{"type":"Feature",
 "properties":
 {"icon":"images/icones/school.png",
  "description":"Ecole Maternelle Pas Saint Georges"},
 "geometry":
 {"type":"Point",
  "coordinates":[-0.57188201213223899,44.838309863657301,0]}}
,
{"type":"Feature",
 "properties":
 {"icon":"images/icones/school.png",
  "description":"Ecole Elémentaire Paul Bert"},
 "geometry":
 {"type":"Point",
  "coordinates":[-0.575008430442008,44.836538342123802,0]}}
,
{"type":"Feature",
 "properties":
 {"icon":"images/icones/school.png",
  "description":"Ecole maternelle et élémentaire Sainte Marie La Bastide"},
 "geometry":
 {"type":"Point",
  "coordinates":[-0.55201926070881802,44.842544546476397,0]}}
,
{"type":"Feature",
 "properties":
 {"icon":"images/icones/school.png",
  "description":"Ecole Maternelle Lucien Faure"},
 "geometry":
 {"type":"Point",
  "coordinates":[-0.55402718283460095,44.860908324528999,0]}}
,
{"type":"Feature",
 "properties":
 {"icon":"images/icones/school.png",
  "description":"Ecole Elémentaire Montgolfier"},
 "geometry":
 {"type":"Point",
  "coordinates":[-0.57829050046574604,44.852384609551997,0]}}
,
{"type":"Feature",
 "properties":
 {"icon":"images/icones/school.png",
  "description":"Ecole Maternelle Thiers"},
 "geometry":
 {"type":"Point",
  "coordinates":[-0.54253737745578501,44.850218579385803,0]}}
,
{"type":"Feature",
 "properties":
 {"icon":"images/icones/school.png",
  "description":"Ecole Maternelle Paul Doumer"},
 "geometry":
 {"type":"Point",
  "coordinates":[-0.61664786901639201,44.857426707372198,0]}}
,
{"type":"Feature",
 "properties":
 {"icon":"images/icones/school.png",
  "description":"Ecole Elémentaire Jean Cocteau"},
 "geometry":
 {"type":"Point",
  "coordinates":[-0.60237388375706802,44.848227392934596,0]}}
,
{"type":"Feature",
 "properties":
 {"icon":"images/icones/school.png",
  "description":"Ecole Maternelle Albert Thomas"},
 "geometry":
 {"type":"Point",
  "coordinates":[-0.59656315083688205,44.828762910955703,0]}}
,
{"type":"Feature",
 "properties":
 {"icon":"images/icones/school.png",
  "description":"Ecole Maternelle Barbey"},
 "geometry":
 {"type":"Point",
  "coordinates":[-0.56264564472743805,44.828132622970898,0]}}
,
{"type":"Feature",
 "properties":
 {"icon":"images/icones/school.png",
  "description":"Ecole Maternelle Franc Sanson"},
 "geometry":
 {"type":"Point",
  "coordinates":[-0.54405806281856695,44.831478627425597,0]}}
,
{"type":"Feature",
 "properties":
 {"icon":"images/icones/school.png",
  "description":"Ecole Elémentaire Vaclav Havel"},
 "geometry":
 {"type":"Point",
  "coordinates":[-0.57181829576124399,44.880587196682598,0]}}
,
{"type":"Feature",
 "properties":
 {"icon":"images/icones/school.png",
  "description":"Ecole Elémentaire Stéhélin"},
 "geometry":
 {"type":"Point",
  "coordinates":[-0.624700275971241,44.855437934802701,0]}}
,
{"type":"Feature",
 "properties":
 {"icon":"images/icones/school.png",
  "description":"Ecole maternelle et élémentaire Sévigné"},
 "geometry":
 {"type":"Point",
  "coordinates":[-0.57662316680666204,44.836323256571198,0]}}
,
{"type":"Feature",
 "properties":
 {"icon":"images/icones/school.png",
  "description":"Ecole maternelle Bassins à flot"},
 "geometry":
 {"type":"Point",
  "coordinates":[-0.56123401345189095,44.859827903914798,0]}}
,
{"type":"Feature",
 "properties":
 {"icon":"images/icones/school.png",
  "description":"Ecole élémentaire Bassins à flot"},
 "geometry":
 {"type":"Point",
  "coordinates":[-0.56116619214383701,44.859872892762098,0]}}
]}