{"type":"FeatureCollection","features":[
{"type":"Feature",
 "properties":
 {"icon":"images/icones/toilets.png",
  "description":"TOILETTES MIXTES PMR"},
 "geometry":
 {"type":"Point",
  "coordinates":[-0.57446731215166402,44.8438837199486,0]}}
,
{"type":"Feature",
 "properties":
 {"icon":"images/icones/toilets.png",
  "description":"TOILETTES MIXTES PMR"},
 "geometry":
 {"type":"Point",
  "coordinates":[-0.57213874016928901,44.842371692267797,0]}}
,
{"type":"Feature",
 "properties":
 {"icon":"images/icones/toilets.png",
  "description":"Urinoir République"},
 "geometry":
 {"type":"Point",
  "coordinates":[-0.57857966786102599,44.834935491640699,0]}}
,
{"type":"Feature",
 "properties":
 {"icon":"images/icones/toilets.png",
  "description":"CHALET DE NECESSITE AVEC DOUCHES"},
 "geometry":
 {"type":"Point",
  "coordinates":[-0.572441821689467,44.847136163724002,0]}}
,
{"type":"Feature",
 "properties":
 {"icon":"images/icones/toilets.png",
  "description":"Urinoir Lateulade"},
 "geometry":
 {"type":"Point",
  "coordinates":[-0.58608783462006897,44.839194331074097,0]}}
,
{"type":"Feature",
 "properties":
 {"icon":"images/icones/toilets.png",
  "description":"TOILETTES MIXTES PMR"},
 "geometry":
 {"type":"Point",
  "coordinates":[-0.58256823788387802,44.838692825083399,0]}}
,
{"type":"Feature",
 "properties":
 {"icon":"images/icones/toilets.png",
  "description":"TOILETTES MIXTES PMR"},
 "geometry":
 {"type":"Point",
  "coordinates":[-0.56727848446676998,44.838791051714502,0]}}
,
{"type":"Feature",
 "properties":
 {"icon":"images/icones/toilets.png",
  "description":"TOILETTES MIXTES PMR"},
 "geometry":
 {"type":"Point",
  "coordinates":[-0.57331478976635297,44.844646322150702,0]}}
,
{"type":"Feature",
 "properties":
 {"icon":"images/icones/toilets.png",
  "description":"TOILETTES MIXTES PMR"},
 "geometry":
 {"type":"Point",
  "coordinates":[-0.572454186136095,44.835249494812402,0]}}
,
{"type":"Feature",
 "properties":
 {"icon":"images/icones/toilets.png",
  "description":"TOILETTES MIXTES PMR"},
 "geometry":
 {"type":"Point",
  "coordinates":[-0.57562356883446997,44.841142009567399,0]}}
,
{"type":"Feature",
 "properties":
 {"icon":"images/icones/toilets.png",
  "description":"TOILETTES MIXTES PMR"},
 "geometry":
 {"type":"Point",
  "coordinates":[-0.57033289016277999,44.846846166257002,0]}}
,
{"type":"Feature",
 "properties":
 {"icon":"images/icones/toilets.png",
  "description":"TOILETTES MIXTES PMR"},
 "geometry":
 {"type":"Point",
  "coordinates":[-0.580138546512449,44.8348205141139,0]}}
,
{"type":"Feature",
 "properties":
 {"icon":"images/icones/toilets.png",
  "description":"TOILETTES MIXTES PMR"},
 "geometry":
 {"type":"Point",
  "coordinates":[-0.58532696735243095,44.843246818511801,0]}}
]}