{"type":"FeatureCollection","features":[
{"type":"Feature",
 "properties":
 {"icon":"images/icones/parking_bicycle-2.png",
  "description":"Arceau vélo"},
 "geometry":
 {"type":"Point",
  "coordinates":[-0.588969019990771,44.843796003748203,0]}}
,
{"type":"Feature",
 "properties":
 {"icon":"images/icones/parking_bicycle-2.png",
  "description":"Arceau vélo"},
 "geometry":
 {"type":"Point",
  "coordinates":[-0.57657389520770996,44.839653020459899,0]}}
,
{"type":"Feature",
 "properties":
 {"icon":"images/icones/parking_bicycle-2.png",
  "description":"Arceau vélo"},
 "geometry":
 {"type":"Point",
  "coordinates":[-0.59018196135726597,44.847165154711497,0]}}
,
{"type":"Feature",
 "properties":
 {"icon":"images/icones/parking_bicycle-2.png",
  "description":"Arceau vélo"},
 "geometry":
 {"type":"Point",
  "coordinates":[-0.57736345780042997,44.844952233273297,0]}}
,
{"type":"Feature",
 "properties":
 {"icon":"images/icones/parking_bicycle-2.png",
  "description":"Arceau vélo"},
 "geometry":
 {"type":"Point",
  "coordinates":[-0.58652553280777797,44.844353169727597,0]}}
,
{"type":"Feature",
 "properties":
 {"icon":"images/icones/parking_bicycle-2.png",
  "description":"Arceau vélo"},
 "geometry":
 {"type":"Point",
  "coordinates":[-0.58682975883281796,44.849525399965799,0]}}
,
{"type":"Feature",
 "properties":
 {"icon":"images/icones/parking_bicycle-2.png",
  "description":"Arceau vélo"},
 "geometry":
 {"type":"Point",
  "coordinates":[-0.57055946243728894,44.845343456725097,0]}}
,
{"type":"Feature",
 "properties":
 {"icon":"images/icones/parking_bicycle-2.png",
  "description":"Arceau vélo"},
 "geometry":
 {"type":"Point",
  "coordinates":[-0.57203730479211401,44.839143334764898,0]}}
,
{"type":"Feature",
 "properties":
 {"icon":"images/icones/parking_bicycle-2.png",
  "description":"Arceau vélo"},
 "geometry":
 {"type":"Point",
  "coordinates":[-0.57069287958302495,44.843181759491003,0]}}
,
{"type":"Feature",
 "properties":
 {"icon":"images/icones/parking_bicycle-2.png",
  "description":"Arceau vélo"},
 "geometry":
 {"type":"Point",
  "coordinates":[-0.57945845955590702,44.842288162459198,0]}}
,
{"type":"Feature",
 "properties":
 {"icon":"images/icones/parking_bicycle-2.png",
  "description":"Arceau vélo"},
 "geometry":
 {"type":"Point",
  "coordinates":[-0.57891994849360695,44.843166180495103,0]}}
,
{"type":"Feature",
 "properties":
 {"icon":"images/icones/parking_bicycle-2.png",
  "description":"Arceau vélo"},
 "geometry":
 {"type":"Point",
  "coordinates":[-0.57882641400243295,44.8433216285339,0]}}
,
{"type":"Feature",
 "properties":
 {"icon":"images/icones/parking_bicycle-2.png",
  "description":"Arceau vélo"},
 "geometry":
 {"type":"Point",
  "coordinates":[-0.57810006394608504,44.844492455563497,0]}}
,
{"type":"Feature",
 "properties":
 {"icon":"images/icones/parking_bicycle-2.png",
  "description":"Arceau vélo"},
 "geometry":
 {"type":"Point",
  "coordinates":[-0.579980310361911,44.8446342028248,0]}}
,
{"type":"Feature",
 "properties":
 {"icon":"images/icones/parking_bicycle-2.png",
  "description":"Arceau vélo"},
 "geometry":
 {"type":"Point",
  "coordinates":[-0.57718139238049004,44.841039902682702,0]}}
,
{"type":"Feature",
 "properties":
 {"icon":"images/icones/parking_bicycle-2.png",
  "description":"Arceau vélo"},
 "geometry":
 {"type":"Point",
  "coordinates":[-0.57924234342806102,44.8426388879857,0]}}
,
{"type":"Feature",
 "properties":
 {"icon":"images/icones/parking_bicycle-2.png",
  "description":"Arceau vélo"},
 "geometry":
 {"type":"Point",
  "coordinates":[-0.58142593362287598,44.843165982429298,0]}}
,
{"type":"Feature",
 "properties":
 {"icon":"images/icones/parking_bicycle-2.png",
  "description":"Arceau vélo"},
 "geometry":
 {"type":"Point",
  "coordinates":[-0.58146470292374397,44.843435184747101,0]}}
,
{"type":"Feature",
 "properties":
 {"icon":"images/icones/parking_bicycle-2.png",
  "description":"Arceau vélo"},
 "geometry":
 {"type":"Point",
  "coordinates":[-0.573826747744413,44.842042867251102,0]}}
,
{"type":"Feature",
 "properties":
 {"icon":"images/icones/parking_bicycle-2.png",
  "description":"Arceau vélo"},
 "geometry":
 {"type":"Point",
  "coordinates":[-0.57715824836962404,44.844390185490099,0]}}
,
{"type":"Feature",
 "properties":
 {"icon":"images/icones/parking_bicycle-2.png",
  "description":"Arceau vélo"},
 "geometry":
 {"type":"Point",
  "coordinates":[-0.57611179223535203,44.844470546218901,0]}}
,
{"type":"Feature",
 "properties":
 {"icon":"images/icones/parking_bicycle-2.png",
  "description":"Arceau vélo"},
 "geometry":
 {"type":"Point",
  "coordinates":[-0.56999583407308196,44.837789986942298,0]}}
,
{"type":"Feature",
 "properties":
 {"icon":"images/icones/parking_bicycle-2.png",
  "description":"Arceau vélo"},
 "geometry":
 {"type":"Point",
  "coordinates":[-0.57915233978145497,44.8422418507377,0]}}
,
{"type":"Feature",
 "properties":
 {"icon":"images/icones/parking_bicycle-2.png",
  "description":"Arceau vélo"},
 "geometry":
 {"type":"Point",
  "coordinates":[-0.57204099805107,44.842528977815597,0]}}
,
{"type":"Feature",
 "properties":
 {"icon":"images/icones/parking_bicycle-2.png",
  "description":"Arceau vélo"},
 "geometry":
 {"type":"Point",
  "coordinates":[-0.57695866747879498,44.838344126179102,0]}}
,
{"type":"Feature",
 "properties":
 {"icon":"images/icones/parking_bicycle-2.png",
  "description":"Arceau vélo"},
 "geometry":
 {"type":"Point",
  "coordinates":[-0.57361590118576,44.841111661711402,0]}}
,
{"type":"Feature",
 "properties":
 {"icon":"images/icones/parking_bicycle-2.png",
  "description":"Arceau vélo"},
 "geometry":
 {"type":"Point",
  "coordinates":[-0.57499793833406898,44.839407258582199,0]}}
,
{"type":"Feature",
 "properties":
 {"icon":"images/icones/parking_bicycle-2.png",
  "description":"Arceau vélo"},
 "geometry":
 {"type":"Point",
  "coordinates":[-0.57264396849202703,44.837597337019901,0]}}
,
{"type":"Feature",
 "properties":
 {"icon":"images/icones/parking_bicycle-2.png",
  "description":"Arceau vélo"},
 "geometry":
 {"type":"Point",
  "coordinates":[-0.58768131645036203,44.841450179128998,0]}}
,
{"type":"Feature",
 "properties":
 {"icon":"images/icones/parking_bicycle-2.png",
  "description":"Arceau vélo"},
 "geometry":
 {"type":"Point",
  "coordinates":[-0.57344502660461105,44.840728781166099,0]}}
,
{"type":"Feature",
 "properties":
 {"icon":"images/icones/parking_bicycle-2.png",
  "description":"Arceau vélo"},
 "geometry":
 {"type":"Point",
  "coordinates":[-0.57553265197912595,44.841225488284103,0]}}
,
{"type":"Feature",
 "properties":
 {"icon":"images/icones/parking_bicycle-2.png",
  "description":"Arceau vélo"},
 "geometry":
 {"type":"Point",
  "coordinates":[-0.58115935589724399,44.840715166899002,0]}}
,
{"type":"Feature",
 "properties":
 {"icon":"images/icones/parking_bicycle-2.png",
  "description":"Arceau vélo"},
 "geometry":
 {"type":"Point",
  "coordinates":[-0.58093123392667001,44.840558849111702,0]}}
,
{"type":"Feature",
 "properties":
 {"icon":"images/icones/parking_bicycle-2.png",
  "description":"Arceau vélo"},
 "geometry":
 {"type":"Point",
  "coordinates":[-0.58072138109996996,44.840726967395703,0]}}
,
{"type":"Feature",
 "properties":
 {"icon":"images/icones/parking_bicycle-2.png",
  "description":"Arceau vélo"},
 "geometry":
 {"type":"Point",
  "coordinates":[-0.57534716833486799,44.8430940901276,0]}}
,
{"type":"Feature",
 "properties":
 {"icon":"images/icones/parking_bicycle-2.png",
  "description":"Arceau vélo"},
 "geometry":
 {"type":"Point",
  "coordinates":[-0.57235018613783395,44.8390724382797,0]}}
,
{"type":"Feature",
 "properties":
 {"icon":"images/icones/parking_bicycle-2.png",
  "description":"Arceau vélo"},
 "geometry":
 {"type":"Point",
  "coordinates":[-0.57817949281578296,44.842275416837701,0]}}
,
{"type":"Feature",
 "properties":
 {"icon":"images/icones/parking_bicycle-2.png",
  "description":"Arceau vélo"},
 "geometry":
 {"type":"Point",
  "coordinates":[-0.57403212559203398,44.840065637823002,0]}}
,
{"type":"Feature",
 "properties":
 {"icon":"images/icones/parking_bicycle-2.png",
  "description":"Arceau vélo"},
 "geometry":
 {"type":"Point",
  "coordinates":[-0.574040519632805,44.840488662109699,0]}}
,
{"type":"Feature",
 "properties":
 {"icon":"images/icones/parking_bicycle-2.png",
  "description":"Arceau vélo"},
 "geometry":
 {"type":"Point",
  "coordinates":[-0.57188360049708398,44.840431714115198,0]}}
,
{"type":"Feature",
 "properties":
 {"icon":"images/icones/parking_bicycle-2.png",
  "description":"Arceau vélo"},
 "geometry":
 {"type":"Point",
  "coordinates":[-0.57394458342893795,44.841868734452298,0]}}
,
{"type":"Feature",
 "properties":
 {"icon":"images/icones/parking_bicycle-2.png",
  "description":"Arceau vélo"},
 "geometry":
 {"type":"Point",
  "coordinates":[-0.57089104341503005,44.837722442383097,0]}}
,
{"type":"Feature",
 "properties":
 {"icon":"images/icones/parking_bicycle-2.png",
  "description":"Arceau vélo"},
 "geometry":
 {"type":"Point",
  "coordinates":[-0.57889548762669996,44.8421672348315,0]}}
,
{"type":"Feature",
 "properties":
 {"icon":"images/icones/parking_bicycle-2.png",
  "description":"Arceau vélo"},
 "geometry":
 {"type":"Point",
  "coordinates":[-0.56833138757635604,44.837912907187402,0]}}
,
{"type":"Feature",
 "properties":
 {"icon":"images/icones/parking_bicycle-2.png",
  "description":"Arceau vélo"},
 "geometry":
 {"type":"Point",
  "coordinates":[-0.58936182155781902,44.838103006259701,0]}}
,
{"type":"Feature",
 "properties":
 {"icon":"images/icones/parking_bicycle-2.png",
  "description":"Arceau vélo"},
 "geometry":
 {"type":"Point",
  "coordinates":[-0.57576067967656896,44.840976637361699,0]}}
,
{"type":"Feature",
 "properties":
 {"icon":"images/icones/parking_bicycle-2.png",
  "description":"Arceau vélo"},
 "geometry":
 {"type":"Point",
  "coordinates":[-0.57908830187659899,44.842898480896302,0]}}
,
{"type":"Feature",
 "properties":
 {"icon":"images/icones/parking_bicycle-2.png",
  "description":"Arceau vélo"},
 "geometry":
 {"type":"Point",
  "coordinates":[-0.57061469305652601,44.838782981750398,0]}}
,
{"type":"Feature",
 "properties":
 {"icon":"images/icones/parking_bicycle-2.png",
  "description":"Arceau vélo"},
 "geometry":
 {"type":"Point",
  "coordinates":[-0.56772290916739798,44.837892171280799,0]}}
,
{"type":"Feature",
 "properties":
 {"icon":"images/icones/parking_bicycle-2.png",
  "description":"Arceau vélo"},
 "geometry":
 {"type":"Point",
  "coordinates":[-0.57862557338184395,44.840814424536198,0]}}
,
{"type":"Feature",
 "properties":
 {"icon":"images/icones/parking_bicycle-2.png",
  "description":"Arceau vélo"},
 "geometry":
 {"type":"Point",
  "coordinates":[-0.57591576227005403,44.839513991131099,0]}}
,
{"type":"Feature",
 "properties":
 {"icon":"images/icones/parking_bicycle-2.png",
  "description":"Arceau vélo"},
 "geometry":
 {"type":"Point",
  "coordinates":[-0.58125699821374299,44.838505925420598,0]}}
,
{"type":"Feature",
 "properties":
 {"icon":"images/icones/parking_bicycle-2.png",
  "description":"Arceau vélo"},
 "geometry":
 {"type":"Point",
  "coordinates":[-0.57998685241151204,44.840446956277503,0]}}
,
{"type":"Feature",
 "properties":
 {"icon":"images/icones/parking_bicycle-2.png",
  "description":"Arceau vélo"},
 "geometry":
 {"type":"Point",
  "coordinates":[-0.57269063253264696,44.839045895813797,0]}}
,
{"type":"Feature",
 "properties":
 {"icon":"images/icones/parking_bicycle-2.png",
  "description":"Arceau vélo"},
 "geometry":
 {"type":"Point",
  "coordinates":[-0.57308151337215796,44.839018038931997,0]}}
,
{"type":"Feature",
 "properties":
 {"icon":"images/icones/parking_bicycle-2.png",
  "description":"Arceau vélo"},
 "geometry":
 {"type":"Point",
  "coordinates":[-0.57357050205462501,44.8389246740009,0]}}
,
{"type":"Feature",
 "properties":
 {"icon":"images/icones/parking_bicycle-2.png",
  "description":"Arceau vélo"},
 "geometry":
 {"type":"Point",
  "coordinates":[-0.578619564074073,44.843660620948398,0]}}
,
{"type":"Feature",
 "properties":
 {"icon":"images/icones/parking_bicycle-2.png",
  "description":"Arceau vélo"},
 "geometry":
 {"type":"Point",
  "coordinates":[-0.57890521997126798,44.8438869284088,0]}}
,
{"type":"Feature",
 "properties":
 {"icon":"images/icones/parking_bicycle-2.png",
  "description":"Arceau vélo"},
 "geometry":
 {"type":"Point",
  "coordinates":[-0.578686324622673,44.843559252725299,0]}}
,
{"type":"Feature",
 "properties":
 {"icon":"images/icones/parking_bicycle-2.png",
  "description":"Arceau vélo"},
 "geometry":
 {"type":"Point",
  "coordinates":[-0.57856644856486295,44.843753362712,0]}}
,
{"type":"Feature",
 "properties":
 {"icon":"images/icones/parking_bicycle-2.png",
  "description":"Arceau vélo"},
 "geometry":
 {"type":"Point",
  "coordinates":[-0.57876426512110901,44.844106563740603,0]}}
,
{"type":"Feature",
 "properties":
 {"icon":"images/icones/parking_bicycle-2.png",
  "description":"Arceau vélo"},
 "geometry":
 {"type":"Point",
  "coordinates":[-0.57264339114007501,44.8396233528956,0]}}
,
{"type":"Feature",
 "properties":
 {"icon":"images/icones/parking_bicycle-2.png",
  "description":"Arceau vélo"},
 "geometry":
 {"type":"Point",
  "coordinates":[-0.57318590566886596,44.840609183868096,0]}}
,
{"type":"Feature",
 "properties":
 {"icon":"images/icones/parking_bicycle-2.png",
  "description":"Arceau vélo"},
 "geometry":
 {"type":"Point",
  "coordinates":[-0.58343781322153299,44.839855593228798,0]}}
,
{"type":"Feature",
 "properties":
 {"icon":"images/icones/parking_bicycle-2.png",
  "description":"Arceau vélo"},
 "geometry":
 {"type":"Point",
  "coordinates":[-0.57871771027340901,44.844188739979401,0]}}
,
{"type":"Feature",
 "properties":
 {"icon":"images/icones/parking_bicycle-2.png",
  "description":"Arceau vélo"},
 "geometry":
 {"type":"Point",
  "coordinates":[-0.57839319945260104,44.844025899487903,0]}}
,
{"type":"Feature",
 "properties":
 {"icon":"images/icones/parking_bicycle-2.png",
  "description":"Arceau vélo"},
 "geometry":
 {"type":"Point",
  "coordinates":[-0.57832278140854498,44.844135669918302,0]}}
,
{"type":"Feature",
 "properties":
 {"icon":"images/icones/parking_bicycle-2.png",
  "description":"Arceau vélo"},
 "geometry":
 {"type":"Point",
  "coordinates":[-0.56976083753941797,44.839939016877203,0]}}
,
{"type":"Feature",
 "properties":
 {"icon":"images/icones/parking_bicycle-2.png",
  "description":"Arceau vélo"},
 "geometry":
 {"type":"Point",
  "coordinates":[-0.57890521997126798,44.8438869284088,0]}}
,
{"type":"Feature",
 "properties":
 {"icon":"images/icones/parking_bicycle-2.png",
  "description":"Arceau vélo"},
 "geometry":
 {"type":"Point",
  "coordinates":[-0.58703624346338801,44.839179392714598,0]}}
,
{"type":"Feature",
 "properties":
 {"icon":"images/icones/parking_bicycle-2.png",
  "description":"Arceau vélo"},
 "geometry":
 {"type":"Point",
  "coordinates":[-0.56980972175872102,44.8381188535419,0]}}
,
{"type":"Feature",
 "properties":
 {"icon":"images/icones/parking_bicycle-2.png",
  "description":"Arceau vélo"},
 "geometry":
 {"type":"Point",
  "coordinates":[-0.58156297699842496,44.836012946834998,0]}}
,
{"type":"Feature",
 "properties":
 {"icon":"images/icones/parking_bicycle-2.png",
  "description":"Arceau vélo"},
 "geometry":
 {"type":"Point",
  "coordinates":[-0.58481813925551396,44.8381999383218,0]}}
,
{"type":"Feature",
 "properties":
 {"icon":"images/icones/parking_bicycle-2.png",
  "description":"Arceau vélo"},
 "geometry":
 {"type":"Point",
  "coordinates":[-0.57179182969801801,44.8390415024598,0]}}
,
{"type":"Feature",
 "properties":
 {"icon":"images/icones/parking_bicycle-2.png",
  "description":"Arceau vélo"},
 "geometry":
 {"type":"Point",
  "coordinates":[-0.57905288991025505,44.838043075384597,0]}}
,
{"type":"Feature",
 "properties":
 {"icon":"images/icones/parking_bicycle-2.png",
  "description":"Arceau vélo"},
 "geometry":
 {"type":"Point",
  "coordinates":[-0.58343781322153299,44.839855593228798,0]}}
,
{"type":"Feature",
 "properties":
 {"icon":"images/icones/parking_bicycle-2.png",
  "description":"Arceau vélo"},
 "geometry":
 {"type":"Point",
  "coordinates":[-0.576597781351598,44.838722458117601,0]}}
,
{"type":"Feature",
 "properties":
 {"icon":"images/icones/parking_bicycle-2.png",
  "description":"Arceau vélo"},
 "geometry":
 {"type":"Point",
  "coordinates":[-0.57473420869315905,44.838913435213598,0]}}
,
{"type":"Feature",
 "properties":
 {"icon":"images/icones/parking_bicycle-2.png",
  "description":"Arceau vélo"},
 "geometry":
 {"type":"Point",
  "coordinates":[-0.57691294055322895,44.838696517541102,0]}}
,
{"type":"Feature",
 "properties":
 {"icon":"images/icones/parking_bicycle-2.png",
  "description":"Arceau vélo"},
 "geometry":
 {"type":"Point",
  "coordinates":[-0.57293814531792997,44.842399653576599,0]}}
,
{"type":"Feature",
 "properties":
 {"icon":"images/icones/parking_bicycle-2.png",
  "description":"Arceau vélo"},
 "geometry":
 {"type":"Point",
  "coordinates":[-0.58037002521829195,44.841541632888799,0]}}
,
{"type":"Feature",
 "properties":
 {"icon":"images/icones/parking_bicycle-2.png",
  "description":"Arceau vélo"},
 "geometry":
 {"type":"Point",
  "coordinates":[-0.57470971404161597,44.8430664631192,0]}}
,
{"type":"Feature",
 "properties":
 {"icon":"images/icones/parking_bicycle-2.png",
  "description":"Arceau vélo"},
 "geometry":
 {"type":"Point",
  "coordinates":[-0.57422469756176198,44.844281388192798,0]}}
,
{"type":"Feature",
 "properties":
 {"icon":"images/icones/parking_bicycle-2.png",
  "description":"Arceau vélo"},
 "geometry":
 {"type":"Point",
  "coordinates":[-0.57325737771084295,44.840265264716201,0]}}
,
{"type":"Feature",
 "properties":
 {"icon":"images/icones/parking_bicycle-2.png",
  "description":"Arceau vélo"},
 "geometry":
 {"type":"Point",
  "coordinates":[-0.584850762028577,44.842809434122501,0]}}
,
{"type":"Feature",
 "properties":
 {"icon":"images/icones/parking_bicycle-2.png",
  "description":"Arceau vélo"},
 "geometry":
 {"type":"Point",
  "coordinates":[-0.58538818009948301,44.8421655399139,0]}}
,
{"type":"Feature",
 "properties":
 {"icon":"images/icones/parking_bicycle-2.png",
  "description":"Arceau vélo"},
 "geometry":
 {"type":"Point",
  "coordinates":[-0.58492589636428005,44.842033091827197,0]}}
,
{"type":"Feature",
 "properties":
 {"icon":"images/icones/parking_bicycle-2.png",
  "description":"Arceau vélo"},
 "geometry":
 {"type":"Point",
  "coordinates":[-0.57110431659362304,44.841508039481702,0]}}
,
{"type":"Feature",
 "properties":
 {"icon":"images/icones/parking_bicycle-2.png",
  "description":"Arceau vélo"},
 "geometry":
 {"type":"Point",
  "coordinates":[-0.58813137094613799,44.838249909962698,0]}}
,
{"type":"Feature",
 "properties":
 {"icon":"images/icones/parking_bicycle-2.png",
  "description":"Arceau vélo"},
 "geometry":
 {"type":"Point",
  "coordinates":[-0.59034313091527102,44.837663979758503,0]}}
,
{"type":"Feature",
 "properties":
 {"icon":"images/icones/parking_bicycle-2.png",
  "description":"Arceau vélo"},
 "geometry":
 {"type":"Point",
  "coordinates":[-0.58888627193831899,44.834666274368999,0]}}
,
{"type":"Feature",
 "properties":
 {"icon":"images/icones/parking_bicycle-2.png",
  "description":"Arceau vélo"},
 "geometry":
 {"type":"Point",
  "coordinates":[-0.58573587619124901,44.8354393149055,0]}}
,
{"type":"Feature",
 "properties":
 {"icon":"images/icones/parking_bicycle-2.png",
  "description":"Arceau vélo"},
 "geometry":
 {"type":"Point",
  "coordinates":[-0.59468248568084103,44.838967831875699,0]}}
,
{"type":"Feature",
 "properties":
 {"icon":"images/icones/parking_bicycle-2.png",
  "description":"Arceau vélo"},
 "geometry":
 {"type":"Point",
  "coordinates":[-0.57450067341869304,44.8410893681964,0]}}
,
{"type":"Feature",
 "properties":
 {"icon":"images/icones/parking_bicycle-2.png",
  "description":"Arceau vélo"},
 "geometry":
 {"type":"Point",
  "coordinates":[-0.58228641842824203,44.8406230316671,0]}}
,
{"type":"Feature",
 "properties":
 {"icon":"images/icones/parking_bicycle-2.png",
  "description":"Arceau vélo"},
 "geometry":
 {"type":"Point",
  "coordinates":[-0.59428259050229904,44.852466725116102,0]}}
,
{"type":"Feature",
 "properties":
 {"icon":"images/icones/parking_bicycle-2.png",
  "description":"Arceau vélo"},
 "geometry":
 {"type":"Point",
  "coordinates":[-0.59627407062506299,44.849768937517801,0]}}
,
{"type":"Feature",
 "properties":
 {"icon":"images/icones/parking_bicycle-2.png",
  "description":"Arceau vélo"},
 "geometry":
 {"type":"Point",
  "coordinates":[-0.58852638795117296,44.837392311749802,0]}}
,
{"type":"Feature",
 "properties":
 {"icon":"images/icones/parking_bicycle-2.png",
  "description":"Arceau vélo"},
 "geometry":
 {"type":"Point",
  "coordinates":[-0.59115381660104904,44.840786017801598,0]}}
,
{"type":"Feature",
 "properties":
 {"icon":"images/icones/parking_bicycle-2.png",
  "description":"Arceau vélo"},
 "geometry":
 {"type":"Point",
  "coordinates":[-0.58760119795505705,44.842127592444399,0]}}
,
{"type":"Feature",
 "properties":
 {"icon":"images/icones/parking_bicycle-2.png",
  "description":"Arceau vélo"},
 "geometry":
 {"type":"Point",
  "coordinates":[-0.58888267843403097,44.838898582539997,0]}}
,
{"type":"Feature",
 "properties":
 {"icon":"images/icones/parking_bicycle-2.png",
  "description":"Arceau vélo"},
 "geometry":
 {"type":"Point",
  "coordinates":[-0.58674522594379197,44.835125638686002,0]}}
,
{"type":"Feature",
 "properties":
 {"icon":"images/icones/parking_bicycle-2.png",
  "description":"Arceau vélo"},
 "geometry":
 {"type":"Point",
  "coordinates":[-0.58674522594379197,44.835125638686002,0]}}
,
{"type":"Feature",
 "properties":
 {"icon":"images/icones/parking_bicycle-2.png",
  "description":"Arceau vélo"},
 "geometry":
 {"type":"Point",
  "coordinates":[-0.58621507365729897,44.842756899549897,0]}}
,
{"type":"Feature",
 "properties":
 {"icon":"images/icones/parking_bicycle-2.png",
  "description":"Arceau vélo"},
 "geometry":
 {"type":"Point",
  "coordinates":[-0.58759849287550703,44.837337254835198,0]}}
,
{"type":"Feature",
 "properties":
 {"icon":"images/icones/parking_bicycle-2.png",
  "description":"Arceau vélo"},
 "geometry":
 {"type":"Point",
  "coordinates":[-0.58674522594379197,44.835125638686002,0]}}
,
{"type":"Feature",
 "properties":
 {"icon":"images/icones/parking_bicycle-2.png",
  "description":"Arceau vélo"},
 "geometry":
 {"type":"Point",
  "coordinates":[-0.57022067461647996,44.842653841469797,0]}}
,
{"type":"Feature",
 "properties":
 {"icon":"images/icones/parking_bicycle-2.png",
  "description":"Arceau vélo"},
 "geometry":
 {"type":"Point",
  "coordinates":[-0.58005406786948299,44.832142998162198,0]}}
,
{"type":"Feature",
 "properties":
 {"icon":"images/icones/parking_bicycle-2.png",
  "description":"Arceau vélo"},
 "geometry":
 {"type":"Point",
  "coordinates":[-0.57392550958310595,44.840212394376401,0]}}
,
{"type":"Feature",
 "properties":
 {"icon":"images/icones/parking_bicycle-2.png",
  "description":"Arceau vélo"},
 "geometry":
 {"type":"Point",
  "coordinates":[-0.57235018613783395,44.8390724382797,0]}}
,
{"type":"Feature",
 "properties":
 {"icon":"images/icones/parking_bicycle-2.png",
  "description":"Arceau vélo"},
 "geometry":
 {"type":"Point",
  "coordinates":[-0.58093226079594895,44.838255541437597,0]}}
,
{"type":"Feature",
 "properties":
 {"icon":"images/icones/parking_bicycle-2.png",
  "description":"Arceau moto"},
 "geometry":
 {"type":"Point",
  "coordinates":[-0.58478922120896604,44.842404477167399,0]}}
,
{"type":"Feature",
 "properties":
 {"icon":"images/icones/parking_bicycle-2.png",
  "description":"Arceau moto"},
 "geometry":
 {"type":"Point",
  "coordinates":[-0.57649766966543703,44.838284570233803,0]}}
,
{"type":"Feature",
 "properties":
 {"icon":"images/icones/parking_bicycle-2.png",
  "description":"Arceau moto"},
 "geometry":
 {"type":"Point",
  "coordinates":[-0.57947152678330105,44.842268203932399,0]}}
,
{"type":"Feature",
 "properties":
 {"icon":"images/icones/parking_bicycle-2.png",
  "description":"Arceau moto"},
 "geometry":
 {"type":"Point",
  "coordinates":[-0.57923618855028702,44.842653944878201,0]}}
,
{"type":"Feature",
 "properties":
 {"icon":"images/icones/parking_bicycle-2.png",
  "description":"Arceau moto"},
 "geometry":
 {"type":"Point",
  "coordinates":[-0.57915486595757903,44.842800091175697,0]}}
,
{"type":"Feature",
 "properties":
 {"icon":"images/icones/parking_bicycle-2.png",
  "description":"Arceau moto"},
 "geometry":
 {"type":"Point",
  "coordinates":[-0.57910744821495697,44.842864278647703,0]}}
,
{"type":"Feature",
 "properties":
 {"icon":"images/icones/parking_bicycle-2.png",
  "description":"Arceau moto"},
 "geometry":
 {"type":"Point",
  "coordinates":[-0.57892755986895805,44.843146033303803,0]}}
,
{"type":"Feature",
 "properties":
 {"icon":"images/icones/parking_bicycle-2.png",
  "description":"Arceau moto"},
 "geometry":
 {"type":"Point",
  "coordinates":[-0.57887296240796504,44.843239362336803,0]}}
,
{"type":"Feature",
 "properties":
 {"icon":"images/icones/parking_bicycle-2.png",
  "description":"Arceau moto"},
 "geometry":
 {"type":"Point",
  "coordinates":[-0.57862725381771096,44.843641732447999,0]}}
,
{"type":"Feature",
 "properties":
 {"icon":"images/icones/parking_bicycle-2.png",
  "description":"Arceau moto"},
 "geometry":
 {"type":"Point",
  "coordinates":[-0.57858113691428603,44.8437329930115,0]}}
,
{"type":"Feature",
 "properties":
 {"icon":"images/icones/parking_bicycle-2.png",
  "description":"Arceau moto"},
 "geometry":
 {"type":"Point",
  "coordinates":[-0.57849894680107095,44.843861149879103,0]}}
,
{"type":"Feature",
 "properties":
 {"icon":"images/icones/parking_bicycle-2.png",
  "description":"Arceau moto"},
 "geometry":
 {"type":"Point",
  "coordinates":[-0.57842840278865404,44.843970924350799,0]}}
,
{"type":"Feature",
 "properties":
 {"icon":"images/icones/parking_bicycle-2.png",
  "description":"Arceau moto"},
 "geometry":
 {"type":"Point",
  "coordinates":[-0.57835799046413805,44.844080784708702,0]}}
,
{"type":"Feature",
 "properties":
 {"icon":"images/icones/parking_bicycle-2.png",
  "description":"Arceau moto"},
 "geometry":
 {"type":"Point",
  "coordinates":[-0.57818182931241502,44.844355394427197,0]}}
,
{"type":"Feature",
 "properties":
 {"icon":"images/icones/parking_bicycle-2.png",
  "description":"Arceau moto"},
 "geometry":
 {"type":"Point",
  "coordinates":[-0.57808884106552005,44.844511545183202,0]}}
,
{"type":"Feature",
 "properties":
 {"icon":"images/icones/parking_bicycle-2.png",
  "description":"Arceau vélo"},
 "geometry":
 {"type":"Point",
  "coordinates":[-0.57198794970511202,44.837640902577498,0]}}
,
{"type":"Feature",
 "properties":
 {"icon":"images/icones/parking_bicycle-2.png",
  "description":"Arceau vélo"},
 "geometry":
 {"type":"Point",
  "coordinates":[-0.57708851027629005,44.8343428971911,0]}}
,
{"type":"Feature",
 "properties":
 {"icon":"images/icones/parking_bicycle-2.png",
  "description":"Arceau vélo"},
 "geometry":
 {"type":"Point",
  "coordinates":[-0.57745865254994799,44.842032432344901,0]}}
,
{"type":"Feature",
 "properties":
 {"icon":"images/icones/parking_bicycle-2.png",
  "description":"Arceau vélo"},
 "geometry":
 {"type":"Point",
  "coordinates":[-0.57906090044771197,44.842946544944603,0]}}
,
{"type":"Feature",
 "properties":
 {"icon":"images/icones/parking_bicycle-2.png",
  "description":"Arceau vélo"},
 "geometry":
 {"type":"Point",
  "coordinates":[-0.57857719173760103,44.8444174594459,0]}}
,
{"type":"Feature",
 "properties":
 {"icon":"images/icones/parking_bicycle-2.png",
  "description":"Arceau vélo"},
 "geometry":
 {"type":"Point",
  "coordinates":[-0.57803038818242702,44.8446203086285,0]}}
,
{"type":"Feature",
 "properties":
 {"icon":"images/icones/parking_bicycle-2.png",
  "description":"Arceau vélo"},
 "geometry":
 {"type":"Point",
  "coordinates":[-0.57906916584266399,44.843621619557297,0]}}
,
{"type":"Feature",
 "properties":
 {"icon":"images/icones/parking_bicycle-2.png",
  "description":"Arceau vélo"},
 "geometry":
 {"type":"Point",
  "coordinates":[-0.58144142130181098,44.8432786364463,0]}}
,
{"type":"Feature",
 "properties":
 {"icon":"images/icones/parking_bicycle-2.png",
  "description":"Arceau vélo"},
 "geometry":
 {"type":"Point",
  "coordinates":[-0.58175239592716999,44.844382337639097,0]}}
,
{"type":"Feature",
 "properties":
 {"icon":"images/icones/parking_bicycle-2.png",
  "description":"Arceau vélo"},
 "geometry":
 {"type":"Point",
  "coordinates":[-0.57550122772253198,44.841865596677302,0]}}
,
{"type":"Feature",
 "properties":
 {"icon":"images/icones/parking_bicycle-2.png",
  "description":"Arceau vélo"},
 "geometry":
 {"type":"Point",
  "coordinates":[-0.57507138486012499,44.842893947790699,0]}}
,
{"type":"Feature",
 "properties":
 {"icon":"images/icones/parking_bicycle-2.png",
  "description":"Arceau vélo"},
 "geometry":
 {"type":"Point",
  "coordinates":[-0.56875745904881503,44.838847639279599,0]}}
,
{"type":"Feature",
 "properties":
 {"icon":"images/icones/parking_bicycle-2.png",
  "description":"Arceau vélo"},
 "geometry":
 {"type":"Point",
  "coordinates":[-0.57978118185658101,44.841629790349998,0]}}
,
{"type":"Feature",
 "properties":
 {"icon":"images/icones/parking_bicycle-2.png",
  "description":"Arceau vélo"},
 "geometry":
 {"type":"Point",
  "coordinates":[-0.575639472947575,44.841592002387003,0]}}
,
{"type":"Feature",
 "properties":
 {"icon":"images/icones/parking_bicycle-2.png",
  "description":"Arceau vélo"},
 "geometry":
 {"type":"Point",
  "coordinates":[-0.57424831612853799,44.843139778152597,0]}}
,
{"type":"Feature",
 "properties":
 {"icon":"images/icones/parking_bicycle-2.png",
  "description":"Arceau vélo"},
 "geometry":
 {"type":"Point",
  "coordinates":[-0.57433213110397596,44.843551875854999,0]}}
,
{"type":"Feature",
 "properties":
 {"icon":"images/icones/parking_bicycle-2.png",
  "description":"Arceau vélo"},
 "geometry":
 {"type":"Point",
  "coordinates":[-0.57958719732076702,44.842077828277603,0]}}
,
{"type":"Feature",
 "properties":
 {"icon":"images/icones/parking_bicycle-2.png",
  "description":"Arceau vélo"},
 "geometry":
 {"type":"Point",
  "coordinates":[-0.57941147487125,44.842361344531199,0]}}
,
{"type":"Feature",
 "properties":
 {"icon":"images/icones/parking_bicycle-2.png",
  "description":"Arceau vélo"},
 "geometry":
 {"type":"Point",
  "coordinates":[-0.57933015313675196,44.8425074909592,0]}}
,
{"type":"Feature",
 "properties":
 {"icon":"images/icones/parking_bicycle-2.png",
  "description":"Arceau vélo"},
 "geometry":
 {"type":"Point",
  "coordinates":[-0.57915901708392503,44.842781313922401,0]}}
,
{"type":"Feature",
 "properties":
 {"icon":"images/icones/parking_bicycle-2.png",
  "description":"Arceau vélo"},
 "geometry":
 {"type":"Point",
  "coordinates":[-0.57925709854575702,44.843328711950399,0]}}
,
{"type":"Feature",
 "properties":
 {"icon":"images/icones/parking_bicycle-2.png",
  "description":"Arceau vélo"},
 "geometry":
 {"type":"Point",
  "coordinates":[-0.578494995053082,44.844545526394697,0]}}
,
{"type":"Feature",
 "properties":
 {"icon":"images/icones/parking_bicycle-2.png",
  "description":"Arceau vélo"},
 "geometry":
 {"type":"Point",
  "coordinates":[-0.58007607507098302,44.841984439423001,0]}}
,
{"type":"Feature",
 "properties":
 {"icon":"images/icones/parking_bicycle-2.png",
  "description":"Arceau vélo"},
 "geometry":
 {"type":"Point",
  "coordinates":[-0.58123212652918799,44.842205425017099,0]}}
,
{"type":"Feature",
 "properties":
 {"icon":"images/icones/parking_bicycle-2.png",
  "description":"Arceau vélo"},
 "geometry":
 {"type":"Point",
  "coordinates":[-0.58186226941278596,44.845063943699799,0]}}
,
{"type":"Feature",
 "properties":
 {"icon":"images/icones/parking_bicycle-2.png",
  "description":"Arceau vélo"},
 "geometry":
 {"type":"Point",
  "coordinates":[-0.57911867602295497,44.842845278828598,0]}}
,
{"type":"Feature",
 "properties":
 {"icon":"images/icones/parking_bicycle-2.png",
  "description":"Arceau vélo"},
 "geometry":
 {"type":"Point",
  "coordinates":[-0.57633098697413399,44.8437896758373,0]}}
,
{"type":"Feature",
 "properties":
 {"icon":"images/icones/parking_bicycle-2.png",
  "description":"Arceau vélo"},
 "geometry":
 {"type":"Point",
  "coordinates":[-0.576597456685633,44.844818488425098,0]}}
,
{"type":"Feature",
 "properties":
 {"icon":"images/icones/parking_bicycle-2.png",
  "description":"Arceau vélo"},
 "geometry":
 {"type":"Point",
  "coordinates":[-0.58140797332233796,44.843058360668302,0]}}
,
{"type":"Feature",
 "properties":
 {"icon":"images/icones/parking_bicycle-2.png",
  "description":"Arceau vélo"},
 "geometry":
 {"type":"Point",
  "coordinates":[-0.57566217668139696,44.8433202937833,0]}}
,
{"type":"Feature",
 "properties":
 {"icon":"images/icones/parking_bicycle-2.png",
  "description":"Arceau vélo"},
 "geometry":
 {"type":"Point",
  "coordinates":[-0.58085282713319297,44.844487215091398,0]}}
,
{"type":"Feature",
 "properties":
 {"icon":"images/icones/parking_bicycle-2.png",
  "description":"Arceau vélo"},
 "geometry":
 {"type":"Point",
  "coordinates":[-0.58550340673547596,44.848927077580498,0]}}
,
{"type":"Feature",
 "properties":
 {"icon":"images/icones/parking_bicycle-2.png",
  "description":"Arceau vélo"},
 "geometry":
 {"type":"Point",
  "coordinates":[-0.59039486353374504,44.839972841423702,0]}}
,
{"type":"Feature",
 "properties":
 {"icon":"images/icones/parking_bicycle-2.png",
  "description":"Rack"},
 "geometry":
 {"type":"Point",
  "coordinates":[-0.58661237478391504,44.835759313117897,0]}}
,
{"type":"Feature",
 "properties":
 {"icon":"images/icones/parking_bicycle-2.png",
  "description":"Arceau vélo"},
 "geometry":
 {"type":"Point",
  "coordinates":[-0.58580428384635197,44.847472880654699,0]}}
,
{"type":"Feature",
 "properties":
 {"icon":"images/icones/parking_bicycle-2.png",
  "description":"Arceau vélo"},
 "geometry":
 {"type":"Point",
  "coordinates":[-0.585364709702761,44.847441508964003,0]}}
,
{"type":"Feature",
 "properties":
 {"icon":"images/icones/parking_bicycle-2.png",
  "description":"Arceau vélo"},
 "geometry":
 {"type":"Point",
  "coordinates":[-0.57565711857570201,44.837368473389802,0]}}
,
{"type":"Feature",
 "properties":
 {"icon":"images/icones/parking_bicycle-2.png",
  "description":"Arceau vélo"},
 "geometry":
 {"type":"Point",
  "coordinates":[-0.57648152413655596,44.843966907588197,0]}}
,
{"type":"Feature",
 "properties":
 {"icon":"images/icones/parking_bicycle-2.png",
  "description":"Arceau vélo"},
 "geometry":
 {"type":"Point",
  "coordinates":[-0.58188678321026199,44.840732178141003,0]}}
,
{"type":"Feature",
 "properties":
 {"icon":"images/icones/parking_bicycle-2.png",
  "description":"Arceau vélo"},
 "geometry":
 {"type":"Point",
  "coordinates":[-0.57434619428268596,44.837473436684697,0]}}
,
{"type":"Feature",
 "properties":
 {"icon":"images/icones/parking_bicycle-2.png",
  "description":"Rack"},
 "geometry":
 {"type":"Point",
  "coordinates":[-0.58648597264366797,44.844885083593503,0]}}
,
{"type":"Feature",
 "properties":
 {"icon":"images/icones/parking_bicycle-2.png",
  "description":"Arceau vélo"},
 "geometry":
 {"type":"Point",
  "coordinates":[-0.57461401538365997,44.841077520517203,0]}}
,
{"type":"Feature",
 "properties":
 {"icon":"images/icones/parking_bicycle-2.png",
  "description":"Arceau vélo"},
 "geometry":
 {"type":"Point",
  "coordinates":[-0.57902345162499202,44.843002041346899,0]}}
,
{"type":"Feature",
 "properties":
 {"icon":"images/icones/parking_bicycle-2.png",
  "description":"Arceau vélo"},
 "geometry":
 {"type":"Point",
  "coordinates":[-0.58149759360415199,44.837248121386899,0]}}
,
{"type":"Feature",
 "properties":
 {"icon":"images/icones/parking_bicycle-2.png",
  "description":"Arceau vélo"},
 "geometry":
 {"type":"Point",
  "coordinates":[-0.57206183649269704,44.839890141418103,0]}}
,
{"type":"Feature",
 "properties":
 {"icon":"images/icones/parking_bicycle-2.png",
  "description":"Arceau vélo"},
 "geometry":
 {"type":"Point",
  "coordinates":[-0.57814748415275197,44.844428268524098,0]}}
,
{"type":"Feature",
 "properties":
 {"icon":"images/icones/parking_bicycle-2.png",
  "description":"Arceau vélo"},
 "geometry":
 {"type":"Point",
  "coordinates":[-0.57974022202754205,44.841848803866398,0]}}
,
{"type":"Feature",
 "properties":
 {"icon":"images/icones/parking_bicycle-2.png",
  "description":"Arceau vélo"},
 "geometry":
 {"type":"Point",
  "coordinates":[-0.58109732232187905,44.841904653782301,0]}}
,
{"type":"Feature",
 "properties":
 {"icon":"images/icones/parking_bicycle-2.png",
  "description":"Arceau vélo"},
 "geometry":
 {"type":"Point",
  "coordinates":[-0.57051596586534203,44.840109088425599,0]}}
,
{"type":"Feature",
 "properties":
 {"icon":"images/icones/parking_bicycle-2.png",
  "description":"Arceau vélo"},
 "geometry":
 {"type":"Point",
  "coordinates":[-0.57903537797738902,44.842433887953803,0]}}
,
{"type":"Feature",
 "properties":
 {"icon":"images/icones/parking_bicycle-2.png",
  "description":"Arceau vélo"},
 "geometry":
 {"type":"Point",
  "coordinates":[-0.57326743172281203,44.840210990858303,0]}}
,
{"type":"Feature",
 "properties":
 {"icon":"images/icones/parking_bicycle-2.png",
  "description":"Arceau vélo"},
 "geometry":
 {"type":"Point",
  "coordinates":[-0.58141452228258095,44.838151994618102,0]}}
,
{"type":"Feature",
 "properties":
 {"icon":"images/icones/parking_bicycle-2.png",
  "description":"Arceau vélo"},
 "geometry":
 {"type":"Point",
  "coordinates":[-0.57670952487351002,44.834865658231003,0]}}
,
{"type":"Feature",
 "properties":
 {"icon":"images/icones/parking_bicycle-2.png",
  "description":"Arceau vélo"},
 "geometry":
 {"type":"Point",
  "coordinates":[-0.57741613050364404,44.839908407768803,0]}}
,
{"type":"Feature",
 "properties":
 {"icon":"images/icones/parking_bicycle-2.png",
  "description":"Arceau vélo"},
 "geometry":
 {"type":"Point",
  "coordinates":[-0.58443588486060105,44.841343103661302,0]}}
,
{"type":"Feature",
 "properties":
 {"icon":"images/icones/parking_bicycle-2.png",
  "description":"Arceau vélo"},
 "geometry":
 {"type":"Point",
  "coordinates":[-0.58309869944438797,44.8386395501458,0]}}
,
{"type":"Feature",
 "properties":
 {"icon":"images/icones/parking_bicycle-2.png",
  "description":"Arceau vélo"},
 "geometry":
 {"type":"Point",
  "coordinates":[-0.57507655477319797,44.8445236107626,0]}}
,
{"type":"Feature",
 "properties":
 {"icon":"images/icones/parking_bicycle-2.png",
  "description":"Arceau vélo"},
 "geometry":
 {"type":"Point",
  "coordinates":[-0.57398871923866601,44.840210859551199,0]}}
,
{"type":"Feature",
 "properties":
 {"icon":"images/icones/parking_bicycle-2.png",
  "description":"Arceau vélo"},
 "geometry":
 {"type":"Point",
  "coordinates":[-0.57488908072801703,44.8379550678915,0]}}
,
{"type":"Feature",
 "properties":
 {"icon":"images/icones/parking_bicycle-2.png",
  "description":"Arceau vélo"},
 "geometry":
 {"type":"Point",
  "coordinates":[-0.57715312709021305,44.8407254191101,0]}}
,
{"type":"Feature",
 "properties":
 {"icon":"images/icones/parking_bicycle-2.png",
  "description":"Rack"},
 "geometry":
 {"type":"Point",
  "coordinates":[-0.58190130393135897,44.840515707295701,0]}}
,
{"type":"Feature",
 "properties":
 {"icon":"images/icones/parking_bicycle-2.png",
  "description":"Arceau vélo"},
 "geometry":
 {"type":"Point",
  "coordinates":[-0.57955242298004195,44.842141708350098,0]}}
,
{"type":"Feature",
 "properties":
 {"icon":"images/icones/parking_bicycle-2.png",
  "description":"Arceau vélo"},
 "geometry":
 {"type":"Point",
  "coordinates":[-0.57161886309577203,44.839126922835703,0]}}
,
{"type":"Feature",
 "properties":
 {"icon":"images/icones/parking_bicycle-2.png",
  "description":"Arceau vélo"},
 "geometry":
 {"type":"Point",
  "coordinates":[-0.57603272848488896,44.845679118086601,0]}}
,
{"type":"Feature",
 "properties":
 {"icon":"images/icones/parking_bicycle-2.png",
  "description":"Arceau vélo"},
 "geometry":
 {"type":"Point",
  "coordinates":[-0.57343886069192196,44.842133598220002,0]}}
,
{"type":"Feature",
 "properties":
 {"icon":"images/icones/parking_bicycle-2.png",
  "description":"Arceau vélo"},
 "geometry":
 {"type":"Point",
  "coordinates":[-0.57597380013333599,44.845005276166802,0]}}
,
{"type":"Feature",
 "properties":
 {"icon":"images/icones/parking_bicycle-2.png",
  "description":"Arceau vélo"},
 "geometry":
 {"type":"Point",
  "coordinates":[-0.57519289916211802,44.843809311212198,0]}}
,
{"type":"Feature",
 "properties":
 {"icon":"images/icones/parking_bicycle-2.png",
  "description":"Arceau vélo"},
 "geometry":
 {"type":"Point",
  "coordinates":[-0.58128532154416801,44.842629292469802,0]}}
,
{"type":"Feature",
 "properties":
 {"icon":"images/icones/parking_bicycle-2.png",
  "description":"Arceau vélo"},
 "geometry":
 {"type":"Point",
  "coordinates":[-0.57607786659051397,44.845569963497098,0]}}
,
{"type":"Feature",
 "properties":
 {"icon":"images/icones/parking_bicycle-2.png",
  "description":"Arceau vélo"},
 "geometry":
 {"type":"Point",
  "coordinates":[-0.57526316218321505,44.846238735036799,0]}}
,
{"type":"Feature",
 "properties":
 {"icon":"images/icones/parking_bicycle-2.png",
  "description":"Arceau vélo"},
 "geometry":
 {"type":"Point",
  "coordinates":[-0.584389779005279,44.841434366603401,0]}}
,
{"type":"Feature",
 "properties":
 {"icon":"images/icones/parking_bicycle-2.png",
  "description":"Arceau vélo"},
 "geometry":
 {"type":"Point",
  "coordinates":[-0.58499557235570099,44.847740225225103,0]}}
,
{"type":"Feature",
 "properties":
 {"icon":"images/icones/parking_bicycle-2.png",
  "description":"Arceau vélo"},
 "geometry":
 {"type":"Point",
  "coordinates":[-0.58813218994413896,44.846184227415598,0]}}
,
{"type":"Feature",
 "properties":
 {"icon":"images/icones/parking_bicycle-2.png",
  "description":"Arceau vélo"},
 "geometry":
 {"type":"Point",
  "coordinates":[-0.59483845112123401,44.852191537621898,0]}}
,
{"type":"Feature",
 "properties":
 {"icon":"images/icones/parking_bicycle-2.png",
  "description":"Arceau vélo"},
 "geometry":
 {"type":"Point",
  "coordinates":[-0.59517625370753002,44.843268485827899,0]}}
,
{"type":"Feature",
 "properties":
 {"icon":"images/icones/parking_bicycle-2.png",
  "description":"Arceau vélo"},
 "geometry":
 {"type":"Point",
  "coordinates":[-0.587916169231815,44.8464057912146,0]}}
,
{"type":"Feature",
 "properties":
 {"icon":"images/icones/parking_bicycle-2.png",
  "description":"Arceau vélo"},
 "geometry":
 {"type":"Point",
  "coordinates":[-0.58672495488472998,44.838086072147298,0]}}
,
{"type":"Feature",
 "properties":
 {"icon":"images/icones/parking_bicycle-2.png",
  "description":"Arceau vélo"},
 "geometry":
 {"type":"Point",
  "coordinates":[-0.58919552236250206,44.836549486628201,0]}}
,
{"type":"Feature",
 "properties":
 {"icon":"images/icones/parking_bicycle-2.png",
  "description":"Arceau vélo"},
 "geometry":
 {"type":"Point",
  "coordinates":[-0.58716316788262102,44.837218379814601,0]}}
,
{"type":"Feature",
 "properties":
 {"icon":"images/icones/parking_bicycle-2.png",
  "description":"Arceau vélo"},
 "geometry":
 {"type":"Point",
  "coordinates":[-0.59508939516001003,44.849366767776097,0]}}
,
{"type":"Feature",
 "properties":
 {"icon":"images/icones/parking_bicycle-2.png",
  "description":"Arceau vélo"},
 "geometry":
 {"type":"Point",
  "coordinates":[-0.59029027269307299,44.834144550608698,0]}}
,
{"type":"Feature",
 "properties":
 {"icon":"images/icones/parking_bicycle-2.png",
  "description":"Arceau vélo"},
 "geometry":
 {"type":"Point",
  "coordinates":[-0.58931558640702097,44.834394289268502,0]}}
,
{"type":"Feature",
 "properties":
 {"icon":"images/icones/parking_bicycle-2.png",
  "description":"Arceau vélo"},
 "geometry":
 {"type":"Point",
  "coordinates":[-0.58871092158335903,44.837352801642197,0]}}
,
{"type":"Feature",
 "properties":
 {"icon":"images/icones/parking_bicycle-2.png",
  "description":"Arceau vélo"},
 "geometry":
 {"type":"Point",
  "coordinates":[-0.57204969054729904,44.839647305782201,0]}}
,
{"type":"Feature",
 "properties":
 {"icon":"images/icones/parking_bicycle-2.png",
  "description":"Arceau vélo"},
 "geometry":
 {"type":"Point",
  "coordinates":[-0.58114468521754303,44.841525995168602,0]}}
,
{"type":"Feature",
 "properties":
 {"icon":"images/icones/parking_bicycle-2.png",
  "description":"Arceau vélo"},
 "geometry":
 {"type":"Point",
  "coordinates":[-0.59410461458330899,44.852705385556902,0]}}
,
{"type":"Feature",
 "properties":
 {"icon":"images/icones/parking_bicycle-2.png",
  "description":"Arceau vélo"},
 "geometry":
 {"type":"Point",
  "coordinates":[-0.59601351066165598,44.8501266862568,0]}}
,
{"type":"Feature",
 "properties":
 {"icon":"images/icones/parking_bicycle-2.png",
  "description":"Arceau vélo"},
 "geometry":
 {"type":"Point",
  "coordinates":[-0.598541164888308,44.840202589958103,0]}}
,
{"type":"Feature",
 "properties":
 {"icon":"images/icones/parking_bicycle-2.png",
  "description":"Arceau vélo"},
 "geometry":
 {"type":"Point",
  "coordinates":[-0.59437696404588003,44.832993910806699,0]}}
,
{"type":"Feature",
 "properties":
 {"icon":"images/icones/parking_bicycle-2.png",
  "description":"Arceau vélo"},
 "geometry":
 {"type":"Point",
  "coordinates":[-0.59907678867025305,44.844069970911399,0]}}
,
{"type":"Feature",
 "properties":
 {"icon":"images/icones/parking_bicycle-2.png",
  "description":"Arceau vélo"},
 "geometry":
 {"type":"Point",
  "coordinates":[-0.58815011879926304,44.834369793184102,0]}}
,
{"type":"Feature",
 "properties":
 {"icon":"images/icones/parking_bicycle-2.png",
  "description":"Arceau vélo"},
 "geometry":
 {"type":"Point",
  "coordinates":[-0.58826827064277498,44.8410391892197,0]}}
,
{"type":"Feature",
 "properties":
 {"icon":"images/icones/parking_bicycle-2.png",
  "description":"Arceau vélo"},
 "geometry":
 {"type":"Point",
  "coordinates":[-0.59909371291354796,44.839864424465702,0]}}
,
{"type":"Feature",
 "properties":
 {"icon":"images/icones/parking_bicycle-2.png",
  "description":"Arceau vélo"},
 "geometry":
 {"type":"Point",
  "coordinates":[-0.59914945738986702,44.836432260482397,0]}}
,
{"type":"Feature",
 "properties":
 {"icon":"images/icones/parking_bicycle-2.png",
  "description":"Arceau vélo"},
 "geometry":
 {"type":"Point",
  "coordinates":[-0.594873686010567,44.833551226561298,0]}}
,
{"type":"Feature",
 "properties":
 {"icon":"images/icones/parking_bicycle-2.png",
  "description":"Arceau vélo"},
 "geometry":
 {"type":"Point",
  "coordinates":[-0.59709139119948895,44.8481454239028,0]}}
,
{"type":"Feature",
 "properties":
 {"icon":"images/icones/parking_bicycle-2.png",
  "description":"Arceau vélo"},
 "geometry":
 {"type":"Point",
  "coordinates":[-0.59169279238192396,44.833343603195502,0]}}
,
{"type":"Feature",
 "properties":
 {"icon":"images/icones/parking_bicycle-2.png",
  "description":"Arceau vélo"},
 "geometry":
 {"type":"Point",
  "coordinates":[-0.57120935311544896,44.842603902683699,0]}}
]}