{"type":"FeatureCollection","features":[
{"type":"Feature",
 "properties":
 {"icon":"images/icones/themepark.png",
  "description":"Place Valmy"},
 "geometry":
 {"type":"Point",
  "coordinates":[-0.59492846974701796,44.822850312768502,0]}}
,
{"type":"Feature",
 "properties":
 {"icon":"images/icones/themepark.png",
  "description":"place d'Arlac_Aire de jeux"},
 "geometry":
 {"type":"Point",
  "coordinates":[-0.588817278555827,44.830685473849002,0]}}
,
{"type":"Feature",
 "properties":
 {"icon":"images/icones/themepark.png",
  "description":"Square Emile Combes-Jean Gautier"},
 "geometry":
 {"type":"Point",
  "coordinates":[-0.60772841924838605,44.836481558753498,0]}}
,
{"type":"Feature",
 "properties":
 {"icon":"images/icones/themepark.png",
  "description":"Jardin Saint Julien"},
 "geometry":
 {"type":"Point",
  "coordinates":[-0.59939908551808596,44.819642153465701,0]}}
,
{"type":"Feature",
 "properties":
 {"icon":"images/icones/themepark.png",
  "description":"Square Alfred Smith"},
 "geometry":
 {"type":"Point",
  "coordinates":[-0.61227238043631205,44.824567933035702,0]}}
,
{"type":"Feature",
 "properties":
 {"icon":"images/icones/themepark.png",
  "description":"Jardin de Lili"},
 "geometry":
 {"type":"Point",
  "coordinates":[-0.61122648075549302,44.833068798286298,0]}}
,
{"type":"Feature",
 "properties":
 {"icon":"images/icones/themepark.png",
  "description":"Jardin de la Béchade"},
 "geometry":
 {"type":"Point",
  "coordinates":[-0.59972101897151897,44.8265265956558,0]}}
,
{"type":"Feature",
 "properties":
 {"icon":"images/icones/themepark.png",
  "description":"Parc de la Cité Carreire"},
 "geometry":
 {"type":"Point",
  "coordinates":[-0.60856942008715398,44.823651569192997,0]}}
,
{"type":"Feature",
 "properties":
 {"icon":"images/icones/themepark.png",
  "description":"Square Gaviniès"},
 "geometry":
 {"type":"Point",
  "coordinates":[-0.59356557212719896,44.833148648262799,0]}}
]}