{"type":"FeatureCollection","features":[
{"type":"Feature",
 "properties":
 {"icon":"images/icones/parking_bicycle-2.png",
  "description":"Arceau vélo"},
 "geometry":
 {"type":"Point",
  "coordinates":[-0.58002625504963001,44.836352537807599,0]}}
,
{"type":"Feature",
 "properties":
 {"icon":"images/icones/parking_bicycle-2.png",
  "description":"Arceau vélo"},
 "geometry":
 {"type":"Point",
  "coordinates":[-0.56702921111720495,44.836153663400701,0]}}
,
{"type":"Feature",
 "properties":
 {"icon":"images/icones/parking_bicycle-2.png",
  "description":"Arceau vélo"},
 "geometry":
 {"type":"Point",
  "coordinates":[-0.56967677065285605,44.835186678379301,0]}}
,
{"type":"Feature",
 "properties":
 {"icon":"images/icones/parking_bicycle-2.png",
  "description":"Arceau vélo"},
 "geometry":
 {"type":"Point",
  "coordinates":[-0.58548881002120001,44.834292982079297,0]}}
,
{"type":"Feature",
 "properties":
 {"icon":"images/icones/parking_bicycle-2.png",
  "description":"Rack"},
 "geometry":
 {"type":"Point",
  "coordinates":[-0.58864521939104997,44.831280247162297,0]}}
,
{"type":"Feature",
 "properties":
 {"icon":"images/icones/parking_bicycle-2.png",
  "description":"Arceau vélo"},
 "geometry":
 {"type":"Point",
  "coordinates":[-0.58564659303464595,44.834413673034803,0]}}
,
{"type":"Feature",
 "properties":
 {"icon":"images/icones/parking_bicycle-2.png",
  "description":"Arceau vélo"},
 "geometry":
 {"type":"Point",
  "coordinates":[-0.61022664340578003,44.832233428087697,0]}}
,
{"type":"Feature",
 "properties":
 {"icon":"images/icones/parking_bicycle-2.png",
  "description":"Arceau vélo"},
 "geometry":
 {"type":"Point",
  "coordinates":[-0.60968272438281701,44.832238341878003,0]}}
,
{"type":"Feature",
 "properties":
 {"icon":"images/icones/parking_bicycle-2.png",
  "description":"Arceau vélo"},
 "geometry":
 {"type":"Point",
  "coordinates":[-0.60925412451358696,44.832026911325798,0]}}
,
{"type":"Feature",
 "properties":
 {"icon":"images/icones/parking_bicycle-2.png",
  "description":"Arceau vélo"},
 "geometry":
 {"type":"Point",
  "coordinates":[-0.61004167885405103,44.832328207327301,0]}}
,
{"type":"Feature",
 "properties":
 {"icon":"images/icones/parking_bicycle-2.png",
  "description":"Arceau vélo"},
 "geometry":
 {"type":"Point",
  "coordinates":[-0.61019553742260502,44.832369358214798,0]}}
,
{"type":"Feature",
 "properties":
 {"icon":"images/icones/parking_bicycle-2.png",
  "description":"Arceau vélo"},
 "geometry":
 {"type":"Point",
  "coordinates":[-0.57135421533209596,44.836855386222297,0]}}
,
{"type":"Feature",
 "properties":
 {"icon":"images/icones/parking_bicycle-2.png",
  "description":"Arceau vélo"},
 "geometry":
 {"type":"Point",
  "coordinates":[-0.56944975295571398,44.835966778832102,0]}}
,
{"type":"Feature",
 "properties":
 {"icon":"images/icones/parking_bicycle-2.png",
  "description":"Arceau vélo"},
 "geometry":
 {"type":"Point",
  "coordinates":[-0.57204903624955405,44.835559299493099,0]}}
,
{"type":"Feature",
 "properties":
 {"icon":"images/icones/parking_bicycle-2.png",
  "description":"Arceau vélo"},
 "geometry":
 {"type":"Point",
  "coordinates":[-0.57062780003125302,44.8352258400976,0]}}
,
{"type":"Feature",
 "properties":
 {"icon":"images/icones/parking_bicycle-2.png",
  "description":"Arceau vélo"},
 "geometry":
 {"type":"Point",
  "coordinates":[-0.58102453121845199,44.837143112490502,0]}}
,
{"type":"Feature",
 "properties":
 {"icon":"images/icones/parking_bicycle-2.png",
  "description":"Arceau vélo"},
 "geometry":
 {"type":"Point",
  "coordinates":[-0.59719544937370295,44.8287558561398,0]}}
,
{"type":"Feature",
 "properties":
 {"icon":"images/icones/parking_bicycle-2.png",
  "description":"Arceau vélo"},
 "geometry":
 {"type":"Point",
  "coordinates":[-0.57754461917663003,44.837149793075596,0]}}
,
{"type":"Feature",
 "properties":
 {"icon":"images/icones/parking_bicycle-2.png",
  "description":"Arceau vélo"},
 "geometry":
 {"type":"Point",
  "coordinates":[-0.57153777284114005,44.836985826418498,0]}}
,
{"type":"Feature",
 "properties":
 {"icon":"images/icones/parking_bicycle-2.png",
  "description":"Arceau vélo"},
 "geometry":
 {"type":"Point",
  "coordinates":[-0.57237935624402903,44.835073755232699,0]}}
,
{"type":"Feature",
 "properties":
 {"icon":"images/icones/parking_bicycle-2.png",
  "description":"Arceau vélo"},
 "geometry":
 {"type":"Point",
  "coordinates":[-0.56559869598041002,44.836144540645698,0]}}
,
{"type":"Feature",
 "properties":
 {"icon":"images/icones/parking_bicycle-2.png",
  "description":"Arceau vélo"},
 "geometry":
 {"type":"Point",
  "coordinates":[-0.56745020995609596,44.835710872780801,0]}}
,
{"type":"Feature",
 "properties":
 {"icon":"images/icones/parking_bicycle-2.png",
  "description":"Arceau vélo"},
 "geometry":
 {"type":"Point",
  "coordinates":[-0.56867682745561798,44.835436939247899,0]}}
,
{"type":"Feature",
 "properties":
 {"icon":"images/icones/parking_bicycle-2.png",
  "description":"Arceau vélo"},
 "geometry":
 {"type":"Point",
  "coordinates":[-0.56941383723118399,44.835499488194102,0]}}
,
{"type":"Feature",
 "properties":
 {"icon":"images/icones/parking_bicycle-2.png",
  "description":"Arceau vélo"},
 "geometry":
 {"type":"Point",
  "coordinates":[-0.569200448273951,44.835279720198301,0]}}
,
{"type":"Feature",
 "properties":
 {"icon":"images/icones/parking_bicycle-2.png",
  "description":"Arceau vélo"},
 "geometry":
 {"type":"Point",
  "coordinates":[-0.57014995513435196,44.8350307668493,0]}}
,
{"type":"Feature",
 "properties":
 {"icon":"images/icones/parking_bicycle-2.png",
  "description":"Arceau vélo"},
 "geometry":
 {"type":"Point",
  "coordinates":[-0.57596196212605499,44.837135674098299,0]}}
,
{"type":"Feature",
 "properties":
 {"icon":"images/icones/parking_bicycle-2.png",
  "description":"Arceau vélo"},
 "geometry":
 {"type":"Point",
  "coordinates":[-0.58038319855672105,44.8367180247173,0]}}
,
{"type":"Feature",
 "properties":
 {"icon":"images/icones/parking_bicycle-2.png",
  "description":"Arceau vélo"},
 "geometry":
 {"type":"Point",
  "coordinates":[-0.57091458808027595,44.8348854346522,0]}}
,
{"type":"Feature",
 "properties":
 {"icon":"images/icones/parking_bicycle-2.png",
  "description":"Arceau vélo"},
 "geometry":
 {"type":"Point",
  "coordinates":[-0.59792811229521603,44.827719719401998,0]}}
,
{"type":"Feature",
 "properties":
 {"icon":"images/icones/parking_bicycle-2.png",
  "description":"Arceau vélo"},
 "geometry":
 {"type":"Point",
  "coordinates":[-0.59745547029576596,44.8283891093295,0]}}
,
{"type":"Feature",
 "properties":
 {"icon":"images/icones/parking_bicycle-2.png",
  "description":"Arceau vélo"},
 "geometry":
 {"type":"Point",
  "coordinates":[-0.597573773570096,44.828224032118001,0]}}
,
{"type":"Feature",
 "properties":
 {"icon":"images/icones/parking_bicycle-2.png",
  "description":"Arceau vélo"},
 "geometry":
 {"type":"Point",
  "coordinates":[-0.57261958278384695,44.834815609115402,0]}}
,
{"type":"Feature",
 "properties":
 {"icon":"images/icones/parking_bicycle-2.png",
  "description":"Arceau vélo"},
 "geometry":
 {"type":"Point",
  "coordinates":[-0.59183009370159501,44.833304137200301,0]}}
,
{"type":"Feature",
 "properties":
 {"icon":"images/icones/parking_bicycle-2.png",
  "description":"Arceau vélo"},
 "geometry":
 {"type":"Point",
  "coordinates":[-0.59211664356316396,44.833215819373798,0]}}
,
{"type":"Feature",
 "properties":
 {"icon":"images/icones/parking_bicycle-2.png",
  "description":"Arceau vélo"},
 "geometry":
 {"type":"Point",
  "coordinates":[-0.57198102803654005,44.836980020105997,0]}}
,
{"type":"Feature",
 "properties":
 {"icon":"images/icones/parking_bicycle-2.png",
  "description":"Arceau vélo"},
 "geometry":
 {"type":"Point",
  "coordinates":[-0.59689973700127796,44.8301771457066,0]}}
,
{"type":"Feature",
 "properties":
 {"icon":"images/icones/parking_bicycle-2.png",
  "description":"Arceau vélo"},
 "geometry":
 {"type":"Point",
  "coordinates":[-0.57480427688784896,44.834976697890298,0]}}
,
{"type":"Feature",
 "properties":
 {"icon":"images/icones/parking_bicycle-2.png",
  "description":"Arceau vélo"},
 "geometry":
 {"type":"Point",
  "coordinates":[-0.59988676919829997,44.829182845693097,0]}}
,
{"type":"Feature",
 "properties":
 {"icon":"images/icones/parking_bicycle-2.png",
  "description":"Arceau vélo"},
 "geometry":
 {"type":"Point",
  "coordinates":[-0.60032868354897595,44.829162556365503,0]}}
,
{"type":"Feature",
 "properties":
 {"icon":"images/icones/parking_bicycle-2.png",
  "description":"Arceau vélo"},
 "geometry":
 {"type":"Point",
  "coordinates":[-0.56990731783704995,44.8362614896404,0]}}
,
{"type":"Feature",
 "properties":
 {"icon":"images/icones/parking_bicycle-2.png",
  "description":"Arceau vélo"},
 "geometry":
 {"type":"Point",
  "coordinates":[-0.60049704222949696,44.828735104909903,0]}}
,
{"type":"Feature",
 "properties":
 {"icon":"images/icones/parking_bicycle-2.png",
  "description":"Arceau vélo"},
 "geometry":
 {"type":"Point",
  "coordinates":[-0.57040813960968195,44.835897705710501,0]}}
,
{"type":"Feature",
 "properties":
 {"icon":"images/icones/parking_bicycle-2.png",
  "description":"Arceau vélo"},
 "geometry":
 {"type":"Point",
  "coordinates":[-0.59655423186289502,44.832626127621701,0]}}
,
{"type":"Feature",
 "properties":
 {"icon":"images/icones/parking_bicycle-2.png",
  "description":"Arceau vélo"},
 "geometry":
 {"type":"Point",
  "coordinates":[-0.57551494014448101,44.836330168750798,0]}}
,
{"type":"Feature",
 "properties":
 {"icon":"images/icones/parking_bicycle-2.png",
  "description":"Arceau vélo"},
 "geometry":
 {"type":"Point",
  "coordinates":[-0.60293031806068798,44.829816807613902,0]}}
,
{"type":"Feature",
 "properties":
 {"icon":"images/icones/parking_bicycle-2.png",
  "description":"Arceau vélo"},
 "geometry":
 {"type":"Point",
  "coordinates":[-0.60156533254406397,44.827330248640202,0]}}
,
{"type":"Feature",
 "properties":
 {"icon":"images/icones/parking_bicycle-2.png",
  "description":"Arceau vélo"},
 "geometry":
 {"type":"Point",
  "coordinates":[-0.61101521261014002,44.832312452300698,0]}}
,
{"type":"Feature",
 "properties":
 {"icon":"images/icones/parking_bicycle-2.png",
  "description":"Arceau vélo"},
 "geometry":
 {"type":"Point",
  "coordinates":[-0.59989138796160002,44.828768503303202,0]}}
,
{"type":"Feature",
 "properties":
 {"icon":"images/icones/parking_bicycle-2.png",
  "description":"Arceau vélo"},
 "geometry":
 {"type":"Point",
  "coordinates":[-0.57972951298984898,44.833249763321803,0]}}
,
{"type":"Feature",
 "properties":
 {"icon":"images/icones/parking_bicycle-2.png",
  "description":"Arceau vélo"},
 "geometry":
 {"type":"Point",
  "coordinates":[-0.57329628541089095,44.8354469025942,0]}}
,
{"type":"Feature",
 "properties":
 {"icon":"images/icones/parking_bicycle-2.png",
  "description":"Arceau vélo"},
 "geometry":
 {"type":"Point",
  "coordinates":[-0.57443466297277201,44.833653316392102,0]}}
,
{"type":"Feature",
 "properties":
 {"icon":"images/icones/parking_bicycle-2.png",
  "description":"Arceau vélo"},
 "geometry":
 {"type":"Point",
  "coordinates":[-0.57369149487581095,44.832195286791901,0]}}
,
{"type":"Feature",
 "properties":
 {"icon":"images/icones/parking_bicycle-2.png",
  "description":"Arceau vélo"},
 "geometry":
 {"type":"Point",
  "coordinates":[-0.57409868396909902,44.833004481313303,0]}}
,
{"type":"Feature",
 "properties":
 {"icon":"images/icones/parking_bicycle-2.png",
  "description":"Arceau vélo"},
 "geometry":
 {"type":"Point",
  "coordinates":[-0.57191578301476698,44.835931821249702,0]}}
,
{"type":"Feature",
 "properties":
 {"icon":"images/icones/parking_bicycle-2.png",
  "description":"Arceau vélo"},
 "geometry":
 {"type":"Point",
  "coordinates":[-0.59826954931052301,44.833152469972198,0]}}
,
{"type":"Feature",
 "properties":
 {"icon":"images/icones/parking_bicycle-2.png",
  "description":"Arceau vélo"},
 "geometry":
 {"type":"Point",
  "coordinates":[-0.572670175714868,44.837362575417103,0]}}
,
{"type":"Feature",
 "properties":
 {"icon":"images/icones/parking_bicycle-2.png",
  "description":"Arceau vélo"},
 "geometry":
 {"type":"Point",
  "coordinates":[-0.59378817888145397,44.832732265911098,0]}}
,
{"type":"Feature",
 "properties":
 {"icon":"images/icones/parking_bicycle-2.png",
  "description":"Arceau vélo"},
 "geometry":
 {"type":"Point",
  "coordinates":[-0.58137102457062595,44.829876644403797,0]}}
,
{"type":"Feature",
 "properties":
 {"icon":"images/icones/parking_bicycle-2.png",
  "description":"Arceau vélo"},
 "geometry":
 {"type":"Point",
  "coordinates":[-0.57295837853243203,44.837814557773598,0]}}
,
{"type":"Feature",
 "properties":
 {"icon":"images/icones/parking_bicycle-2.png",
  "description":"Arceau vélo"},
 "geometry":
 {"type":"Point",
  "coordinates":[-0.58171843735794704,44.830246119742803,0]}}
,
{"type":"Feature",
 "properties":
 {"icon":"images/icones/parking_bicycle-2.png",
  "description":"Arceau vélo"},
 "geometry":
 {"type":"Point",
  "coordinates":[-0.60448609024318101,44.830308569143803,0]}}
,
{"type":"Feature",
 "properties":
 {"icon":"images/icones/parking_bicycle-2.png",
  "description":"Arceau vélo"},
 "geometry":
 {"type":"Point",
  "coordinates":[-0.56840287969839498,44.837568901064003,0]}}
,
{"type":"Feature",
 "properties":
 {"icon":"images/icones/parking_bicycle-2.png",
  "description":"Arceau vélo"},
 "geometry":
 {"type":"Point",
  "coordinates":[-0.60767481504835597,44.829804218733599,0]}}
,
{"type":"Feature",
 "properties":
 {"icon":"images/icones/parking_bicycle-2.png",
  "description":"Arceau vélo"},
 "geometry":
 {"type":"Point",
  "coordinates":[-0.61033764402421198,44.828907941042701,0]}}
,
{"type":"Feature",
 "properties":
 {"icon":"images/icones/parking_bicycle-2.png",
  "description":"Arceau vélo"},
 "geometry":
 {"type":"Point",
  "coordinates":[-0.60980603262488398,44.829064344640898,0]}}
,
{"type":"Feature",
 "properties":
 {"icon":"images/icones/parking_bicycle-2.png",
  "description":"Arceau vélo"},
 "geometry":
 {"type":"Point",
  "coordinates":[-0.61079401594909699,44.831687724000503,0]}}
,
{"type":"Feature",
 "properties":
 {"icon":"images/icones/parking_bicycle-2.png",
  "description":"Arceau vélo"},
 "geometry":
 {"type":"Point",
  "coordinates":[-0.61092675976537703,44.832062578217503,0]}}
,
{"type":"Feature",
 "properties":
 {"icon":"images/icones/parking_bicycle-2.png",
  "description":"Arceau vélo"},
 "geometry":
 {"type":"Point",
  "coordinates":[-0.61087318211861596,44.833009421994397,0]}}
,
{"type":"Feature",
 "properties":
 {"icon":"images/icones/parking_bicycle-2.png",
  "description":"Arceau vélo"},
 "geometry":
 {"type":"Point",
  "coordinates":[-0.59823320562212801,44.827243807257197,0]}}
,
{"type":"Feature",
 "properties":
 {"icon":"images/icones/parking_bicycle-2.png",
  "description":"Arceau vélo"},
 "geometry":
 {"type":"Point",
  "coordinates":[-0.59823320562212801,44.827243807257197,0]}}
,
{"type":"Feature",
 "properties":
 {"icon":"images/icones/parking_bicycle-2.png",
  "description":"Arceau vélo"},
 "geometry":
 {"type":"Point",
  "coordinates":[-0.57639072818079995,44.833288908933802,0]}}
,
{"type":"Feature",
 "properties":
 {"icon":"images/icones/parking_bicycle-2.png",
  "description":"Arceau vélo"},
 "geometry":
 {"type":"Point",
  "coordinates":[-0.57719107942616399,44.8320801793977,0]}}
,
{"type":"Feature",
 "properties":
 {"icon":"images/icones/parking_bicycle-2.png",
  "description":"Arceau vélo"},
 "geometry":
 {"type":"Point",
  "coordinates":[-0.57443466297277201,44.833653316392102,0]}}
,
{"type":"Feature",
 "properties":
 {"icon":"images/icones/parking_bicycle-2.png",
  "description":"Arceau vélo"},
 "geometry":
 {"type":"Point",
  "coordinates":[-0.57495699741388195,44.835260968129298,0]}}
,
{"type":"Feature",
 "properties":
 {"icon":"images/icones/parking_bicycle-2.png",
  "description":"Arceau vélo"},
 "geometry":
 {"type":"Point",
  "coordinates":[-0.56743032036455698,44.838758907346303,0]}}
,
{"type":"Feature",
 "properties":
 {"icon":"images/icones/parking_bicycle-2.png",
  "description":"Arceau vélo"},
 "geometry":
 {"type":"Point",
  "coordinates":[-0.62392897763761401,44.8421938064145,0]}}
,
{"type":"Feature",
 "properties":
 {"icon":"images/icones/parking_bicycle-2.png",
  "description":"Arceau vélo"},
 "geometry":
 {"type":"Point",
  "coordinates":[-0.60102160911529301,44.826932450147098,0]}}
,
{"type":"Feature",
 "properties":
 {"icon":"images/icones/parking_bicycle-2.png",
  "description":"Arceau vélo"},
 "geometry":
 {"type":"Point",
  "coordinates":[-0.59743221286227099,44.832468743680998,0]}}
,
{"type":"Feature",
 "properties":
 {"icon":"images/icones/parking_bicycle-2.png",
  "description":"Arceau vélo"},
 "geometry":
 {"type":"Point",
  "coordinates":[-0.59218126942153604,44.827424245456299,0]}}
,
{"type":"Feature",
 "properties":
 {"icon":"images/icones/parking_bicycle-2.png",
  "description":"Arceau vélo"},
 "geometry":
 {"type":"Point",
  "coordinates":[-0.59259703206713599,44.8273867051373,0]}}
,
{"type":"Feature",
 "properties":
 {"icon":"images/icones/parking_bicycle-2.png",
  "description":"Arceau vélo"},
 "geometry":
 {"type":"Point",
  "coordinates":[-0.59877733671822997,44.831282077562598,0]}}
,
{"type":"Feature",
 "properties":
 {"icon":"images/icones/parking_bicycle-2.png",
  "description":"Arceau vélo"},
 "geometry":
 {"type":"Point",
  "coordinates":[-0.59096503687245805,44.8296701753615,0]}}
,
{"type":"Feature",
 "properties":
 {"icon":"images/icones/parking_bicycle-2.png",
  "description":"Arceau vélo"},
 "geometry":
 {"type":"Point",
  "coordinates":[-0.60182177044664598,44.827647867768597,0]}}
,
{"type":"Feature",
 "properties":
 {"icon":"images/icones/parking_bicycle-2.png",
  "description":"Arceau vélo"},
 "geometry":
 {"type":"Point",
  "coordinates":[-0.59109849730931496,44.829810903885701,0]}}
,
{"type":"Feature",
 "properties":
 {"icon":"images/icones/parking_bicycle-2.png",
  "description":"Arceau vélo"},
 "geometry":
 {"type":"Point",
  "coordinates":[-0.60196937384179705,44.8328578572659,0]}}
,
{"type":"Feature",
 "properties":
 {"icon":"images/icones/parking_bicycle-2.png",
  "description":"Arceau vélo"},
 "geometry":
 {"type":"Point",
  "coordinates":[-0.59803392731021499,44.831345946037302,0]}}
,
{"type":"Feature",
 "properties":
 {"icon":"images/icones/parking_bicycle-2.png",
  "description":"Arceau vélo"},
 "geometry":
 {"type":"Point",
  "coordinates":[-0.59603133967982602,44.830019028135297,0]}}
,
{"type":"Feature",
 "properties":
 {"icon":"images/icones/parking_bicycle-2.png",
  "description":"Arceau vélo"},
 "geometry":
 {"type":"Point",
  "coordinates":[-0.60879857476396104,44.832017757783298,0]}}
,
{"type":"Feature",
 "properties":
 {"icon":"images/icones/parking_bicycle-2.png",
  "description":"Arceau vélo"},
 "geometry":
 {"type":"Point",
  "coordinates":[-0.60889076169850698,44.831933309757602,0]}}
,
{"type":"Feature",
 "properties":
 {"icon":"images/icones/parking_bicycle-2.png",
  "description":"Arceau vélo"},
 "geometry":
 {"type":"Point",
  "coordinates":[-0.60775762129426003,44.831763403182499,0]}}
,
{"type":"Feature",
 "properties":
 {"icon":"images/icones/parking_bicycle-2.png",
  "description":"Arceau vélo"},
 "geometry":
 {"type":"Point",
  "coordinates":[-0.60788178665950698,44.831653890196499,0]}}
,
{"type":"Feature",
 "properties":
 {"icon":"images/icones/parking_bicycle-2.png",
  "description":"Arceau vélo"},
 "geometry":
 {"type":"Point",
  "coordinates":[-0.60682550356064902,44.831536668020398,0]}}
,
{"type":"Feature",
 "properties":
 {"icon":"images/icones/parking_bicycle-2.png",
  "description":"Arceau vélo"},
 "geometry":
 {"type":"Point",
  "coordinates":[-0.60631283193957297,44.831405632470997,0]}}
,
{"type":"Feature",
 "properties":
 {"icon":"images/icones/parking_bicycle-2.png",
  "description":"Arceau vélo"},
 "geometry":
 {"type":"Point",
  "coordinates":[-0.60690773883989302,44.831408486926698,0]}}
,
{"type":"Feature",
 "properties":
 {"icon":"images/icones/parking_bicycle-2.png",
  "description":"Arceau vélo"},
 "geometry":
 {"type":"Point",
  "coordinates":[-0.60640801797180499,44.8312861396223,0]}}
,
{"type":"Feature",
 "properties":
 {"icon":"images/icones/parking_bicycle-2.png",
  "description":"Arceau vélo"},
 "geometry":
 {"type":"Point",
  "coordinates":[-0.60540330227081696,44.831185646953102,0]}}
,
{"type":"Feature",
 "properties":
 {"icon":"images/icones/parking_bicycle-2.png",
  "description":"Arceau vélo"},
 "geometry":
 {"type":"Point",
  "coordinates":[-0.60554948479961801,44.831073907608697,0]}}
,
{"type":"Feature",
 "properties":
 {"icon":"images/icones/parking_bicycle-2.png",
  "description":"Arceau vélo"},
 "geometry":
 {"type":"Point",
  "coordinates":[-0.60495998920754002,44.830926833534697,0]}}
,
{"type":"Feature",
 "properties":
 {"icon":"images/icones/parking_bicycle-2.png",
  "description":"Arceau vélo"},
 "geometry":
 {"type":"Point",
  "coordinates":[-0.604301016956029,44.830907531501097,0]}}
,
{"type":"Feature",
 "properties":
 {"icon":"images/icones/parking_bicycle-2.png",
  "description":"Arceau vélo"},
 "geometry":
 {"type":"Point",
  "coordinates":[-0.60476822495257299,44.830886696440999,0]}}
,
{"type":"Feature",
 "properties":
 {"icon":"images/icones/parking_bicycle-2.png",
  "description":"Arceau vélo"},
 "geometry":
 {"type":"Point",
  "coordinates":[-0.60366053742870396,44.830752787285597,0]}}
,
{"type":"Feature",
 "properties":
 {"icon":"images/icones/parking_bicycle-2.png",
  "description":"Arceau vélo"},
 "geometry":
 {"type":"Point",
  "coordinates":[-0.57693389223914504,44.8327619782875,0]}}
,
{"type":"Feature",
 "properties":
 {"icon":"images/icones/parking_bicycle-2.png",
  "description":"Arceau moto"},
 "geometry":
 {"type":"Point",
  "coordinates":[-0.59807169927904602,44.833164942414399,0]}}
,
{"type":"Feature",
 "properties":
 {"icon":"images/icones/parking_bicycle-2.png",
  "description":"Arceau moto"},
 "geometry":
 {"type":"Point",
  "coordinates":[-0.57918547599982395,44.837063421055497,0]}}
,
{"type":"Feature",
 "properties":
 {"icon":"images/icones/parking_bicycle-2.png",
  "description":"Arceau moto"},
 "geometry":
 {"type":"Point",
  "coordinates":[-0.59839739216244203,44.833142031087597,0]}}
,
{"type":"Feature",
 "properties":
 {"icon":"images/icones/parking_bicycle-2.png",
  "description":"Arceau vélo"},
 "geometry":
 {"type":"Point",
  "coordinates":[-0.56975221063399795,44.8361406037561,0]}}
,
{"type":"Feature",
 "properties":
 {"icon":"images/icones/parking_bicycle-2.png",
  "description":"Arceau vélo"},
 "geometry":
 {"type":"Point",
  "coordinates":[-0.57301080560094897,44.835048884004699,0]}}
,
{"type":"Feature",
 "properties":
 {"icon":"images/icones/parking_bicycle-2.png",
  "description":"Arceau vélo"},
 "geometry":
 {"type":"Point",
  "coordinates":[-0.57417818802339404,44.834857372022597,0]}}
,
{"type":"Feature",
 "properties":
 {"icon":"images/icones/parking_bicycle-2.png",
  "description":"Arceau vélo"},
 "geometry":
 {"type":"Point",
  "coordinates":[-0.59857505917425602,44.831035075560798,0]}}
,
{"type":"Feature",
 "properties":
 {"icon":"images/icones/parking_bicycle-2.png",
  "description":"Arceau vélo"},
 "geometry":
 {"type":"Point",
  "coordinates":[-0.573344010996926,44.835895896116199,0]}}
,
{"type":"Feature",
 "properties":
 {"icon":"images/icones/parking_bicycle-2.png",
  "description":"Arceau vélo"},
 "geometry":
 {"type":"Point",
  "coordinates":[-0.59840857167600103,44.830994219376997,0]}}
,
{"type":"Feature",
 "properties":
 {"icon":"images/icones/parking_bicycle-2.png",
  "description":"Arceau vélo"},
 "geometry":
 {"type":"Point",
  "coordinates":[-0.61009495676066605,44.8326329770223,0]}}
,
{"type":"Feature",
 "properties":
 {"icon":"images/icones/parking_bicycle-2.png",
  "description":"Arceau vélo"},
 "geometry":
 {"type":"Point",
  "coordinates":[-0.56792555703744696,44.835599943115497,0]}}
,
{"type":"Feature",
 "properties":
 {"icon":"images/icones/parking_bicycle-2.png",
  "description":"Arceau vélo"},
 "geometry":
 {"type":"Point",
  "coordinates":[-0.58067034176894905,44.836638726232202,0]}}
,
{"type":"Feature",
 "properties":
 {"icon":"images/icones/parking_bicycle-2.png",
  "description":"Arceau vélo"},
 "geometry":
 {"type":"Point",
  "coordinates":[-0.57187480558729897,44.834852323250203,0]}}
,
{"type":"Feature",
 "properties":
 {"icon":"images/icones/parking_bicycle-2.png",
  "description":"Arceau vélo"},
 "geometry":
 {"type":"Point",
  "coordinates":[-0.573644100555468,44.835059893398501,0]}}
,
{"type":"Feature",
 "properties":
 {"icon":"images/icones/parking_bicycle-2.png",
  "description":"Arceau vélo"},
 "geometry":
 {"type":"Point",
  "coordinates":[-0.577979042449839,44.832150348204301,0]}}
,
{"type":"Feature",
 "properties":
 {"icon":"images/icones/parking_bicycle-2.png",
  "description":"Arceau vélo"},
 "geometry":
 {"type":"Point",
  "coordinates":[-0.57463136211916599,44.8340445722352,0]}}
,
{"type":"Feature",
 "properties":
 {"icon":"images/icones/parking_bicycle-2.png",
  "description":"Arceau vélo"},
 "geometry":
 {"type":"Point",
  "coordinates":[-0.57463810558885897,44.834944895340797,0]}}
,
{"type":"Feature",
 "properties":
 {"icon":"images/icones/parking_bicycle-2.png",
  "description":"Arceau vélo"},
 "geometry":
 {"type":"Point",
  "coordinates":[-0.57321742112745,44.8353857824169,0]}}
,
{"type":"Feature",
 "properties":
 {"icon":"images/icones/parking_bicycle-2.png",
  "description":"Arceau vélo"},
 "geometry":
 {"type":"Point",
  "coordinates":[-0.581792894039177,44.834278228911302,0]}}
,
{"type":"Feature",
 "properties":
 {"icon":"images/icones/parking_bicycle-2.png",
  "description":"Arceau vélo"},
 "geometry":
 {"type":"Point",
  "coordinates":[-0.572096752203341,44.836008293531002,0]}}
,
{"type":"Feature",
 "properties":
 {"icon":"images/icones/parking_bicycle-2.png",
  "description":"Arceau vélo"},
 "geometry":
 {"type":"Point",
  "coordinates":[-0.57207296009767294,44.835783839487,0]}}
,
{"type":"Feature",
 "properties":
 {"icon":"images/icones/parking_bicycle-2.png",
  "description":"Arceau vélo"},
 "geometry":
 {"type":"Point",
  "coordinates":[-0.60997863163156996,44.833338318113498,0]}}
,
{"type":"Feature",
 "properties":
 {"icon":"images/icones/parking_bicycle-2.png",
  "description":"Arceau vélo"},
 "geometry":
 {"type":"Point",
  "coordinates":[-0.57060478387258695,44.837054381794601,0]}}
,
{"type":"Feature",
 "properties":
 {"icon":"images/icones/parking_bicycle-2.png",
  "description":"Arceau vélo"},
 "geometry":
 {"type":"Point",
  "coordinates":[-0.59237346621820597,44.845315364108799,0]}}
,
{"type":"Feature",
 "properties":
 {"icon":"images/icones/parking_bicycle-2.png",
  "description":"Arceau vélo"},
 "geometry":
 {"type":"Point",
  "coordinates":[-0.58274329437375905,44.840400111078303,0]}}
,
{"type":"Feature",
 "properties":
 {"icon":"images/icones/parking_bicycle-2.png",
  "description":"Arceau vélo"},
 "geometry":
 {"type":"Point",
  "coordinates":[-0.58169927405097999,44.830465259313897,0]}}
,
{"type":"Feature",
 "properties":
 {"icon":"images/icones/parking_bicycle-2.png",
  "description":"Arceau vélo"},
 "geometry":
 {"type":"Point",
  "coordinates":[-0.573529971472727,44.834801703986102,0]}}
,
{"type":"Feature",
 "properties":
 {"icon":"images/icones/parking_bicycle-2.png",
  "description":"Rack"},
 "geometry":
 {"type":"Point",
  "coordinates":[-0.58778245246095195,44.832200341421597,0]}}
,
{"type":"Feature",
 "properties":
 {"icon":"images/icones/parking_bicycle-2.png",
  "description":"Arceau vélo"},
 "geometry":
 {"type":"Point",
  "coordinates":[-0.59264752965338996,44.833097175609502,0]}}
,
{"type":"Feature",
 "properties":
 {"icon":"images/icones/parking_bicycle-2.png",
  "description":"Arceau vélo"},
 "geometry":
 {"type":"Point",
  "coordinates":[-0.58139775905050595,44.830481867153303,0]}}
,
{"type":"Feature",
 "properties":
 {"icon":"images/icones/parking_bicycle-2.png",
  "description":"Arceau vélo"},
 "geometry":
 {"type":"Point",
  "coordinates":[-0.60366102614884398,44.830509640512901,0]}}
,
{"type":"Feature",
 "properties":
 {"icon":"images/icones/parking_bicycle-2.png",
  "description":"Arceau vélo"},
 "geometry":
 {"type":"Point",
  "coordinates":[-0.57312772694428904,44.831504509899901,0]}}
,
{"type":"Feature",
 "properties":
 {"icon":"images/icones/parking_bicycle-2.png",
  "description":"Arceau vélo"},
 "geometry":
 {"type":"Point",
  "coordinates":[-0.60185608675481095,44.820767491313099,0]}}
,
{"type":"Feature",
 "properties":
 {"icon":"images/icones/parking_bicycle-2.png",
  "description":"Arceau vélo"},
 "geometry":
 {"type":"Point",
  "coordinates":[-0.57902722360526604,44.8346914387471,0]}}
,
{"type":"Feature",
 "properties":
 {"icon":"images/icones/parking_bicycle-2.png",
  "description":"Arceau vélo"},
 "geometry":
 {"type":"Point",
  "coordinates":[-0.57754103708687299,44.837077841190002,0]}}
,
{"type":"Feature",
 "properties":
 {"icon":"images/icones/parking_bicycle-2.png",
  "description":"Arceau vélo"},
 "geometry":
 {"type":"Point",
  "coordinates":[-0.57916712319828101,44.836694667397197,0]}}
,
{"type":"Feature",
 "properties":
 {"icon":"images/icones/parking_bicycle-2.png",
  "description":"Arceau vélo"},
 "geometry":
 {"type":"Point",
  "coordinates":[-0.56709108251371898,44.837655881706297,0]}}
,
{"type":"Feature",
 "properties":
 {"icon":"images/icones/parking_bicycle-2.png",
  "description":"Arceau vélo"},
 "geometry":
 {"type":"Point",
  "coordinates":[-0.56767484198130602,44.838199500412998,0]}}
,
{"type":"Feature",
 "properties":
 {"icon":"images/icones/parking_bicycle-2.png",
  "description":"Arceau vélo"},
 "geometry":
 {"type":"Point",
  "coordinates":[-0.60237785359848295,44.831415687277001,0]}}
,
{"type":"Feature",
 "properties":
 {"icon":"images/icones/parking_bicycle-2.png",
  "description":"Arceau vélo"},
 "geometry":
 {"type":"Point",
  "coordinates":[-0.57579379466455105,44.8368066699446,0]}}
,
{"type":"Feature",
 "properties":
 {"icon":"images/icones/parking_bicycle-2.png",
  "description":"Arceau vélo"},
 "geometry":
 {"type":"Point",
  "coordinates":[-0.57916641346111497,44.832234882185297,0]}}
,
{"type":"Feature",
 "properties":
 {"icon":"images/icones/parking_bicycle-2.png",
  "description":"Arceau vélo"},
 "geometry":
 {"type":"Point",
  "coordinates":[-0.56840515069698105,44.839144602276697,0]}}
,
{"type":"Feature",
 "properties":
 {"icon":"images/icones/parking_bicycle-2.png",
  "description":"Arceau vélo"},
 "geometry":
 {"type":"Point",
  "coordinates":[-0.56883737304583304,44.839692066857999,0]}}
,
{"type":"Feature",
 "properties":
 {"icon":"images/icones/parking_bicycle-2.png",
  "description":"Arceau vélo"},
 "geometry":
 {"type":"Point",
  "coordinates":[-0.59116869018454699,44.833491935263702,0]}}
,
{"type":"Feature",
 "properties":
 {"icon":"images/icones/parking_bicycle-2.png",
  "description":"Arceau vélo"},
 "geometry":
 {"type":"Point",
  "coordinates":[-0.60220807410430599,44.831816251265103,0]}}
,
{"type":"Feature",
 "properties":
 {"icon":"images/icones/parking_bicycle-2.png",
  "description":"Arceau vélo"},
 "geometry":
 {"type":"Point",
  "coordinates":[-0.59816980442677403,44.830584512140803,0]}}
,
{"type":"Feature",
 "properties":
 {"icon":"images/icones/parking_bicycle-2.png",
  "description":"Arceau vélo"},
 "geometry":
 {"type":"Point",
  "coordinates":[-0.61175959312811301,44.832518538538203,0]}}
,
{"type":"Feature",
 "properties":
 {"icon":"images/icones/parking_bicycle-2.png",
  "description":"Arceau vélo"},
 "geometry":
 {"type":"Point",
  "coordinates":[-0.57525771865726405,44.835190354816703,0]}}
,
{"type":"Feature",
 "properties":
 {"icon":"images/icones/parking_bicycle-2.png",
  "description":"Arceau vélo"},
 "geometry":
 {"type":"Point",
  "coordinates":[-0.59765502883647303,44.828077872407,0]}}
,
{"type":"Feature",
 "properties":
 {"icon":"images/icones/parking_bicycle-2.png",
  "description":"Arceau vélo"},
 "geometry":
 {"type":"Point",
  "coordinates":[-0.57804806783906304,44.832517778713097,0]}}
,
{"type":"Feature",
 "properties":
 {"icon":"images/icones/parking_bicycle-2.png",
  "description":"Arceau vélo"},
 "geometry":
 {"type":"Point",
  "coordinates":[-0.58052665158711303,44.834811634951897,0]}}
,
{"type":"Feature",
 "properties":
 {"icon":"images/icones/parking_bicycle-2.png",
  "description":"Arceau vélo"},
 "geometry":
 {"type":"Point",
  "coordinates":[-0.59151275927463798,44.8327808726985,0]}}
,
{"type":"Feature",
 "properties":
 {"icon":"images/icones/parking_bicycle-2.png",
  "description":"Arceau vélo"},
 "geometry":
 {"type":"Point",
  "coordinates":[-0.59945030956752299,44.829815246720699,0]}}
,
{"type":"Feature",
 "properties":
 {"icon":"images/icones/parking_bicycle-2.png",
  "description":"Arceau vélo"},
 "geometry":
 {"type":"Point",
  "coordinates":[-0.58070360591398595,44.835306105042001,0]}}
,
{"type":"Feature",
 "properties":
 {"icon":"images/icones/parking_bicycle-2.png",
  "description":"Arceau vélo"},
 "geometry":
 {"type":"Point",
  "coordinates":[-0.58040756135129801,44.8351300346296,0]}}
,
{"type":"Feature",
 "properties":
 {"icon":"images/icones/parking_bicycle-2.png",
  "description":"Arceau vélo"},
 "geometry":
 {"type":"Point",
  "coordinates":[-0.57997905774799297,44.833217590141501,0]}}
,
{"type":"Feature",
 "properties":
 {"icon":"images/icones/parking_bicycle-2.png",
  "description":"Arceau vélo"},
 "geometry":
 {"type":"Point",
  "coordinates":[-0.57972341787950998,44.833092583951903,0]}}
,
{"type":"Feature",
 "properties":
 {"icon":"images/icones/parking_bicycle-2.png",
  "description":"Arceau vélo"},
 "geometry":
 {"type":"Point",
  "coordinates":[-0.60328729419592697,44.829592099873203,0]}}
,
{"type":"Feature",
 "properties":
 {"icon":"images/icones/parking_bicycle-2.png",
  "description":"Arceau vélo"},
 "geometry":
 {"type":"Point",
  "coordinates":[-0.60989625571194295,44.834850169352102,0]}}
,
{"type":"Feature",
 "properties":
 {"icon":"images/icones/parking_bicycle-2.png",
  "description":"Arceau vélo"},
 "geometry":
 {"type":"Point",
  "coordinates":[-0.60469458546301402,44.831016765547197,0]}}
,
{"type":"Feature",
 "properties":
 {"icon":"images/icones/parking_bicycle-2.png",
  "description":"Arceau vélo"},
 "geometry":
 {"type":"Point",
  "coordinates":[-0.57903299415285803,44.837087044101501,0]}}
,
{"type":"Feature",
 "properties":
 {"icon":"images/icones/parking_bicycle-2.png",
  "description":"Arceau vélo"},
 "geometry":
 {"type":"Point",
  "coordinates":[-0.60931288483129598,44.832128281831899,0]}}
,
{"type":"Feature",
 "properties":
 {"icon":"images/icones/parking_bicycle-2.png",
  "description":"Arceau vélo"},
 "geometry":
 {"type":"Point",
  "coordinates":[-0.60371015751955404,44.830653566975897,0]}}
,
{"type":"Feature",
 "properties":
 {"icon":"images/icones/parking_bicycle-2.png",
  "description":"Arceau vélo"},
 "geometry":
 {"type":"Point",
  "coordinates":[-0.60527277389706102,44.831035742223399,0]}}
,
{"type":"Feature",
 "properties":
 {"icon":"images/icones/parking_bicycle-2.png",
  "description":"Arceau vélo"},
 "geometry":
 {"type":"Point",
  "coordinates":[-0.58974164563185405,44.833466703526,0]}}
,
{"type":"Feature",
 "properties":
 {"icon":"images/icones/parking_bicycle-2.png",
  "description":"Arceau vélo"},
 "geometry":
 {"type":"Point",
  "coordinates":[-0.59630133851435496,44.831176780888804,0]}}
,
{"type":"Feature",
 "properties":
 {"icon":"images/icones/parking_bicycle-2.png",
  "description":"Arceau vélo"},
 "geometry":
 {"type":"Point",
  "coordinates":[-0.58664733694788795,44.834069820871697,0]}}
,
{"type":"Feature",
 "properties":
 {"icon":"images/icones/parking_bicycle-2.png",
  "description":"Arceau vélo"},
 "geometry":
 {"type":"Point",
  "coordinates":[-0.58734803444645101,44.833833698449098,0]}}
,
{"type":"Feature",
 "properties":
 {"icon":"images/icones/parking_bicycle-2.png",
  "description":"Arceau vélo"},
 "geometry":
 {"type":"Point",
  "coordinates":[-0.591456767638181,44.8289401283226,0]}}
,
{"type":"Feature",
 "properties":
 {"icon":"images/icones/parking_bicycle-2.png",
  "description":"Arceau vélo"},
 "geometry":
 {"type":"Point",
  "coordinates":[-0.584772846374226,44.832277908123501,0]}}
,
{"type":"Feature",
 "properties":
 {"icon":"images/icones/parking_bicycle-2.png",
  "description":"Arceau vélo"},
 "geometry":
 {"type":"Point",
  "coordinates":[-0.57921187870654101,44.835208188705998,0]}}
,
{"type":"Feature",
 "properties":
 {"icon":"images/icones/parking_bicycle-2.png",
  "description":"Arceau vélo"},
 "geometry":
 {"type":"Point",
  "coordinates":[-0.58019165443731502,44.834815420023197,0]}}
,
{"type":"Feature",
 "properties":
 {"icon":"images/icones/parking_bicycle-2.png",
  "description":"Arceau vélo"},
 "geometry":
 {"type":"Point",
  "coordinates":[-0.57277155632866705,44.836892595667898,0]}}
,
{"type":"Feature",
 "properties":
 {"icon":"images/icones/parking_bicycle-2.png",
  "description":"Arceau vélo"},
 "geometry":
 {"type":"Point",
  "coordinates":[-0.59972969484945204,44.829778842404401,0]}}
,
{"type":"Feature",
 "properties":
 {"icon":"images/icones/parking_bicycle-2.png",
  "description":"Arceau vélo"},
 "geometry":
 {"type":"Point",
  "coordinates":[-0.57215788774897702,44.834854516368303,0]}}
,
{"type":"Feature",
 "properties":
 {"icon":"images/icones/parking_bicycle-2.png",
  "description":"Arceau vélo"},
 "geometry":
 {"type":"Point",
  "coordinates":[-0.57057756221255096,44.834983118762203,0]}}
]}