{"type":"FeatureCollection","features":[
{"type":"Feature",
 "properties":
 {"icon":"images/icones/parking.png",
  "description":"ornano"},
 "geometry":
 {"type":"Point",
  "coordinates":[-0.59730439771409904,44.831972741530599,0]}}
,
{"type":"Feature",
 "properties":
 {"icon":"images/icones/parking.png",
  "description":"Tauzin"},
 "geometry":
 {"type":"Point",
  "coordinates":[-0.60191211592641203,44.8195276302054,0]}}
,
{"type":"Feature",
 "properties":
 {"icon":"images/icones/parking.png",
  "description":"daunes doumerc"},
 "geometry":
 {"type":"Point",
  "coordinates":[-0.60193147322944096,44.833725734695001,0]}}
,
{"type":"Feature",
 "properties":
 {"icon":"images/icones/parking.png",
  "description":"medoquine"},
 "geometry":
 {"type":"Point",
  "coordinates":[-0.59978812843139495,44.819163547459397,0]}}
]}