{"type":"FeatureCollection","features":[
{"type":"Feature",
 "properties":
 {"icon":"images/icones/parking.png",
  "description":"Hopital des Enfants"},
 "geometry":
 {"type":"Point",
  "coordinates":[-0.57773438775391805,44.8251731812584,0]}}
]}