{"type":"FeatureCollection","features":[
{"type":"Feature",
 "properties":
 {"icon":"images/icones/themepark.png",
  "description":"Place Francis de Pressensé"},
 "geometry":
 {"type":"Point",
  "coordinates":[-0.57530884656081704,44.832319088416497,0]}}
,
{"type":"Feature",
 "properties":
 {"icon":"images/icones/themepark.png",
  "description":"Parc des Sports Saint Michel"},
 "geometry":
 {"type":"Point",
  "coordinates":[-0.56030709501623099,44.833538600192803,0]}}
,
{"type":"Feature",
 "properties":
 {"icon":"images/icones/themepark.png",
  "description":"Place Renée Seilhan"},
 "geometry":
 {"type":"Point",
  "coordinates":[-0.56461226638512196,44.8154946799513,0]}}
,
{"type":"Feature",
 "properties":
 {"icon":"images/icones/themepark.png",
  "description":"Place Pierre Jacques Dormoy"},
 "geometry":
 {"type":"Point",
  "coordinates":[-0.564434590686411,44.826780025184597,0]}}
,
{"type":"Feature",
 "properties":
 {"icon":"images/icones/themepark.png",
  "description":"Jardin André Meunier"},
 "geometry":
 {"type":"Point",
  "coordinates":[-0.56271380084684297,44.829609838289997,0]}}
,
{"type":"Feature",
 "properties":
 {"icon":"images/icones/themepark.png",
  "description":"Place du Cardinal Donnet"},
 "geometry":
 {"type":"Point",
  "coordinates":[-0.56328728251267901,44.822261145479899,0]}}
,
{"type":"Feature",
 "properties":
 {"icon":"images/icones/themepark.png",
  "description":"Jardin Brascassat"},
 "geometry":
 {"type":"Point",
  "coordinates":[-0.55412097743344002,44.815506741710799,0]}}
,
{"type":"Feature",
 "properties":
 {"icon":"images/icones/themepark.png",
  "description":"Place du Maucaillou"},
 "geometry":
 {"type":"Point",
  "coordinates":[-0.56673458240258601,44.832443092350402,0]}}
,
{"type":"Feature",
 "properties":
 {"icon":"images/icones/themepark.png",
  "description":"Place Ferdinand Buisson"},
 "geometry":
 {"type":"Point",
  "coordinates":[-0.55105823426905298,44.8241092098202,0]}}
]}