{"type":"FeatureCollection","features":[
{"type":"Feature",
 "properties":
 {"icon":"images/icones/parking.png",
  "description":"Paludate"},
 "geometry":
 {"type":"Point",
  "coordinates":[-0.55364854689682996,44.829217613720601,0]}}
,
{"type":"Feature",
 "properties":
 {"icon":"images/icones/parking.png",
  "description":"pont st jean"},
 "geometry":
 {"type":"Point",
  "coordinates":[-0.55548844535375796,44.829914998080199,0]}}
,
{"type":"Feature",
 "properties":
 {"icon":"images/icones/parking.png",
  "description":"Leberthon"},
 "geometry":
 {"type":"Point",
  "coordinates":[-0.57550669756988304,44.828109493140197,0]}}
,
{"type":"Feature",
 "properties":
 {"icon":"images/icones/parking.png",
  "description":"Brienne"},
 "geometry":
 {"type":"Point",
  "coordinates":[-0.54536763719196402,44.824919485943099,0]}}
,
{"type":"Feature",
 "properties":
 {"icon":"images/icones/parking.png",
  "description":"Capucins"},
 "geometry":
 {"type":"Point",
  "coordinates":[-0.56774122296631901,44.830405393239701,0]}}
,
{"type":"Feature",
 "properties":
 {"icon":"images/icones/parking.png",
  "description":"argonne"},
 "geometry":
 {"type":"Point",
  "coordinates":[-0.57468021842468797,44.827903146306298,0]}}
]}