{"type":"FeatureCollection","features":[
{"type":"Feature",
 "properties":
 {"icon":"images/icones/toilets.png",
  "description":"Sanitaire automatique"},
 "geometry":
 {"type":"Point",
  "coordinates":[-0.62146035661779997,44.857087102510903,0]}}
,
{"type":"Feature",
 "properties":
 {"icon":"images/icones/toilets.png",
  "description":"TOILETTES MIXTES PMR"},
 "geometry":
 {"type":"Point",
  "coordinates":[-0.59928729802279201,44.8535319679415,0]}}
,
{"type":"Feature",
 "properties":
 {"icon":"images/icones/toilets.png",
  "description":"SANITAIRE AUTOMATIQUE"},
 "geometry":
 {"type":"Point",
  "coordinates":[-0.616170914392001,44.851606181913802,0]}}
]}