{"type":"FeatureCollection","features":[
{"type":"Feature",
 "properties":
 {"icon":"images/icones/parking.png",
  "description":"vandebrande"},
 "geometry":
 {"type":"Point",
  "coordinates":[-0.56925088147959402,44.855644895811899,0]}}
,
{"type":"Feature",
 "properties":
 {"icon":"images/icones/parking.png",
  "description":"masson"},
 "geometry":
 {"type":"Point",
  "coordinates":[-0.61485586875568898,44.854771012883297,0]}}
,
{"type":"Feature",
 "properties":
 {"icon":"images/icones/parking.png",
  "description":"pugs bma"},
 "geometry":
 {"type":"Point",
  "coordinates":[-0.55665309187766498,44.844278542726698,0]}}
,
{"type":"Feature",
 "properties":
 {"icon":"images/icones/parking.png",
  "description":"ornano"},
 "geometry":
 {"type":"Point",
  "coordinates":[-0.59730439771409904,44.831972741530599,0]}}
,
{"type":"Feature",
 "properties":
 {"icon":"images/icones/parking.png",
  "description":"faure"},
 "geometry":
 {"type":"Point",
  "coordinates":[-0.55051277249308905,44.839863894540002,0]}}
,
{"type":"Feature",
 "properties":
 {"icon":"images/icones/parking.png",
  "description":"pont st emilion bretelle"},
 "geometry":
 {"type":"Point",
  "coordinates":[-0.53944435337673202,44.853535116491301,0]}}
,
{"type":"Feature",
 "properties":
 {"icon":"images/icones/parking.png",
  "description":"Paludate"},
 "geometry":
 {"type":"Point",
  "coordinates":[-0.55364854689682996,44.829217613720601,0]}}
,
{"type":"Feature",
 "properties":
 {"icon":"images/icones/parking.png",
  "description":"poyenne"},
 "geometry":
 {"type":"Point",
  "coordinates":[-0.56644932576398999,44.856692691188798,0]}}
,
{"type":"Feature",
 "properties":
 {"icon":"images/icones/parking.png",
  "description":"cc europe"},
 "geometry":
 {"type":"Point",
  "coordinates":[-0.58262377339446603,44.859247143685302,0]}}
,
{"type":"Feature",
 "properties":
 {"icon":"images/icones/parking.png",
  "description":"pont st jean"},
 "geometry":
 {"type":"Point",
  "coordinates":[-0.55548844535375796,44.829914998080199,0]}}
,
{"type":"Feature",
 "properties":
 {"icon":"images/icones/parking.png",
  "description":"rff thiers"},
 "geometry":
 {"type":"Point",
  "coordinates":[-0.55279520486059297,44.845190302814999,0]}}
,
{"type":"Feature",
 "properties":
 {"icon":"images/icones/parking.png",
  "description":"Galin"},
 "geometry":
 {"type":"Point",
  "coordinates":[-0.54435316457713201,44.848913193371502,0]}}
,
{"type":"Feature",
 "properties":
 {"icon":"images/icones/parking.png",
  "description":"voie sur berge"},
 "geometry":
 {"type":"Point",
  "coordinates":[-0.56094226713075701,44.840221170097998,0]}}
,
{"type":"Feature",
 "properties":
 {"icon":"images/icones/parking.png",
  "description":"Tauzin"},
 "geometry":
 {"type":"Point",
  "coordinates":[-0.60191211592641203,44.8195276302054,0]}}
,
{"type":"Feature",
 "properties":
 {"icon":"images/icones/parking.png",
  "description":"gymnase chartrons"},
 "geometry":
 {"type":"Point",
  "coordinates":[-0.566667946114359,44.856143109903698,0]}}
,
{"type":"Feature",
 "properties":
 {"icon":"images/icones/parking.png",
  "description":"Leberthon"},
 "geometry":
 {"type":"Point",
  "coordinates":[-0.57550669756988304,44.828109493140197,0]}}
,
{"type":"Feature",
 "properties":
 {"icon":"images/icones/parking.png",
  "description":"daunes doumerc"},
 "geometry":
 {"type":"Point",
  "coordinates":[-0.60193147322944096,44.833725734695001,0]}}
,
{"type":"Feature",
 "properties":
 {"icon":"images/icones/parking.png",
  "description":"Notre Dame"},
 "geometry":
 {"type":"Point",
  "coordinates":[-0.57179623568147997,44.851474421825202,0]}}
,
{"type":"Feature",
 "properties":
 {"icon":"images/icones/parking.png",
  "description":"Euromaster"},
 "geometry":
 {"type":"Point",
  "coordinates":[-0.54781504437967898,44.848486001119703,0]}}
,
{"type":"Feature",
 "properties":
 {"icon":"images/icones/parking.png",
  "description":"Marc Nouaux"},
 "geometry":
 {"type":"Point",
  "coordinates":[-0.594659546931392,44.846387301735199,0]}}
,
{"type":"Feature",
 "properties":
 {"icon":"images/icones/parking.png",
  "description":"barreyre"},
 "geometry":
 {"type":"Point",
  "coordinates":[-0.56853735966782903,44.855246143647697,0]}}
,
{"type":"Feature",
 "properties":
 {"icon":"images/icones/parking.png",
  "description":"grand lebrun"},
 "geometry":
 {"type":"Point",
  "coordinates":[-0.60319709334584704,44.848476117475499,0]}}
,
{"type":"Feature",
 "properties":
 {"icon":"images/icones/parking.png",
  "description":"nicolas beaujon"},
 "geometry":
 {"type":"Point",
  "coordinates":[-0.59266197241469898,44.853820285148203,0]}}
,
{"type":"Feature",
 "properties":
 {"icon":"images/icones/parking.png",
  "description":"counord"},
 "geometry":
 {"type":"Point",
  "coordinates":[-0.57510045478921301,44.856175836109202,0]}}
,
{"type":"Feature",
 "properties":
 {"icon":"images/icones/parking.png",
  "description":"Bonnefin"},
 "geometry":
 {"type":"Point",
  "coordinates":[-0.55094552107026096,44.844865284685902,0]}}
,
{"type":"Feature",
 "properties":
 {"icon":"images/icones/parking.png",
  "description":"medoquine"},
 "geometry":
 {"type":"Point",
  "coordinates":[-0.59978812843139495,44.819163547459397,0]}}
,
{"type":"Feature",
 "properties":
 {"icon":"images/icones/parking.png",
  "description":"Galin"},
 "geometry":
 {"type":"Point",
  "coordinates":[-0.54476498259828698,44.849177000143399,0]}}
,
{"type":"Feature",
 "properties":
 {"icon":"images/icones/parking.png",
  "description":"Brienne"},
 "geometry":
 {"type":"Point",
  "coordinates":[-0.54536763719196402,44.824919485943099,0]}}
,
{"type":"Feature",
 "properties":
 {"icon":"images/icones/parking.png",
  "description":"voie sur berge"},
 "geometry":
 {"type":"Point",
  "coordinates":[-0.55899318643890095,44.838685212126599,0]}}
,
{"type":"Feature",
 "properties":
 {"icon":"images/icones/parking.png",
  "description":"achard"},
 "geometry":
 {"type":"Point",
  "coordinates":[-0.54825382533932199,44.866406053627799,0]}}
,
{"type":"Feature",
 "properties":
 {"icon":"images/icones/parking.png",
  "description":"mayaudon"},
 "geometry":
 {"type":"Point",
  "coordinates":[-0.54857399231117898,44.849009300463301,0]}}
,
{"type":"Feature",
 "properties":
 {"icon":"images/icones/parking.png",
  "description":"charles de gaulle crama"},
 "geometry":
 {"type":"Point",
  "coordinates":[-0.59837271110396295,44.848335347614501,0]}}
,
{"type":"Feature",
 "properties":
 {"icon":"images/icones/parking.png",
  "description":"Hopital des Enfants"},
 "geometry":
 {"type":"Point",
  "coordinates":[-0.57773438775391805,44.8251731812584,0]}}
,
{"type":"Feature",
 "properties":
 {"icon":"images/icones/parking.png",
  "description":"Grands Hommes"},
 "geometry":
 {"type":"Point",
  "coordinates":[-0.57757524036358099,44.843112526532202,0]}}
,
{"type":"Feature",
 "properties":
 {"icon":"images/icones/parking.png",
  "description":"ex salle de la rotonde/hortense"},
 "geometry":
 {"type":"Point",
  "coordinates":[-0.55604325427054302,44.845508358510401,0]}}
,
{"type":"Feature",
 "properties":
 {"icon":"images/icones/parking.png",
  "description":"pont st emilion dessous"},
 "geometry":
 {"type":"Point",
  "coordinates":[-0.53876056509757198,44.853552414132601,0]}}
,
{"type":"Feature",
 "properties":
 {"icon":"images/icones/parking.png",
  "description":"Auditorium"},
 "geometry":
 {"type":"Point",
  "coordinates":[-0.57990141293834796,44.842323683112198,0]}}
,
{"type":"Feature",
 "properties":
 {"icon":"images/icones/parking.png",
  "description":"Capucins"},
 "geometry":
 {"type":"Point",
  "coordinates":[-0.56774122296631901,44.830405393239701,0]}}
,
{"type":"Feature",
 "properties":
 {"icon":"images/icones/parking.png",
  "description":"Victor Hugo"},
 "geometry":
 {"type":"Point",
  "coordinates":[-0.57237252701738295,44.835261697199101,0]}}
,
{"type":"Feature",
 "properties":
 {"icon":"images/icones/parking.png",
  "description":"Alsace-Lorraine"},
 "geometry":
 {"type":"Point",
  "coordinates":[-0.568466956070667,44.8376611155064,0]}}
,
{"type":"Feature",
 "properties":
 {"icon":"images/icones/parking.png",
  "description":"Allées de Chartres"},
 "geometry":
 {"type":"Point",
  "coordinates":[-0.57210050380241495,44.847047338459099,0]}}
,
{"type":"Feature",
 "properties":
 {"icon":"images/icones/parking.png",
  "description":"argonne"},
 "geometry":
 {"type":"Point",
  "coordinates":[-0.57468021842468797,44.827903146306298,0]}}
,
{"type":"Feature",
 "properties":
 {"icon":"images/icones/parking.png",
  "description":"abadie"},
 "geometry":
 {"type":"Point",
  "coordinates":[-0.55550826607442805,44.8438362639098,0]}}
,
{"type":"Feature",
 "properties":
 {"icon":"images/icones/parking.png",
  "description":"pont st emilion sud"},
 "geometry":
 {"type":"Point",
  "coordinates":[-0.53871945501055696,44.852817390171097,0]}}
]}