{"type":"FeatureCollection","features":[
{"type":"Feature",
 "properties":
 {"icon":"images/icones/toilets.png",
  "description":"TOILETTES MIXTES PMR"},
 "geometry":
 {"type":"Point",
  "coordinates":[-0.57446731215166402,44.8438837199486,0]}}
,
{"type":"Feature",
 "properties":
 {"icon":"images/icones/toilets.png",
  "description":"Urinoir Pierre Trébod"},
 "geometry":
 {"type":"Point",
  "coordinates":[-0.58457718330056596,44.861167459214201,0]}}
,
{"type":"Feature",
 "properties":
 {"icon":"images/icones/toilets.png",
  "description":"TOILETTES MIXTES PMR"},
 "geometry":
 {"type":"Point",
  "coordinates":[-0.57213874016928901,44.842371692267797,0]}}
,
{"type":"Feature",
 "properties":
 {"icon":"images/icones/toilets.png",
  "description":"Urinoir Alfred Smith"},
 "geometry":
 {"type":"Point",
  "coordinates":[-0.61288066516282502,44.8246288668863,0]}}
,
{"type":"Feature",
 "properties":
 {"icon":"images/icones/toilets.png",
  "description":"Urinoir Benauge"},
 "geometry":
 {"type":"Point",
  "coordinates":[-0.54677071004675704,44.8415949968253,0]}}
,
{"type":"Feature",
 "properties":
 {"icon":"images/icones/toilets.png",
  "description":"Urinoir Buscaillet"},
 "geometry":
 {"type":"Point",
  "coordinates":[-0.54966881758028496,44.870597726800597,0]}}
,
{"type":"Feature",
 "properties":
 {"icon":"images/icones/toilets.png",
  "description":"Urinoir République"},
 "geometry":
 {"type":"Point",
  "coordinates":[-0.57857966786102599,44.834935491640699,0]}}
,
{"type":"Feature",
 "properties":
 {"icon":"images/icones/toilets.png",
  "description":"CHALET DE NECESSITE AVEC DOUCHES"},
 "geometry":
 {"type":"Point",
  "coordinates":[-0.572441821689467,44.847136163724002,0]}}
,
{"type":"Feature",
 "properties":
 {"icon":"images/icones/toilets.png",
  "description":"Urinoir Philippe Lebon"},
 "geometry":
 {"type":"Point",
  "coordinates":[-0.54821129970586602,44.876991090380002,0]}}
,
{"type":"Feature",
 "properties":
 {"icon":"images/icones/toilets.png",
  "description":"Urinoir Lateulade"},
 "geometry":
 {"type":"Point",
  "coordinates":[-0.58608783462006897,44.839194331074097,0]}}
,
{"type":"Feature",
 "properties":
 {"icon":"images/icones/toilets.png",
  "description":"Urinoir Avenue Thiers"},
 "geometry":
 {"type":"Point",
  "coordinates":[-0.54574753189917302,44.849346248441002,0]}}
,
{"type":"Feature",
 "properties":
 {"icon":"images/icones/toilets.png",
  "description":"Urinoir Albert Brandenburg"},
 "geometry":
 {"type":"Point",
  "coordinates":[-0.54438084445224,44.875069564970097,0]}}
,
{"type":"Feature",
 "properties":
 {"icon":"images/icones/toilets.png",
  "description":"Urinoir Boulevard Albert 1er"},
 "geometry":
 {"type":"Point",
  "coordinates":[-0.56348442807362598,44.813389192577702,0]}}
,
{"type":"Feature",
 "properties":
 {"icon":"images/icones/toilets.png",
  "description":"Urinoir Paul Broca"},
 "geometry":
 {"type":"Point",
  "coordinates":[-0.57189456974463104,44.831430107281598,0]}}
,
{"type":"Feature",
 "properties":
 {"icon":"images/icones/toilets.png",
  "description":"Urinoir Dormoy"},
 "geometry":
 {"type":"Point",
  "coordinates":[-0.56432147067006599,44.826712901155403,0]}}
,
{"type":"Feature",
 "properties":
 {"icon":"images/icones/toilets.png",
  "description":"Urinoir Simiot"},
 "geometry":
 {"type":"Point",
  "coordinates":[-0.57738397208009196,44.822989697855199,0]}}
,
{"type":"Feature",
 "properties":
 {"icon":"images/icones/toilets.png",
  "description":"Urinoir Calixte Camelle"},
 "geometry":
 {"type":"Point",
  "coordinates":[-0.55025996516131703,44.8430567057489,0]}}
,
{"type":"Feature",
 "properties":
 {"icon":"images/icones/toilets.png",
  "description":"Urinoir Edouard Laroque"},
 "geometry":
 {"type":"Point",
  "coordinates":[-0.60144846033873101,44.831556377109997,0]}}
,
{"type":"Feature",
 "properties":
 {"icon":"images/icones/toilets.png",
  "description":"Urinoir André Meunier"},
 "geometry":
 {"type":"Point",
  "coordinates":[-0.56291732247959703,44.829530512184,0]}}
,
{"type":"Feature",
 "properties":
 {"icon":"images/icones/toilets.png",
  "description":"Urinoir Arlac"},
 "geometry":
 {"type":"Point",
  "coordinates":[-0.58836359818939798,44.830789557383,0]}}
,
{"type":"Feature",
 "properties":
 {"icon":"images/icones/toilets.png",
  "description":"Urinoir Frantz Schrader"},
 "geometry":
 {"type":"Point",
  "coordinates":[-0.60780628475028697,44.835185610133003,0]}}
,
{"type":"Feature",
 "properties":
 {"icon":"images/icones/toilets.png",
  "description":"Urinoir Ferdinand Palau"},
 "geometry":
 {"type":"Point",
  "coordinates":[-0.54519073408854501,44.842922003791401,0]}}
,
{"type":"Feature",
 "properties":
 {"icon":"images/icones/toilets.png",
  "description":"TOILETTES MIXTES PMR"},
 "geometry":
 {"type":"Point",
  "coordinates":[-0.58256823788387802,44.838692825083399,0]}}
,
{"type":"Feature",
 "properties":
 {"icon":"images/icones/toilets.png",
  "description":"TOILETTES MIXTES PMR"},
 "geometry":
 {"type":"Point",
  "coordinates":[-0.56727848446676998,44.838791051714502,0]}}
,
{"type":"Feature",
 "properties":
 {"icon":"images/icones/toilets.png",
  "description":"Sanitaire automatique"},
 "geometry":
 {"type":"Point",
  "coordinates":[-0.62146035661779997,44.857087102510903,0]}}
,
{"type":"Feature",
 "properties":
 {"icon":"images/icones/toilets.png",
  "description":"TOILETTES MIXTES PMR"},
 "geometry":
 {"type":"Point",
  "coordinates":[-0.59928729802279201,44.8535319679415,0]}}
,
{"type":"Feature",
 "properties":
 {"icon":"images/icones/toilets.png",
  "description":"TOILETTES MIXTES PMR"},
 "geometry":
 {"type":"Point",
  "coordinates":[-0.56594780098854003,44.904904108173,0]}}
,
{"type":"Feature",
 "properties":
 {"icon":"images/icones/toilets.png",
  "description":"TOILETTES MIXTES PMR"},
 "geometry":
 {"type":"Point",
  "coordinates":[-0.58229085748665699,44.860591714797799,0]}}
,
{"type":"Feature",
 "properties":
 {"icon":"images/icones/toilets.png",
  "description":"SANITAIRE AUTOMATIQUE"},
 "geometry":
 {"type":"Point",
  "coordinates":[-0.616170914392001,44.851606181913802,0]}}
,
{"type":"Feature",
 "properties":
 {"icon":"images/icones/toilets.png",
  "description":"TOILETTES MIXTES PMR"},
 "geometry":
 {"type":"Point",
  "coordinates":[-0.61095142406631597,44.833140801569499,0]}}
,
{"type":"Feature",
 "properties":
 {"icon":"images/icones/toilets.png",
  "description":"TOILETTES MIXTES PMR"},
 "geometry":
 {"type":"Point",
  "coordinates":[-0.60333974270816004,44.829511797433803,0]}}
,
{"type":"Feature",
 "properties":
 {"icon":"images/icones/toilets.png",
  "description":"TOILETTES MIXTES PMR"},
 "geometry":
 {"type":"Point",
  "coordinates":[-0.59432815102575798,44.8330130187272,0]}}
,
{"type":"Feature",
 "properties":
 {"icon":"images/icones/toilets.png",
  "description":"TOILETTES MIXTES PMR"},
 "geometry":
 {"type":"Point",
  "coordinates":[-0.57331478976635297,44.844646322150702,0]}}
,
{"type":"Feature",
 "properties":
 {"icon":"images/icones/toilets.png",
  "description":"TOILETTES MIXTES PMR"},
 "geometry":
 {"type":"Point",
  "coordinates":[-0.572454186136095,44.835249494812402,0]}}
,
{"type":"Feature",
 "properties":
 {"icon":"images/icones/toilets.png",
  "description":"TOILETTES MIXTES PMR"},
 "geometry":
 {"type":"Point",
  "coordinates":[-0.57562356883446997,44.841142009567399,0]}}
,
{"type":"Feature",
 "properties":
 {"icon":"images/icones/toilets.png",
  "description":"TOILETTES MIXTES PMR"},
 "geometry":
 {"type":"Point",
  "coordinates":[-0.56701740658882205,44.852661830367602,0]}}
,
{"type":"Feature",
 "properties":
 {"icon":"images/icones/toilets.png",
  "description":"TOILETTES MIXTES PMR"},
 "geometry":
 {"type":"Point",
  "coordinates":[-0.56985394627798502,44.849049777370702,0]}}
,
{"type":"Feature",
 "properties":
 {"icon":"images/icones/toilets.png",
  "description":"TOILETTES MIXTES PMR"},
 "geometry":
 {"type":"Point",
  "coordinates":[-0.57404525869356804,44.851974299623201,0]}}
,
{"type":"Feature",
 "properties":
 {"icon":"images/icones/toilets.png",
  "description":"TOILETTES MIXTES PMR"},
 "geometry":
 {"type":"Point",
  "coordinates":[-0.57033289016277999,44.846846166257002,0]}}
,
{"type":"Feature",
 "properties":
 {"icon":"images/icones/toilets.png",
  "description":"TOILETTES MIXTES PMR"},
 "geometry":
 {"type":"Point",
  "coordinates":[-0.57496162573893195,44.846901020131199,0]}}
,
{"type":"Feature",
 "properties":
 {"icon":"images/icones/toilets.png",
  "description":"TOILETTES MIXTES PMR"},
 "geometry":
 {"type":"Point",
  "coordinates":[-0.55118585241093998,44.827701903259701,0]}}
,
{"type":"Feature",
 "properties":
 {"icon":"images/icones/toilets.png",
  "description":"TOILETTES MIXTES PMR"},
 "geometry":
 {"type":"Point",
  "coordinates":[-0.57710610267672902,44.8332744380251,0]}}
,
{"type":"Feature",
 "properties":
 {"icon":"images/icones/toilets.png",
  "description":"TOILETTES MIXTES PMR"},
 "geometry":
 {"type":"Point",
  "coordinates":[-0.580138546512449,44.8348205141139,0]}}
,
{"type":"Feature",
 "properties":
 {"icon":"images/icones/toilets.png",
  "description":"TOILETTES MIXTES PMR"},
 "geometry":
 {"type":"Point",
  "coordinates":[-0.57313161684366298,44.8312773849294,0]}}
,
{"type":"Feature",
 "properties":
 {"icon":"images/icones/toilets.png",
  "description":"TOILETTES MIXTES PMR"},
 "geometry":
 {"type":"Point",
  "coordinates":[-0.56681018677234296,44.8305549317135,0]}}
,
{"type":"Feature",
 "properties":
 {"icon":"images/icones/toilets.png",
  "description":"TOILETTES MIXTES PMR"},
 "geometry":
 {"type":"Point",
  "coordinates":[-0.56232965394905898,44.829687580905599,0]}}
,
{"type":"Feature",
 "properties":
 {"icon":"images/icones/toilets.png",
  "description":"TOILETTES MIXTES PMR"},
 "geometry":
 {"type":"Point",
  "coordinates":[-0.55056556966404302,44.827411659821301,0]}}
,
{"type":"Feature",
 "properties":
 {"icon":"images/icones/toilets.png",
  "description":"TOILETTES MIXTES PMR"},
 "geometry":
 {"type":"Point",
  "coordinates":[-0.55461510259123203,44.824339785015503,0]}}
,
{"type":"Feature",
 "properties":
 {"icon":"images/icones/toilets.png",
  "description":"TOILETTES MIXTES PMR"},
 "geometry":
 {"type":"Point",
  "coordinates":[-0.56316053249679299,44.8223735462417,0]}}
,
{"type":"Feature",
 "properties":
 {"icon":"images/icones/toilets.png",
  "description":"TOILETTES MIXTES PMR"},
 "geometry":
 {"type":"Point",
  "coordinates":[-0.572011114618454,44.820301760424201,0]}}
,
{"type":"Feature",
 "properties":
 {"icon":"images/icones/toilets.png",
  "description":"TOILETTES MIXTES PMR"},
 "geometry":
 {"type":"Point",
  "coordinates":[-0.57670720912651896,44.826504623969598,0]}}
,
{"type":"Feature",
 "properties":
 {"icon":"images/icones/toilets.png",
  "description":"TOILETTES MIXTES PMR"},
 "geometry":
 {"type":"Point",
  "coordinates":[-0.57536414897958199,44.832182913835602,0]}}
,
{"type":"Feature",
 "properties":
 {"icon":"images/icones/toilets.png",
  "description":"TOILETTES MIXTES PMR"},
 "geometry":
 {"type":"Point",
  "coordinates":[-0.56293034048621304,44.834891698211599,0]}}
,
{"type":"Feature",
 "properties":
 {"icon":"images/icones/toilets.png",
  "description":"TOILETTES MIXTES PMR"},
 "geometry":
 {"type":"Point",
  "coordinates":[-0.56500988641864103,44.834399583060097,0]}}
,
{"type":"Feature",
 "properties":
 {"icon":"images/icones/toilets.png",
  "description":"TOILETTES MIXTES PMR"},
 "geometry":
 {"type":"Point",
  "coordinates":[-0.56116664142018802,44.8336657953068,0]}}
,
{"type":"Feature",
 "properties":
 {"icon":"images/icones/toilets.png",
  "description":"TOILETTES MIXTES PMR"},
 "geometry":
 {"type":"Point",
  "coordinates":[-0.55853350930440304,44.832026662682303,0]}}
,
{"type":"Feature",
 "properties":
 {"icon":"images/icones/toilets.png",
  "description":"TOILETTES MIXTES PMR"},
 "geometry":
 {"type":"Point",
  "coordinates":[-0.55131530546696506,44.824164765561498,0]}}
,
{"type":"Feature",
 "properties":
 {"icon":"images/icones/toilets.png",
  "description":"TOILETTES MIXTES PMR"},
 "geometry":
 {"type":"Point",
  "coordinates":[-0.55766046302360395,44.826141760617801,0]}}
,
{"type":"Feature",
 "properties":
 {"icon":"images/icones/toilets.png",
  "description":"TOILETTES MIXTES PMR"},
 "geometry":
 {"type":"Point",
  "coordinates":[-0.55962940867625699,44.841048100570902,0]}}
,
{"type":"Feature",
 "properties":
 {"icon":"images/icones/toilets.png",
  "description":"TOILETTES MIXTES PMR"},
 "geometry":
 {"type":"Point",
  "coordinates":[-0.56000105892610896,44.839825802910603,0]}}
,
{"type":"Feature",
 "properties":
 {"icon":"images/icones/toilets.png",
  "description":"TOILETTES MIXTES PMR"},
 "geometry":
 {"type":"Point",
  "coordinates":[-0.54989805093163902,44.842811458471701,0]}}
,
{"type":"Feature",
 "properties":
 {"icon":"images/icones/toilets.png",
  "description":"TOILETTES MIXTES PMR"},
 "geometry":
 {"type":"Point",
  "coordinates":[-0.56507286926866496,44.845339445957002,0]}}
,
{"type":"Feature",
 "properties":
 {"icon":"images/icones/toilets.png",
  "description":"TOILETTES MIXTES PMR"},
 "geometry":
 {"type":"Point",
  "coordinates":[-0.56130163984137005,44.850048163492502,0]}}
,
{"type":"Feature",
 "properties":
 {"icon":"images/icones/toilets.png",
  "description":"TOILETTES MIXTES PMR"},
 "geometry":
 {"type":"Point",
  "coordinates":[-0.57825847768536298,44.847784423555098,0]}}
,
{"type":"Feature",
 "properties":
 {"icon":"images/icones/toilets.png",
  "description":"TOILETTES MIXTES PMR"},
 "geometry":
 {"type":"Point",
  "coordinates":[-0.58099881063037595,44.850002406000598,0]}}
,
{"type":"Feature",
 "properties":
 {"icon":"images/icones/toilets.png",
  "description":"TOILETTES MIXTES PMR"},
 "geometry":
 {"type":"Point",
  "coordinates":[-0.58532696735243095,44.843246818511801,0]}}
,
{"type":"Feature",
 "properties":
 {"icon":"images/icones/toilets.png",
  "description":"TOILETTES MIXTES PMR"},
 "geometry":
 {"type":"Point",
  "coordinates":[-0.59923833480837396,44.824272102141599,0]}}
]}