THEME;STHEME;NOM;NOMMAJ;IDENT;ADRESSE;INFOCOMP;LIEN;X_LONG;Y_LAT
sports loisirs;Terrains et salles de sport;Palais des sports;PALAIS DES SPORTS;1058;place de la Ferme de Richemont, 33000 Bordeaux;;;-0,572510250919828;44,8356247139743
sports loisirs;Equipements sportifs et ludiques;Vélodrome du Lac;VELODROME DU LAC;663;crs Jules Ladoumegue, 33300 Bordeaux;Tel : 05 56 43 16 05;http:// www.axelvega.fr;-0,565228842375302;44,8991483516204
sports loisirs;Nautisme;Port Bastide;PORT BASTIDE;664;quai des Queyries, 33100 Bordeaux;;;-0,564212890487399;44,8495509435277
sports loisirs;Terrains et salles de sport;Stade Suzon;STADE SUZON;665;che Suzon, 33400 Bordeaux;;;-0,579207833807522;44,8126432609108
sports loisirs;Terrains et salles de sport;Stade Sainte Germaine;STADE SAINTE GERMAINE;666;rue Ferdinand de Lesseps, 33110 Bordeaux;;;-0,617733049677768;44,8705736302139
sports loisirs;Terrains et salles de sport;Salle d'escrime Guy Laupies;SALLE D  ESCRIME GUY LAUPIES;667;107 ave République, 33200 Bordeaux;;;-0,604995731906728;44,8402006751453
sports loisirs;Nautisme;Ponton Benauge;PONTON BENAUGE;669;1 quai Deschamps, 33100 Bordeaux;;;-0,558825386658389;44,8381332601763
sports loisirs;Terrains et salles de sport;Gymnase Barbey;GYMNASE BARBEY;670;14 crs Barbey, 33800 Bordeaux;;;-0,562885494412952;44,82711702435
sports loisirs;Terrains et salles de sport;Stade Charles Martin;STADE CHARLES MARTIN;671;rue Charles Martin, 33300 Bordeaux;;;-0,550513724698587;44,8738632107121
sports loisirs;Terrains et salles de sport;Stade Grand Parc III;STADE GRAND PARC III;672;rue Pierre Trébod, 33300 Bordeaux;;;-0,58279547512431;44,8574474888051
sports loisirs;Piscines et baignades;Plage du Lac;PLAGE DU LAC;673;bd Jacques Chaban Delmas, 33300 Bordeaux;;;-0,578050826297592;44,8782685179843
sports loisirs;Terrains et salles de sport;Gymnase Montaigne;GYMNASE MONTAIGNE;674;rue du Mirail, 33000 Bordeaux;;;-0,571179150881065;44,8330948445545
sports loisirs;Terrains et salles de sport;Gymnase Jean Dauguet;GYMNASE JEAN DAUGUET;676;rue de la Benauge, 33100 Bordeaux;;;-0,545137758456445;44,8426171726457
sports loisirs;Terrains et salles de sport;Stade Maître Jean;STADE MAITRE JEAN;677;rue de Maître Jean, 33000 Bordeaux;;;-0,613115755433654;44,829313230855
sports loisirs;Piscines et baignades;Piscine Stéhélin;PISCINE STEHELIN;678;217 ave Maréchal De Lattre de Tassigny, 33200 Bordeaux;;;-0,622237276417572;44,8573018862327
sports loisirs;Terrains et salles de sport;Gymnase Malleret;GYMNASE MALLERET;679;rue Malleret, 33000 Bordeaux;;;-0,585472517074729;44,8489257610508
sports loisirs;Terrains et salles de sport;Stade Tregey;STADE TREGEY;681;rue Trégey, 33100 Bordeaux;;;-0,547146995342712;44,8389259855432
sports loisirs;Terrains et salles de sport;Stade Alfred Daney;STADE ALFRED DANEY;683;bd Alfred daney, 33300 Bordeaux;;;-0,570636708789208;44,8667501731575
sports loisirs;Equipements sportifs et ludiques;City Stade Les Aubiers;CITY STADE LES AUBIERS;684;4200 rue du Petit Miot, 33300 Bordeaux;;;-0,569212677975406;44,8732600864609
sports loisirs;Terrains et salles de sport;Gymnase des Chartrons;GYMNASE DES CHARTRONS;686;rue Andre Darbon, 33300 Bordeaux;;;-0,567145870225419;44,8556003562104
sports loisirs;Terrains et salles de sport;Stade Bel Air;STADE BEL AIR;687;ave Bel Air, 33200 Bordeaux;;;-0,606505910855077;44,8420442167075
sports loisirs;Terrains et salles de sport;Stade Chaban Delmas;STADE CHABAN DELMAS;688;pce Johnston, 33000 Bordeaux;;;-0,598243019156834;44,8292065328448
sports loisirs;Piscines et baignades;Piscine Judaïque;PISCINE JUDAIQUE;690;166 rue Judaïque, 33000 Bordeaux;;;-0,590893501625303;44,8401353131646
sports loisirs;Terrains et salles de sport;Stadium;STADIUM;691;crs Jules ladoumegue, 33300 Bordeaux;;;-0,56582173464136;44,8989568250583
sports loisirs;Nautisme;Centre de Voile;CENTRE DE VOILE;692;bd JACQUES CHABAN DELMAS, 33520 Bordeaux;;;-0,581253917421449;44,8803406744634
sports loisirs;Terrains et salles de sport;Stade Galin;STADE GALIN;695;rue Galin, 33100 Bordeaux;;;-0,540232486079121;44,8477824492504
sports loisirs;Equipements sportifs et ludiques;Piste d'accélération moto;PISTE D'ACCELERATION MOTO;696;ave de Labarde, 33300 Bordeaux;;;-0,552792502324479;44,9023177068685
sports loisirs;Terrains et salles de sport;City stade Reignier;CITY STADE REIGNIER;697;rue Reignier, 33100 Bordeaux;;;-0,561101175742673;44,8475489221135
sports loisirs;Terrains et salles de sport;Salle Envol d'Aquitaine;SALLE ENVOL D'AQUITAINE;698;4 bis rue des Douves, 33800 Bordeaux;;;-0,56615132354965;44,8307041436105
sports loisirs;Equipements sportifs et ludiques;City Stade Carle Vernet;CITY STADE CARLE VERNET;699;rue Professeur Princeteau, 33800 Bordeaux;;;-0,549478174899475;44,8182149746207
sports loisirs;Equipements sportifs et ludiques;Golf de Bordeaux-Lac;GOLF DE BORDEAUX-LAC;700;ave Pernon, 33300 Bordeaux;Tel : 05 56 50 92 72;;-0,561585573031;44,9092252844276
sports loisirs;Terrains et salles de sport;Centre international de football;CENTRE INTERNATIONAL DE FOOTBALL;702;rue JOLIOT CURIE, 33185 Bordeaux;;;-0,66903244693494;44,8775239598023
sports loisirs;Terrains et salles de sport;Gymnase de La flèche;GYMNASE DE LA FLECHE;703;21 rue Ulysse Despaux, 33000 Bordeaux;;;-0,567184023902624;44,8339166804827
sports loisirs;Piscines et baignades;Piscine Georges Tissot;PISCINE GEORGES TISSOT;704;46 rue Léon Blum, 33300 Bordeaux;;;-0,546753957924305;44,8790263534812
sports loisirs;Equipements sportifs et ludiques;Camping de Bordeaux-Lac;CAMPING DE BORDEAUX LAC;707;bd JACQUES CHABAN DELMAS, 33520 Bordeaux;;;-0,58039908665732;44,8954535048303
sports loisirs;Terrains et salles de sport;Gymnase des Peupliers;GYMNASE DES PEUPLIERS;708;45 all des Peupliers, 33000 Bordeaux;;;-0,611102109833577;44,8316657575248
sports loisirs;Terrains et salles de sport;Stade Stéhélin;STADE STEHELIN;709;ave Maréchal de Lattre de Tassigny, 33200 Bordeaux;Deux entrées : rue Stéhélin et avenue maréchal de Lattre de Tassigny;;-0,622110007648959;44,8563045479113
sports loisirs;Equipements sportifs et ludiques;Terrain de bi-cross de Bordeaux-Lac;TERRAIN DE BI-CROSS DE BORDEAUX-LAC;710;rue du Petit Miot, 33300 Bordeaux;;;-0,568584069959395;44,8720026547735
sports loisirs;Terrains et salles de sport;Stade Municipal Chaban Delmas (annexe);STADE MUNICIPALE CHABAN DELMAS (ANNEXE);711;pce Johnston, 33000 Bordeaux;;;-0,59858197664607;44,8275272092912
sports loisirs;Terrains et salles de sport;Gymnase Coqs Rouges;GYMNASE COQS ROUGES;712;14 pce Sainte Eulalie, 33000 Bordeaux;;;-0,577565875882837;44,8337635587072
sports loisirs;Nautisme;Centre nautique de Bordeaux lac;CENTRE NAUTIQUE DE BORDEAUX LAC;713;bd JACQUES CHABAN DELMAS, 33520 Bordeaux;;;-0,586569743182503;44,889904238183
sports loisirs;Equipements sportifs et ludiques;Bowling Mériadeck;BOWLING MERIADECK;715;terr du Général Koening, 33000 Bordeaux;Tel : 05 56 93 05 85;;-0,588137770509466;44,8371615008049
sports loisirs;Terrains et salles de sport;Gymnase Nelson Paillou;GYMNASE NELSON PAILLOU;716;53 rue Pauline Kergomard, 33800 Bordeaux;;;-0,573530855404772;44,8228526329869
sports loisirs;Equipements sportifs et ludiques;City Stade Port de la Lune;CITY STADE PORT DE LA LUNE;717;rue Cardinal Feltin, 33300 Bordeaux;;;-0,54115170049989;44,8789316912187
sports loisirs;Piscines et baignades;Piscine du Grand Parc;PISCINE DU GRAND PARC;718;60 crs de Luze, 33300 Bordeaux;;;-0,579930826007511;44,8573587480223
sports loisirs;Terrains et salles de sport;City Stade Parc des Angéliques;CITY STADE PARC DES ANGELIQUES;719;,  Bordeaux;;;-0,564183798914197;44,8484531333788
sports loisirs;Equipements sportifs et ludiques;City Stade Belcier;CITY STADE BELCIER;720;rue Eugène Delacroix, 33800 Bordeaux;;;-0,55142723074177;44,8223353720552
sports loisirs;Terrains et salles de sport;Gymnase Wustenberg;GYMNASE WUSTENBERG;721;15 rue Wustenberg, 33000 Bordeaux;;;-0,590982911237879;44,8472376374177
sports loisirs;Equipements sportifs et ludiques;Villa Primrose;VILLA PRIMROSE;722;81 rue Jules Ferry, 33200 Bordeaux;;;-0,604741720554191;44,843205670457
sports loisirs;Equipements sportifs et ludiques;Patinoire;PATINOIRE;726;95 crs du Maréchal Juin, 33000 Bordeaux;Tel : 05 57 81 43 70;http://www.axelvega.fr;-0,587989597909013;44,8350491760499
sports loisirs;Terrains et salles de sport;Gymnase Buscaillet;GYMNASE BUSCAILLET;637;rue du Cardinal Feltin, 33300 Bordeaux;;;-0,548887103977743;44,8704270510828
sports loisirs;Nautisme;Halte Nautique;HALTE NAUTIQUE;638;quai de Bacalan, 33300 Bordeaux;;;-0,547726944755416;44,8628439247483
sports loisirs;Terrains et salles de sport;Gymnase ASPTT;GYMNASE ASPTT;639;30 rue Virginia, 33200 Bordeaux;;;-0,625882257105875;44,8495749066662
sports loisirs;Equipements sportifs et ludiques;City Stade Le Tauzin;CITY STADE LE TAUZIN;640;50 rue du Tauzin, 33000 Bordeaux;;;-0,601846325116252;44,8204322700135
sports loisirs;Terrains et salles de sport;Gymnase La Pergola;GYMNASE LA PERGOLA;641;rue Fernand Cazeres, 33200 Bordeaux;;;-0,615965414026424;44,8511769221244
sports loisirs;Equipements sportifs et ludiques;City Stade Benauge;CITY STADE BENAUGE;642;rue Raymond Poincaré, 33100 Bordeaux;;;-0,545724347403076;44,8452768532014
sports loisirs;Terrains et salles de sport;Stade Brun;STADE BRUN;643;67 rue Brun, 33800 Bordeaux;;;-0,575502765919592;44,8172692202088
sports loisirs;Terrains et salles de sport;Antennes Sportives;ANTENNES SPORTIVES;644;6 crs Jules ladoumegue, 33300 Bordeaux;;;-0,571688357430244;44,8985619724212
sports loisirs;Terrains et salles de sport;Stade Chauffour;STADE CHAUFFOUR;645;rue Chauffour, 33000 Bordeaux;;;-0,590312686568708;44,8393880489661
sports loisirs;Nautisme;Ponton d'honneur de Bordeaux;PONTON D  HONNEUR DE BORDEAUX;646;quai Richelieu, 33000 Bordeaux;;;-0,56686681722442;44,8390031722564
sports loisirs;Terrains et salles de sport;Salle Gouffrand;SALLE GOUFFRAND;647;rue Gouffrand, 33300 Bordeaux;;;-0,571994603772505;44,8556046026623
sports loisirs;Terrains et salles de sport;Stade Grand Parc I;STADE GRAND PARC I;648;rue Condorcet, 33300 Bordeaux;;;-0,578405496440872;44,8582695453786
sports loisirs;Terrains et salles de sport;Gymnase Dupaty;GYMNASE DUPATY;650;62 rue Chantecrit, 33300 Bordeaux;;;-0,560768118075001;44,8603514278249
sports loisirs;Nautisme;Ponton des Chartrons;PONTON DES CHARTRONS;651;quai des Chartrons, 33300 Bordeaux;;;-0,563280829939238;44,8552651013699
sports loisirs;Terrains et salles de sport;Stade Grand Parc II;STADE GRAND PARC II;653;rue Docteur Schweitzer, 33300 Bordeaux;;;-0,582172235751719;44,8617043140666
sports loisirs;Terrains et salles de sport;Stade Promis;STADE PROMIS;654;35 rue de Cenac, 33100 Bordeaux;;;-0,552754358612722;44,8393780620273
sports loisirs;Piscines et baignades;Piscine Galin;PISCINE GALIN;655;3 rue Galin, 33100 Bordeaux;;;-0,540031162008047;44,8471294196081
sports loisirs;Terrains et salles de sport;Gymnase l'Aiglon;GYMNASE L'AIGLON;656;rue Minvielle, 33000 Bordeaux;;;-0,571432406191968;44,8529703534435
sports loisirs;Terrains et salles de sport;Gymnase Thiers;GYMNASE THIERS;657;ave Thiers, 33100 Bordeaux;;;-0,550984521706759;44,8461991557357
sports loisirs;Nautisme;Ponton Yves Parlier;PONTON YVES PARLIER;658;Edmond Geraud, 33100 Bordeaux;;;-0,563646094074487;44,8421995306056
sports loisirs;Terrains et salles de sport;Stade André Maginot;STADE ANDRE MAGINOT;659;7 rue André Maginot, 33200 Bordeaux;;;-0,625904519121315;44,8430622460628
sports loisirs;Equipements sportifs et ludiques;City Stade Le Lauzun;CITY STADE LE LAUZUN;660;rue des Genêts, 33300 Bordeaux;;;-0,573675770165408;44,8751558959627
sports loisirs;Terrains et salles de sport;Stade Monséjour;STADE MONSEJOUR;661;rue François Coppée, 33200 Bordeaux;;;-0,632265586071185;44,8538392857537
sports loisirs;Equipements sportifs et ludiques;Skate Parc;SKATE PARC;737;quai des Chartrons, 33300 Bordeaux;Les engins à roulettes disposent de 1 000 m2 réservés et équipés de modules quai des Chartrons avec le skate-park.;;-0,56565680552764;44,8539088788621
sports loisirs;Equipements sportifs et ludiques;Maison des 5 sens;MAISON DES 5 SENS;966;allée des peupliers, 33000 Bordeaux;;;-0,610776988095544;44,83196856031
sports loisirs;Nautisme;Embarcadère Montesquieu;EMBARCADERE MONTESQUIEU;1024;quai Queyries, 33100 Bordeaux;;;-0,565675679720587;44,8457215649623
sports loisirs;Nautisme;Ponton Burdigala;PONTON BURDIGALA;1025;quai de Queyries, 33100 Bordeaux;;;-0,562467970266504;44,8411766689405
sports loisirs;Nautisme;Embarcadères Albert Londres, La Fayette et Thomas Jefferson ;EMBARCADERES ALBERT LONDRES, LA FAYETTE ET THOMAS JEFFERSON;1029;33300 quai des Chartrons,  Bordeaux;;;-0,565196560464287;44,8538462573048
sports loisirs;Terrains et salles de sport;Complexe sportif Virginia (gymnase Virginia et stade Henri Lequesne);COMPLEXE SPORTIF VIRGINIA;977;22 rue Virginia, 33200 Bordeaux;;;-0,626726750618714;44,8488965654995
sports loisirs;Terrains et salles de sport;Plaine des sports Colette Besson;PLAINE DES SPORTS COLETTE BESSON;980;cours Jules Ladoumegue, 33300 Bordeaux;;;-0,570892735293164;44,8982050822315
sports loisirs;Equipements sportifs et ludiques;Skatepark Caudéran;SKATEPARK CAUDERAN;988;place Eugène Gauthier, 33200 Bordeaux;;;-0,623288696912586;44,8574741524382
sports loisirs;Terrains et salles de sport;Nouveau Stade;NOUVEAU STADE;992;cours Jules Ladoumègue, 33000 Bordeaux;;;-0,563184485183986;44,8976657503638
sports loisirs;Nautisme;PONTON DE LA CITE DU VIN;;1054;quai de Bacalan, 33300 Bordeaux;;;-0,549264442008576;44,8617328292234
